%!PS-Adobe-3.0 EPSF-3.0
%%BoundingBox: 67 621 279 757
%%Title: circle
%%CreationDate: Thu Feb 28 15:15:52 2008
%%Creator: Tgif-4.1.45-QPL written by William Chia-Wei Cheng (bill.cheng@acm.org)
%%ProducedBy: (unknown)
%%Pages: 1
%%DocumentFonts: (atend)
%%EndComments
%%BeginPreview: 212 136 1 136
% 0000000000000000000000000000000001fffffffff80000000000
% 0000000000000000000003fffe0000000000000001000000000000
% 00000000000000000001fffffff800000000000003000000000000
% 00000000000000000007fffffffe00000000000003000000000000
% 0000000000000000007fffffffffe0000000000003800000000000
% 000000000000000003fffffffffffc000000000001000000000000
% 00000000000000001fffffffffffff800000000001000000000000
% 00000000000000003fffffffffffffc00000000001000000000000
% 0000000000000000fffffffffffffff80000000001000000000000
% 0000000000000003fffffffffffffffc0000000001000000000000
% 000000000000000fffffffffffffffff8000000001000000000000
% 000000000000001fffffffffffffffff8000000001000000000000
% 000000000000007fffffffffffffffffe000000001000000000000
% 00000000000000fffffffffffffffffff800000001000000000000
% 00000000000003fffffffffffffffffffc00000001000000000000
% 00000000000007fffffffffffffffffffe00000001000000000000
% 0000000000000fffffffffffffffffffff00000001000000000000
% 0000000000001fffffffffffffffffffff80000001000000000000
% 0000000000003fffffffffffffffffffffc0000001000000000000
% 0000000000007fffffffffffffffffffffe0000001000000000000
% 000000000000fffffffffffffffffffffff0000001000000000000
% 000000000001fffffffffffffffffffffff8000001000000000000
% 000000000003fffffffffffffffffffffffc000001000000000000
% 000000000007fffffffffffffffffffffffe000001000000000000
% 000000000007fffffffffffffffffffffffe000001000000000000
% 00000000000fffffffffffffffffffffffff000001000000000000
% 00000000001fffffffffffffffffffffffff800001000000000000
% 00000000001fffffffffffffffffffffffffc00001000000000000
% 3873c780003fffffffffffffffffffffffffc00001080000000000
% 3cf1c700007fffffffffffffffffffffffffe00001080000000000
% 1cc1ee0000fffffffffffffffffffffffffff00001080000000000
% 0cc0ee0000fffffffffffffffffffffffffff00001080000000000
% 0fc07c0000fffffffffffffffffffffffffff0000109c000000000
% 07807c0001fffffffffffffffffffffffffff800010fe000000000
% 0780380001fffffffffffffffffffffffffff800010c2000000000
% 07807c0003fffffffffffffffffffffffffffc0001083000000000
% 0f807c0003fffffffffffffffffffffffffffe0001083000000000
% 0dc0fe0003fffffffffffffffffffffffffffe0001083000000000
% 1ce1ce0007fffffffffffffffffffffffffffe0001083000000000
% 38f1c7000fffffffffffffffffffffffffffff00010c2000000000
% 3873c7000fffffffffffffffffffffffffffff00010e6000000000
% 787b83800fffffffffffffffffffffffffffff00010bc000000000
% 000000000fffffffffffffffffffffffffffff0001000000000000
% 000000001fffffffffffffffffffffffffffff8001000000000000
% 000000001fffffffffffffffffffffffffffff8001000000000000
% 000000001fffffffffffffffffffffffffffff8001000000000000
% 000000001fffffffffffffffffffffffffffff8001000000000000
% 000000001fffffffffffffffffffffffffffff8001000000000000
% 000000003fffffffffffffffffffffffffffffc001000000000000
% 000000003fffffffffffffffffffffffffffffc001000000000000
% 000000003fffffffffffffffffffffffffffffc001000000000000
% 7ff99ffe7ffffffffffffffffffffffffffffff8cffe33ffcc0000
% 000000003fffffffffffffffffffffffffffffc001000000000000
% 000000003fffffffffffffffffffffffffffffc001000c00000000
% 000000003fffffffffffffffffffffffffffffc001000c00000000
% 000000003fffffffffffffffffffffffffffffc001001c00000000
% 000000003fffffffffffffffffffffffffffffc001000000000000
% 000000003fffffffffffffffffffffffffffffc001000000000000
% 000000003fffffffffffffffffffffffffffffc001000000000000
% 000000003fffffffffffffffffffffffffffffc001000000000000
% 000000003fffffffffffffffffffffffffffffc001000000000000
% 000000003fffffffffffffffffffffffffffffc001000000000000
% 000000003fffffffffffffffffffffffffffffc001000000000000
% 000000001fffffffffffffffffffffffffffff8001000000000000
% 000000001fffffffffffffffffffffffffffff8001000000000000
% 000000001fffffffffffffffffffffffffffff8001000000000000
% 000000001fffffffffffffffffffffffffffff8001000000000000
% 000000001fffffffffffffffffffffffffffff8001000000000000
% 000000000fffffffffffffffffffffffffffff0001000000000000
% 000000000fffffffffffffffffffffffffffff0001000000000000
% 000000000fffffffffffffffffffffffffffff0001000000000000
% 000000000fffffffffffffffffffffffffffff0001000010008e00
% 0000000007fffffffffffffffffffffffffffe0001000010009f80
% 0000000007fffffffffffffffffffffffffffe0001000010013180
% 0000000003fffffffffffffffffffffffffffe00010000100170c0
% 0000000003fffffffffffffffffffffffffffc0001000017c160c0
% 0000000001fffffffffffffffffffffffffff8000100001ce20080
% 0000000001fffffffffffffffffffffffffff80001000018620180
% 0000000001fffffffffffffffffffffffffff80001000010220300
% 0000000000fffffffffffffffffffffffffff00001000010220e00
% 0000000000fffffffffffffffffffffffffff00001000010241800
% 00000000007fffffffffffffffffffffffffe00001000010243000
% 00000000007fffffffffffffffffffffffffe000010000186c6000
% 00000000003fffffffffffffffffffffffffc0000100001fcc7fc0
% 00000000001fffffffffffffffffffffffff800001000013887fc0
% 00000000001fffffffffffffffffffffffff800001000000000000
% 00000000000fffffffffffffffffffffffff000001000000000000
% 000000000007fffffffffffffffffffffffe000001000000000000
% 000000000003fffffffffffffffffffffffc000001000000000000
% 000000000001fffffffffffffffffffffffc000001000000000000
% 000000000000fffffffffffffffffffffff0000001000000000000
% 0000000000007fffffffffffffffffffffe0000001000000000000
% 0000000008003fffffffffffffffffffffc0000001000000000000
% 0000000008001fffffffffffffffffffffc0000001000000000000
% 0000000008000fffffffffffffffffffff00000001000000000000
% 00000000080007fffffffffffffffffffe00000001000000000000
% 00000000080003fffffffffffffffffffc00000001000000000000
% 00000000080001fffffffffffffffffff800000001000000000000
% 000000000800007fffffffffffffffffe000000001000000000000
% 000000000800003fffffffffffffffffc000000001000000000000
% 000000000800000fffffffffffffffff8000000001000000000000
% 0000000008000007fffffffffffffffe0000000001000000000000
% 0000000008000001fffffffffffffff80000000001000000000000
% 00000000080000007fffffffffffffe00000000001000000000000
% 00000000080000001fffffffffffff800000000001000000000000
% 000000000800000003fffffffffffc000000000003801c00000000
% 000000000800000001fffffffffff8000000000003801c00000000
% 0000000008000000001fffffffff80000000000003000c00000000
% 00000000080000000001fffffff800000000000001000c00000000
% 0000000008000000000003fffe0000000000000000000000000000
% 000000000800000000000000000000000000000000000000000000
% 000000000800000000000000000000000000000000000000000000
% 000000000800000000000000000000000000000000000000000000
% 000000000880000000000000000000000000100000000000000000
% 000000000b800000000000000000000000001c0000000000000000
% 000000000b800000000000000000000000001c0000000000000000
% 000000000800000000000000000000000000000000000000000000
% 000000000800000000000000000000000000000000000000000000
% 000000000800000000000000000000000000000000000000000000
% 000000000800000000000000000000000000000000000000000000
% 000000000000000000000000000000000000000000000000000000
% 00000000000000000000007e000000000000000000000000000000
% 000000000000000000000066000000000000000000000000000000
% 0000000000000000000000c3000000000000000000000000000000
% 000000000000000000000007000000000000000000000000000000
% 00000000000000000000003f000000000000000000000000000000
% 0000000000000000000000f3000000000000000000000000000000
% 0000000000000000000000c3000000000000000000000000000000
% 0000000000000000000000c7000000000000000000000000000000
% 0000000000000000000000ef000000000000000000000000000000
% 0000000000000000000000fb800000000000000000000000000000
% 000000000000000000000000000000000000000000000000000000
% 000000000000000000000000000000000000000000000000000000
% 000000000000000000000000000000000000000000000000000000
% 000000000000000000000000000000000000000000000000000000
% 000000000000000000000000000000000000000000000000000000
%%EndImage
%%EndPreview
%%BeginProlog

/tgifdict 55 dict def
tgifdict begin

/tgifellipsedict 6 dict def
tgifellipsedict /mtrx matrix put

/TGEL % tgifellipse
 { tgifellipsedict begin
      /yrad exch def
      /xrad exch def
      /y exch def
      /x exch def
      /savematrix mtrx currentmatrix def
      x y translate
      xrad yrad scale
      0 0 1 0 360 arc
      savematrix setmatrix
   end
 } def

/tgifarrowtipdict 8 dict def
tgifarrowtipdict /mtrx matrix put

/TGAT % tgifarrowtip
 { tgifarrowtipdict begin
      /dy exch def
      /dx exch def
      /h exch def
      /w exch def
      /y exch def
      /x exch def
      /savematrix mtrx currentmatrix def
      x y translate
      dy dx atan rotate
      0 0 moveto
      w neg h lineto
      w neg h neg lineto
      savematrix setmatrix
   end
 } def

/TGMAX
 { exch dup 3 1 roll exch dup 3 1 roll gt { pop } { exch pop } ifelse
 } def
/TGMIN
 { exch dup 3 1 roll exch dup 3 1 roll lt { pop } { exch pop } ifelse
 } def
/TGSW { stringwidth pop } def

/bd { bind def } bind def

/GS { gsave } bd
/GR { grestore } bd
/NP { newpath } bd
/CP { closepath } bd
/CHP { charpath } bd
/CT { curveto } bd
/L { lineto } bd
/RL { rlineto } bd
/M { moveto } bd
/RM { rmoveto } bd
/S { stroke } bd
/F { fill } bd
/TR { translate } bd
/RO { rotate } bd
/SC { scale } bd
/MU { mul } bd
/DI { div } bd
/DU { dup } bd
/NE { neg } bd
/AD { add } bd
/SU { sub } bd
/PO { pop } bd
/EX { exch } bd
/CO { concat } bd
/CL { clip } bd
/EC { eoclip } bd
/EF { eofill } bd
/IM { image } bd
/IMM { imagemask } bd
/ARY { array } bd
/SG { setgray } bd
/RG { setrgbcolor } bd
/SD { setdash } bd
/W { setlinewidth } bd
/SM { setmiterlimit } bd
/SLC { setlinecap } bd
/SLJ { setlinejoin } bd
/SH { show } bd
/FF { findfont } bd
/MS { makefont setfont } bd
/AR { arcto 4 {pop} repeat } bd
/CURP { currentpoint } bd
/FLAT { flattenpath strokepath clip newpath } bd
/TGSM { tgiforigctm setmatrix } def
/TGRM { savematrix setmatrix } def

end

%%EndProlog
%%Page: 1 1

%%PageBoundingBox: 67 621 279 757
tgifdict begin
/tgifsavedpage save def

1 SM
1 W

0 SG

72 0 MU 72 11 MU TR
72 128 DI 100.000 MU 100 DI DU NE SC

GS

/tgiforigctm matrix currentmatrix def

% POLY/OPEN-SPLINE
0 SG
GS
   NP
      363 258 M
      462 258 L
   TGSM
   1 W
   S
GR

% POLY/OPEN-SPLINE
0 SG
GS
   NP
      360 64 M
      427 64 L
   TGSM
   1 W
   S
GR

% POLY/OPEN-SPLINE
0 SG
GS
   NP
      185 226 M
      185 274 L
   TGSM
   1 W
   S
GR

% POLY/OPEN-SPLINE
0 SG
GS
   NP
      389 221 M
      389 269 L
   TGSM
   1 W
   S
GR

% POLY/OPEN-SPLINE
0 SG
GS
   NP
      185 265 M
      0 203 atan DU cos 8.000 MU exch sin 8.000 MU RM
      0 203 atan DU cos 8.000 MU 388 exch SU
      exch sin 8.000 MU 265 exch SU L
   TGSM
   1 W
   S
GR
GS
   TGSM
   NP
      185 265 8.000 3.000 -203 0 TGAT
   1 SG CP F
   0 SG
   NP
      185 265 8.000 3.000 -203 0 TGAT
   CP F
GR
GS
   TGSM
   NP
      388 265 8.000 3.000 203 0 TGAT
   1 SG CP F
   0 SG
   NP
      388 265 8.000 3.000 203 0 TGAT
   CP F
GR

% POLY/OPEN-SPLINE
0 SG
GS
   NP
      416 64 M
      192 0 atan DU cos 8.000 MU exch sin 8.000 MU RM
      192 0 atan DU cos 8.000 MU 416 exch SU
      exch sin 8.000 MU 256 exch SU L
   TGSM
   1 W
   S
GR
GS
   TGSM
   NP
      416 64 8.000 3.000 0 -192 TGAT
   1 SG CP F
   0 SG
   NP
      416 64 8.000 3.000 0 -192 TGAT
   CP F
GR
GS
   TGSM
   NP
      416 256 8.000 3.000 0 192 TGAT
   1 SG CP F
   0 SG
   NP
      416 256 8.000 3.000 0 192 TGAT
   CP F
GR

% POLY/OPEN-SPLINE
0 SG
GS
   [20 4 4 4] 0 SD
   NP
      123 154 M
      471 154 L
   TGSM
   2 W
   S
   [] 0 SD
   1 W
GR

% TEXT
NP
0 SG
   GS
      1 W
      422 138 M
      GS
            0 SG
            /Helvetica FF [34 0 0 -34 0 0] MS
            (b) SH
      GR
   GR

% TEXT
NP
0 SG
   GS
      1 W
      275 294 M
      GS
            0 SG
            /Helvetica FF [34 0 0 -34 0 0] MS
            (a) SH
      GR
   GR

% POLY/OPEN-SPLINE
0 SG
GS
   [20 4 4 4] 0 SD
   NP
      440 154 M
      103 0 atan DU cos 8.000 MU exch sin 8.000 MU RM
      103 0 atan DU cos 8.000 MU 440 exch SU
      exch sin 8.000 MU 257 exch SU L
   TGSM
   1 W
   S
   [] 0 SD
GR
GS
   TGSM
   NP
      440 154 8.000 3.000 0 -103 TGAT
   1 SG CP F
   0 SG
   NP
      440 154 8.000 3.000 0 -103 TGAT
   CP F
GR
GS
   TGSM
   NP
      440 257 8.000 3.000 0 103 TGAT
   1 SG CP F
   0 SG
   NP
      440 257 8.000 3.000 0 103 TGAT
   CP F
GR

% TEXT
NP
0 SG
   GS
      1 W
      449 213 M
      GS
            0 SG
            /Helvetica FF [34 0 0 -34 0 0] MS
            (b/2) SH
      GR
   GR

% TEXT
NP
0 SG
   GS
      1 W
      122 137 M
      GS
            0 SG
            /Helvetica-Bold FF [34 0 0 -34 0 0] MS
            (XX) SH
      GR
   GR

% OVAL
0.373 0.620 0.627 RG
NP 286 161 105 95 TGEL F
GS
   GS
      NP 286 161 105 95 TGEL
      2 W
      S
   GR
GR

% TEXT
NP
0 SG
   GS
      1 W
      248 124 M
      GS
            0 SG
            /Helvetica FF [34 0 0 -34 0 0] MS
            (a = b) SH
      GR
   GR

GR
tgifsavedpage restore
end
showpage

%%Trailer
%MatchingCreationDate: Thu Feb 28 15:15:52 2008
%%DocumentFonts: Helvetica-Bold
%%+ Helvetica
%%EOF
