%TGIF 4.1.45-QPL
state(0,37,100.000,0,0,0,32,0,9,1,1,1,0,0,0,1,0,'Helvetica',0,144000,0,0,0,10,0,0,1,1,0,16,0,0,1,1,1,1,1088,1408,0,0,2880,0).
%
% @(#)$Header$
% %W%
%
unit("1 pixel/pixel").
color_info(13,65535,0,[
	"magenta", 65535, 0, 65535, 65535, 0, 65535, 1,
	"red", 65535, 0, 0, 65535, 0, 0, 1,
	"green", 0, 65535, 0, 0, 65535, 0, 1,
	"blue", 0, 0, 65535, 0, 0, 65535, 1,
	"yellow", 65535, 65535, 0, 65535, 65535, 0, 1,
	"pink", 65535, 49344, 52171, 65535, 49344, 52171, 1,
	"cyan", 0, 65535, 65535, 0, 65535, 65535, 1,
	"CadetBlue", 24415, 40606, 41120, 24415, 40606, 41120, 1,
	"white", 65535, 65535, 65535, 65535, 65535, 65535, 1,
	"black", 0, 0, 0, 0, 0, 0, 1,
	"DarkSlateGray", 12079, 20303, 20303, 12079, 20303, 20303, 1,
	"#0000ff", 0, 0, 65535, 0, 0, 65280, 1,
	"#ff00ff", 65535, 0, 65535, 65280, 0, 65280, 1
]).
script_frac("0.6").
fg_bg_colors('black','white').
dont_reencode("FFDingbests:ZapfDingbats").
objshadow_info('#c0c0c0',2,2).
page(1,"",1,'').
poly('black','',2,[
	192,192,179,213],0,1,1,3,0,0,0,0,0,0,0,'1',0,0,
    "0","",[
    0,8,3,0,'8','3','0'],[0,8,3,0,'8','3','0'],[
]).
poly('black','',2,[
	423,253,407,290],0,1,1,4,0,0,0,0,0,0,0,'1',0,0,
    "0","",[
    0,8,3,0,'8','3','0'],[0,8,3,0,'8','3','0'],[
]).
poly('black','',2,[
	187,208,412,272],3,1,1,5,0,0,0,0,0,0,0,'1',0,0,
    "0","",[
    0,8,3,0,'8','3','0'],[0,8,3,0,'8','3','0'],[
]).
text('black',262,228,1,0,1,11,38,12,31,7,0,0,0,0,2,11,38,0,0,"",0,0,0,0,259,'',[
minilines(11,38,0,0,0,0,0,[
mini_line(11,31,7,0,0,0,[
str_block(0,11,31,7,0,-1,0,0,0,[
str_seg('black','Helvetica',0,195840,11,31,7,0,-1,0,0,0,0,0,
	"r")])
])
])]).
text('black',147,153,1,0,1,36,29,17,24,5,0,0,0,0,2,36,29,0,0,"",0,0,0,0,177,'',[
minilines(36,29,0,0,0,0,0,[
mini_line(36,24,5,0,0,0,[
str_block(0,36,24,5,0,-1,0,0,0,[
str_seg('black','Helvetica-Bold',1,144000,36,24,5,0,-1,0,0,0,0,0,
	"XX")])
])
])]).
arc('CadetBlue','',1,2,1,0,-51,-50,191,192,424,258,420,126,0,484,484,-960,1984,1427,0,0,10,4,0,0,0,'2','10','4',0,[
]).
poly('black','',2,[
	146,193,471,193],3,2,1,7,0,0,4,0,0,0,0,'2',0,0,
    "0","",[
    0,10,4,0,'10','4','0'],[0,10,4,0,'10','4','0'],[
]).
icon([
polygon('black','',5,[
	274,181,278,181,278,177,274,177,274,181],0,1,0,0,1432,0,0,0,0,0,'1',0,
    "00",[
]),
xbm('black','',274,177,285,186,1,1476,0,11,9,0,0,1,301000,685000,312000,694000,0,0,1,0,0,0,0,
    "Wed Feb 27 12:14:59 2008","/tmp/TgifAL3Qkx.eps",184,[
    "%!PS-Adobe-2.0 EPSF-1.2",
    "%!PS (but not EPSF; comments have been disabled)",
    "%DVIPSWebPage: (www.radicaleye.com)",
    "%DVIPSCommandLine: dvips -N -n 1 -o /tmp/TgifAL3Qkx.ps /tmp/TgifAL3Qkx",
    "%DVIPSParameters: dpi=600, compressed",
    "%DVIPSSource:  TeX output 2008.02.27:1214",
    "%!",
    "/TeXDict 300 dict def TeXDict begin/N{def}def/B{bind def}N/S{exch}N/X{S",
    "N}B/A{dup}B/TR{translate}N/isls false N/vsize 11 72 mul N/hsize 8.5 72",
    "mul N/landplus90{false}def/@rigin{isls{[0 landplus90{1 -1}{-1 1}ifelse 0",
    "0 0]concat}if 72 Resolution div 72 VResolution div neg scale isls{",
    "landplus90{VResolution 72 div vsize mul 0 exch}{Resolution -72 div hsize",
    "mul 0}ifelse TR}if Resolution VResolution vsize -72 div 1 add mul TR[",
    "matrix currentmatrix{A A round sub abs 0.00001 lt{round}if}forall round",
    "exch round exch]setmatrix}N/@landscape{/isls true N}B/@manualfeed{",
    "statusdict/manualfeed true put}B/@copies{/#copies X}B/FMat[1 0 0 -1 0 0]",
    "N/FBB[0 0 0 0]N/nn 0 N/IEn 0 N/ctr 0 N/df-tail{/nn 8 dict N nn begin",
    "/FontType 3 N/FontMatrix fntrx N/FontBBox FBB N string/base X array",
    "/BitMaps X/BuildChar{CharBuilder}N/Encoding IEn N end A{/foo setfont}2",
    "array copy cvx N load 0 nn put/ctr 0 N[}B/sf 0 N/df{/sf 1 N/fntrx FMat N",
    "df-tail}B/dfs{div/sf X/fntrx[sf 0 0 sf neg 0 0]N df-tail}B/E{pop nn A",
    "definefont setfont}B/Cw{Cd A length 5 sub get}B/Ch{Cd A length 4 sub get",
    "}B/Cx{128 Cd A length 3 sub get sub}B/Cy{Cd A length 2 sub get 127 sub}",
    "B/Cdx{Cd A length 1 sub get}B/Ci{Cd A type/stringtype ne{ctr get/ctr ctr",
    "1 add N}if}B/id 0 N/rw 0 N/rc 0 N/gp 0 N/cp 0 N/G 0 N/CharBuilder{save 3",
    "1 roll S A/base get 2 index get S/BitMaps get S get/Cd X pop/ctr 0 N Cdx",
    "0 Cx Cy Ch sub Cx Cw add Cy setcachedevice Cw Ch true[1 0 0 -1 -.1 Cx",
    "sub Cy .1 sub]/id Ci N/rw Cw 7 add 8 idiv string N/rc 0 N/gp 0 N/cp 0 N{",
    "rc 0 ne{rc 1 sub/rc X rw}{G}ifelse}imagemask restore}B/G{{id gp get/gp",
    "gp 1 add N A 18 mod S 18 idiv pl S get exec}loop}B/adv{cp add/cp X}B",
    "/chg{rw cp id gp 4 index getinterval putinterval A gp add/gp X adv}B/nd{",
    "/cp 0 N rw exit}B/lsh{rw cp 2 copy get A 0 eq{pop 1}{A 255 eq{pop 254}{",
    "A A add 255 and S 1 and or}ifelse}ifelse put 1 adv}B/rsh{rw cp 2 copy",
    "get A 0 eq{pop 128}{A 255 eq{pop 127}{A 2 idiv S 128 and or}ifelse}",
    "ifelse put 1 adv}B/clr{rw cp 2 index string putinterval adv}B/set{rw cp",
    "fillstr 0 4 index getinterval putinterval adv}B/fillstr 18 string 0 1 17",
    "{2 copy 255 put pop}for N/pl[{adv 1 chg}{adv 1 chg nd}{1 add chg}{1 add",
    "chg nd}{adv lsh}{adv lsh nd}{adv rsh}{adv rsh nd}{1 add adv}{/rc X nd}{",
    "1 add set}{1 add clr}{adv 2 chg}{adv 2 chg nd}{pop nd}]A{bind pop}",
    "forall N/D{/cc X A type/stringtype ne{]}if nn/base get cc ctr put nn",
    "/BitMaps get S ctr S sf 1 ne{A A length 1 sub A 2 index S get sf div put",
    "}if put/ctr ctr 1 add N}B/I{cc 1 add D}B/bop{userdict/bop-hook known{",
    "bop-hook}if/SI save N @rigin 0 0 moveto/V matrix currentmatrix A 1 get A",
    "mul exch 0 get A mul add .99 lt{/QV}{/RV}ifelse load def pop pop}N/eop{",
    "SI restore userdict/eop-hook known{eop-hook}if showpage}N/@start{",
    "userdict/start-hook known{start-hook}if pop/VResolution X/Resolution X",
    "1000 div/DVImag X/IEn 256 array N 2 string 0 1 255{IEn S A 360 add 36 4",
    "index cvrs cvn put}for pop 65781.76 div/vsize X 65781.76 div/hsize X}N",
    "/p{show}N/RMat[1 0 0 -1 0 0]N/BDot 260 string N/Rx 0 N/Ry 0 N/V{}B/RV/v{",
    "/Ry X/Rx X V}B statusdict begin/product where{pop false[(Display)(NeXT)",
    "(LaserWriter 16/600)]{A length product length le{A length product exch 0",
    "exch getinterval eq{pop true exit}if}{pop}ifelse}forall}{false}ifelse",
    "end{{gsave TR -.1 .1 TR 1 1 scale Rx Ry false RMat{BDot}imagemask",
    "grestore}}{{gsave TR -.1 .1 TR Rx Ry scale 1 1 false RMat{BDot}",
    "imagemask grestore}}ifelse B/QV{gsave newpath transform round exch round",
    "exch itransform moveto Rx 0 rlineto 0 Ry neg rlineto Rx neg 0 rlineto",
    "fill grestore}B/a{moveto}B/delta 0 N/tail{A/delta X 0 rmoveto}B/M{S p",
    "delta add tail}B/b{S p tail}B/c{-4 M}B/d{-3 M}B/e{-2 M}B/f{-1 M}B/g{0 M}",
    "B/h{1 M}B/i{2 M}B/j{3 M}B/k{4 M}B/w{0 rmoveto}B/l{p -4 w}B/m{p -3 w}B/n{",
    "p -2 w}B/o{p -1 w}B/q{p 1 w}B/r{p 2 w}B/s{p 3 w}B/t{p 4 w}B/x{0 S",
    "rmoveto}B/y{3 2 roll p a}B/bos{/SS save N}B/eos{SS restore}B end",
    "% Thomas Esser, Dec 2002. public domain",
    "%",
    "% Encoding for:",
    "%     cmmi10 cmmi12 cmmi5 cmmi6 cmmi7 cmmi8 cmmi9 cmmib10",
    "%",
    "/TeXaae443f0Encoding [",
    "/Gamma /Delta /Theta /Lambda /Xi /Pi /Sigma /Upsilon /Phi /Psi /Omega",
    "/alpha /beta /gamma /delta /epsilon1 /zeta /eta /theta /iota /kappa",
    "/lambda /mu /nu /xi /pi /rho /sigma /tau /upsilon /phi /chi /psi",
    "/omega /epsilon /theta1 /pi1 /rho1 /sigma1 /phi1 /arrowlefttophalf",
    "/arrowleftbothalf /arrowrighttophalf /arrowrightbothalf /arrowhookleft",
    "/arrowhookright /triangleright /triangleleft /zerooldstyle /oneoldstyle",
    "/twooldstyle /threeoldstyle /fouroldstyle /fiveoldstyle /sixoldstyle",
    "/sevenoldstyle /eightoldstyle /nineoldstyle /period /comma /less /slash",
    "/greater /star /partialdiff /A /B /C /D /E /F /G /H /I /J /K /L /M /N",
    "/O /P /Q /R /S /T /U /V /W /X /Y /Z /flat /natural /sharp /slurbelow",
    "/slurabove /lscript /a /b /c /d /e /f /g /h /i /j /k /l /m /n /o /p",
    "/q /r /s /t /u /v /w /x /y /z /dotlessi /dotlessj /weierstrass /vector",
    "/tie /psi /.notdef /.notdef /.notdef /.notdef /.notdef /.notdef /.notdef",
    "/.notdef /.notdef /.notdef /.notdef /.notdef /.notdef /.notdef /.notdef",
    "/.notdef /.notdef /.notdef /.notdef /.notdef /.notdef /.notdef /.notdef",
    "/.notdef /.notdef /.notdef /.notdef /.notdef /.notdef /.notdef /.notdef",
    "/space /Gamma /Delta /Theta /Lambda /Xi /Pi /Sigma /Upsilon /Phi /Psi",
    "/.notdef /.notdef /Omega /alpha /beta /gamma /delta /epsilon1 /zeta /eta",
    "/theta /iota /kappa /lambda /mu /nu /xi /pi /rho /sigma /tau /upsilon",
    "/phi /chi /psi /tie /.notdef /.notdef /.notdef /.notdef /.notdef /.notdef",
    "/.notdef /.notdef /.notdef /.notdef /.notdef /.notdef /.notdef /.notdef",
    "/.notdef /.notdef /.notdef /.notdef /.notdef /.notdef /.notdef /.notdef",
    "/.notdef /.notdef /.notdef /.notdef /.notdef /.notdef /.notdef /.notdef",
    "/.notdef /.notdef /.notdef /.notdef /.notdef /.notdef /.notdef /.notdef",
    "/.notdef /.notdef /.notdef /.notdef /.notdef /.notdef /.notdef /.notdef",
    "/.notdef /.notdef /.notdef /.notdef /.notdef /.notdef /.notdef /.notdef",
    "/.notdef /.notdef /.notdef /.notdef /.notdef",
    "] def",
    "%!",
    "TeXDict begin/rf{findfont dup length 1 add dict begin{1 index/FID ne 2",
    "index/UniqueID ne and{def}{pop pop}ifelse}forall[1 index 0 6 -1 roll",
    "exec 0 exch 5 -1 roll VResolution Resolution div mul neg 0 0]FontType 0",
    "ne{/Metrics exch def dict begin Encoding{exch dup type/integertype ne{",
    "pop pop 1 sub dup 0 le{pop}{[}ifelse}{FontMatrix 0 get div Metrics 0 get",
    "div def}ifelse}forall Metrics/Metrics currentdict end def}{{1 index type",
    "/nametype eq{exit}if exch pop}loop}ifelse[2 index currentdict end",
    "definefont 3 -1 roll makefont/setfont cvx]cvx def}def/ObliqueSlant{dup",
    "sin S cos div neg}B/SlantFont{4 index mul add}def/ExtendFont{3 -1 roll",
    "mul exch}def/ReEncodeFont{CharStrings rcheck{/Encoding false def dup[",
    "exch{dup CharStrings exch known not{pop/.notdef/Encoding true def}if}",
    "forall Encoding{]exch pop}{cleartomark}ifelse}if/Encoding exch def}def",
    "end",
    "%!PS-AdobeFont-1.1: CMMI12 1.100",
    "% Copyright (C) 1997 American Mathematical Society. All Rights Reserved.",
    "11 dict begin",
    "/FontInfo 7 dict dup begin",
    "/version (1.100) readonly def",
    "/Notice (Copyright (C) 1997 American Mathematical Society. All Rights Reserved) readonly def",
    "/FullName (CMMI12) readonly def",
    "/FamilyName (Computer Modern) readonly def",
    "/Weight (Medium) readonly def",
    "/ItalicAngle -14.04 def",
    "/isFixedPitch false def",
    "end readonly def",
    "/FontName /CMMI12 def",
    "/PaintType 0 def",
    "/FontType 1 def",
    "/FontMatrix [0.001 0 0 0.001 0 0] readonly def",
    "/Encoding 256 array",
    "0 1 255 {1 index exch /.notdef put} for",
    "dup 0 /.notdef put",
    "readonly def",
    "/FontBBox{-30 -250 1026 750}readonly def",
    "/UniqueID 5087386 def",
    "currentdict end",
    "currentfile eexec",
    "D9D66F633B846A97B686A97E45A3D0AA0529731C99A784CCBE85B4993B2EEBDE",
    "3B12D472B7CF54651EF21185116A69AB1096ED4BAD2F646635E019B6417CC77B",
    "532F85D811C70D1429A19A5307EF63EB5C5E02C89FC6C20F6D9D89E7D91FE470",
    "B72BEFDA23F5DF76BE05AF4CE93137A219ED8A04A9D7D6FDF37E6B7FCDE0D90B",
    "986423E5960A5D9FBB4C956556E8DF90CBFAEC476FA36FD9A5C8175C9AF513FE",
    "D919C2DDD26BDC0D99398B9F4D03D6A8F05B47AF95EF28A9C561DBDC98C47CF5",
    "5250011D19E9366EB6FD153D3A100CAA6212E3D5D93990737F8D326D347B7EDC",
    "4391C9DF440285B8FC159D0E98D4258FC57892DCC57F7903449E07914FBE9E67",
    "3C15C2153C061EB541F66C11E7EE77D5D77C0B11E1AC55101DA976CCACAB6993",
    "EED1406FBB7FF30EAC9E90B90B2AF4EC7C273CA32F11A5C1426FF641B4A2FB2F",
    "4E68635C93DB835737567FAF8471CBC05078DCD4E40E25A2F4E5AF46C234CF59",
    "2A1CE8F39E1BA1B2A594355637E474167EAD4D97D51AF0A899B44387E1FD933A",
    "323AFDA6BA740534A510B4705C0A15647AFBF3E53A82BF320DD96753639BE49C",
    "2F79A1988863EF977B800C9DB5B42039C23EB86953713F730E03EA22FF7BB2C1",
    "D97D33FD77B1BDCC2A60B12CF7805CFC90C5B914C0F30A673DF9587F93E47CEA",
    "5932DD1930560C4F0D97547BCD805D6D854455B13A4D7382A22F562D7C55041F",
    "0FD294BDAA1834820F894265A667E5C97D95FF152531EF97258F56374502865D",
    "A1E7C0C5FB7C6FB7D3C43FEB3431095A59FBF6F61CEC6D6DEE09F4EB0FD70D77",
    "2A8B0A4984C6120293F6B947944BE23259F6EB64303D627353163B6505FC8A60",
    "00681F7A3968B6CBB49E0420A691258F5E7B07B417157803FCBE9B9FB1F80FD8",
    "CA0DA1186446DD565542BCCC7D339A1EB34C7F49246E8D72E987EB477C6DB757",
    "99AF86CEBCD7605C487A00CD2CD093098182DC57B20D78ECE0BECF3A0BF88EBA",
    "C866DB19F34BBBED6634AFC0F08D2AFB2A92578A6F8B4ADCD6594737FF6EED7D",
    "5B536DA9E3E2CADB40DB7C600EA4D100D33C3B92B1CF857E012C4EB370BA8295",
    "55B50047CC8911C98FE1A7BA6CDEA82D34476286E710663BB7427AD7373E0A17",
    "3D7158FE66B62F6A5635767E436D25B174633BC0312636DC9EC208DA7D90119B",
    "AAFD0A25159F1003B28B2921BE63F3CCA93667EA25B63871DE5CDE1396C3B6D9",
    "98185F364E19A7810699DA1229D7930923F10DD8F60223C7994BDDF905738827",
    "A55FBBE69BDCD49B8B707F02938746C5F1B721E24ECACBEE6F33E09EE3AE0261",
    "16D70C22522CBC18D37CE0F2B7554B10FC2D78A3F9D294C5A45D3121CA918BEE",
    "769DF51B1BE093E70BE8AD6E00B5BE4FD69F77A4947F977795D12922A5F0ABA8",
    "C2A8E8AE2184DF64FC74575BF2ADE11631D7047BCBBD4B8D906DD36E2D11BC52",
    "CA00100AA6B0A8AD3CC2940029C459C9C6641D8E3C0FF7055BD88F714C2FDA4E",
    "733CBD7A0E8378154D9846E6C4974FCD2F3F37EC2365C1A0F5716016F713DE08",
    "4DF6E99F6B5EA27065FF372179AC6D0E1E980C4D00A149",
    "0000000000000000000000000000000000000000000000000000000000000000",
    "0000000000000000000000000000000000000000000000000000000000000000",
    "0000000000000000000000000000000000000000000000000000000000000000",
    "0000000000000000000000000000000000000000000000000000000000000000",
    "0000000000000000000000000000000000000000000000000000000000000000",
    "0000000000000000000000000000000000000000000000000000000000000000",
    "0000000000000000000000000000000000000000000000000000000000000000",
    "0000000000000000000000000000000000000000000000000000000000000000",
    "cleartomark",
    "TeXDict begin 39158280 55380996 1000 600 600 (/tmp/TgifAL3Qkx.dvi)",
    "@start /Fa 244[107 11[{ TeXaae443f0Encoding ReEncodeFont }1",
    "172.188 /CMMI12 rf end",
    "TeXDict begin",
    " end",
    "TeXDict begin 1 0 bop 1896 714 a Fa(\013)p eop end",
    "userdict /end-hook known{end-hook}if"],
    "1e0232412c14c14818810c387ce",[
])
],
"eq4",1431,0,0,0,0,[
attr("footer=", "", 0, 1, 1,
text('#ff00ff',274,28,3,0,1,126,48,1434,13,3,0,0,0,0,2,126,48,0,0,"",0,0,0,0,41,'',[
minilines(126,48,0,0,0,0,0,[
mini_line(63,13,3,0,0,0,[
str_block(0,63,13,3,0,-1,0,0,0,[
str_seg('#0000ff','Courier',0,80640,63,13,3,0,-1,0,0,0,0,0,
	"footer=")])
]),
mini_line(9,13,3,0,0,0,[
str_block(0,9,13,3,0,-1,0,0,0,[
str_seg('#0000ff','Courier',0,80640,9,13,3,0,-1,0,0,0,0,0,
	"%")])
]),
mini_line(126,13,3,0,0,0,[
str_block(0,126,13,3,0,-4,0,0,0,[
str_seg('#0000ff','Courier',0,80640,126,13,3,0,-4,0,0,0,0,0,
	"\\end{document}")])
])
])])),
attr("header=", "", 0, 1, 1,
text('#ff00ff',450,28,11,0,1,270,176,1435,13,3,0,0,0,0,2,270,176,0,0,"",0,0,0,0,41,'',[
minilines(270,176,0,0,0,0,0,[
mini_line(63,13,3,0,0,0,[
str_block(0,63,13,3,0,-1,0,0,0,[
str_seg('#0000ff','Courier',0,80640,63,13,3,0,-1,0,0,0,0,0,
	"header=")])
]),
mini_line(261,13,3,0,0,0,[
str_block(0,261,13,3,0,-4,0,0,0,[
str_seg('#0000ff','Courier',0,80640,261,13,3,0,-4,0,0,0,0,0,
	"\\documentstyle[12pt]{article}")])
]),
mini_line(162,13,3,0,0,0,[
str_block(0,162,13,3,0,-1,0,0,0,[
str_seg('#0000ff','Courier',0,80640,162,13,3,0,-1,0,0,0,0,0,
	"\\oddsidemargin=0in")])
]),
mini_line(144,13,3,0,0,0,[
str_block(0,144,13,3,0,-1,0,0,0,[
str_seg('#0000ff','Courier',0,80640,144,13,3,0,-1,0,0,0,0,0,
	"\\textwidth=6.5in")])
]),
mini_line(126,13,3,0,0,0,[
str_block(0,126,13,3,0,-1,0,0,0,[
str_seg('#0000ff','Courier',0,80640,126,13,3,0,-1,0,0,0,0,0,
	"\\topmargin=0in")])
]),
mini_line(153,13,3,0,0,0,[
str_block(0,153,13,3,0,-2,0,0,0,[
str_seg('#0000ff','Courier',0,80640,153,13,3,0,-2,0,0,0,0,0,
	"\\textheight=609pt")])
]),
mini_line(117,13,3,0,0,0,[
str_block(0,117,13,3,0,-2,0,0,0,[
str_seg('#0000ff','Courier',0,80640,117,13,3,0,-2,0,0,0,0,0,
	"\\parskip=14pt")])
]),
mini_line(270,13,3,0,0,0,[
str_block(0,270,13,3,0,-4,0,0,0,[
str_seg('#0000ff','Courier',0,80640,270,13,3,0,-4,0,0,0,0,0,
	"\\setlength{\\unitlength}{0.5cm}")])
]),
mini_line(153,13,3,0,0,0,[
str_block(0,153,13,3,0,-4,0,0,0,[
str_seg('#0000ff','Courier',0,80640,153,13,3,0,-4,0,0,0,0,0,
	"\\pagestyle{empty}")])
]),
mini_line(144,13,3,0,0,0,[
str_block(0,144,13,3,0,-4,0,0,0,[
str_seg('#0000ff','Courier',0,80640,144,13,3,0,-4,0,0,0,0,0,
	"\\begin{document}")])
]),
mini_line(9,13,3,0,0,0,[
str_block(0,9,13,3,0,-1,0,0,0,[
str_seg('#0000ff','Courier',0,80640,9,13,3,0,-1,0,0,0,0,0,
	"%")])
])
])])),
attr("exec=", "", 0, 1, 1,
text('blue',274,-223,9,0,1,477,144,1436,13,3,0,0,0,0,2,477,144,0,0,"",0,0,0,0,-210,'',[
minilines(477,144,0,0,0,0,0,[
mini_line(45,13,3,0,0,0,[
str_block(0,45,13,3,0,-1,0,0,0,[
str_seg('blue','Courier',0,80640,45,13,3,0,-1,0,0,0,0,0,
	"exec=")])
]),
mini_line(378,13,3,0,0,0,[
str_block(0,378,13,3,0,-4,0,0,0,[
str_seg('blue','Courier',0,80640,378,13,3,0,-4,0,0,0,0,0,
	"    mktemp(\"/tmp/TgifXXXXXX\",\"file_name\");")])
]),
mini_line(468,13,3,0,0,0,[
str_block(0,468,13,3,0,-4,0,0,0,[
str_seg('blue','Courier',0,80640,468,13,3,0,-4,0,0,0,0,0,
	"    write_attr_into_file(header,\"$(file_name).tex\");")])
]),
mini_line(441,13,3,0,0,0,[
str_block(0,441,13,3,0,-4,0,0,0,[
str_seg('blue','Courier',0,80640,441,13,3,0,-4,0,0,0,0,0,
	"    append_attr_into_file(eq,\"$(file_name).tex\");")])
]),
mini_line(477,13,3,0,0,0,[
str_block(0,477,13,3,0,-4,0,0,0,[
str_seg('blue','Courier',0,80640,477,13,3,0,-4,0,0,0,0,0,
	"    append_attr_into_file(footer,\"$(file_name).tex\");")])
]),
mini_line(162,13,3,0,0,0,[
str_block(0,162,13,3,0,-4,0,0,0,[
str_seg('blue','Courier',0,80640,162,13,3,0,-4,0,0,0,0,0,
	"    launch(\"cmd\");")])
]),
mini_line(477,13,3,0,0,0,[
str_block(0,477,13,3,0,-4,0,0,0,[
str_seg('blue','Courier',0,80640,477,13,3,0,-4,0,0,0,0,0,
	"    pstoepsi(\"$(file_name).eps\",\"$(file_name).ps\",1);")])
]),
mini_line(369,13,3,0,0,0,[
str_block(0,369,13,3,0,-4,0,0,0,[
str_seg('blue','Courier',0,80640,369,13,3,0,-4,0,0,0,0,0,
	"    update_eps_child(\"$(file_name).eps\");")])
]),
mini_line(189,13,3,0,0,0,[
str_block(0,189,13,3,0,-4,0,0,0,[
str_seg('blue','Courier',0,80640,189,13,3,0,-4,0,0,0,0,0,
	"    launch(\"cleanup\")")])
])
])])),
attr("cmd=", "", 0, 1, 1,
text('blue',274,-103,4,0,1,702,64,1437,13,3,0,0,0,0,2,702,64,0,0,"",0,0,0,0,-90,'',[
minilines(702,64,0,0,0,0,0,[
mini_line(36,13,3,0,0,0,[
str_block(0,36,13,3,0,-1,0,0,0,[
str_seg('blue','Courier',0,80640,36,13,3,0,-1,0,0,0,0,0,
	"cmd=")])
]),
mini_line(108,13,3,0,0,0,[
str_block(0,108,13,3,0,-4,0,0,0,[
str_seg('blue','Courier',0,80640,108,13,3,0,-4,0,0,0,0,0,
	"    cd /tmp;")])
]),
mini_line(459,13,3,0,0,0,[
str_block(0,459,13,3,0,-4,0,0,0,[
str_seg('blue','Courier',0,80640,459,13,3,0,-4,0,0,0,0,0,
	"    xterm -geom 40x8+200+400 -e latex $(file_name);")])
]),
mini_line(702,13,3,0,0,0,[
str_block(0,702,13,3,0,-4,0,0,0,[
str_seg('blue','Courier',0,80640,702,13,3,0,-4,0,0,0,0,0,
	"    xterm -geom 40x8+200+400 -e dvips -N -n 1 -o $(file_name).ps $(file_name);")])
])
])])),
attr("cleanup=", "", 0, 1, 1,
text('blue',274,-23,3,0,1,540,48,1438,13,3,0,0,0,0,2,540,48,0,0,"",0,0,0,0,-10,'',[
minilines(540,48,0,0,0,0,0,[
mini_line(72,13,3,0,0,0,[
str_block(0,72,13,3,0,-1,0,0,0,[
str_seg('blue','Courier',0,80640,72,13,3,0,-1,0,0,0,0,0,
	"cleanup=")])
]),
mini_line(540,13,3,0,0,0,[
str_block(0,540,13,3,0,-2,0,0,0,[
str_seg('blue','Courier',0,80640,540,13,3,0,-2,0,0,0,0,0,
	"    rm -f $(file_name).tex $(file_name).aux $(file_name).dvi")])
]),
mini_line(513,13,3,0,0,0,[
str_block(0,513,13,3,0,-2,0,0,0,[
str_seg('blue','Courier',0,80640,513,13,3,0,-2,0,0,0,0,0,
	"        $(file_name).log $(file_name).ps $(file_name).eps")])
])
])])),
attr("file_name=", "/tmp/TgifAL3Qkx", 0, 1, 1,
text('blue',274,81,1,0,1,225,16,1439,13,3,0,0,0,0,2,225,16,0,0,"",0,0,0,0,94,'',[
minilines(225,16,0,0,0,0,0,[
mini_line(225,13,3,0,0,0,[
str_block(0,225,13,3,0,-1,0,0,0,[
str_seg('blue','Courier',0,80640,225,13,3,0,-1,0,0,0,0,0,
	"file_name=/tmp/TgifAL3Qkx")])
])
])])),
attr("eq=", "", 0, 1, 1,
text('blue',274,97,5,0,1,81,80,1453,13,3,0,0,0,0,2,81,80,0,0,"",0,0,0,0,110,'',[
minilines(81,80,0,0,0,0,0,[
mini_line(27,13,3,0,0,0,[
str_block(0,27,13,3,0,-1,0,0,0,[
str_seg('blue','Courier',0,80640,27,13,3,0,-1,0,0,0,0,0,
	"eq=")])
]),
mini_line(54,13,3,0,0,0,[
str_block(0,54,13,3,0,-1,0,0,0,[
str_seg('blue','Courier',0,80640,54,13,3,0,-1,0,0,0,0,0,
	"\\LARGE")])
]),
mini_line(18,13,3,0,0,0,[
str_block(0,18,13,3,0,-3,0,0,0,[
str_seg('blue','Courier',0,80640,18,13,3,0,-3,0,0,0,0,0,
	"\\[")])
]),
mini_line(81,13,3,0,0,0,[
str_block(0,81,13,3,0,-1,0,0,0,[
str_seg('blue','Courier',0,80640,81,13,3,0,-1,0,0,0,0,0,
	"   \\alpha")])
]),
mini_line(18,13,3,0,0,0,[
str_block(0,18,13,3,0,-4,0,0,0,[
str_seg('blue','Courier',0,80640,18,13,3,0,-4,0,0,0,0,0,
	"\\]")])
])
])])),
attr("", "not_rigid", 0, 1, 1,
text('blue',274,201,1,0,1,81,16,1441,13,3,0,0,0,0,2,81,16,0,0,"",0,0,0,0,214,'',[
minilines(81,16,0,0,0,0,0,[
mini_line(81,13,3,0,0,0,[
str_block(0,81,13,3,0,-1,0,0,0,[
str_seg('blue','Courier',0,80640,81,13,3,0,-1,0,0,0,0,0,
	"not_rigid")])
])
])]))
]).
icon([
polygon('black','',5,[
	274,205,278,205,278,201,274,201,274,205],0,1,0,0,1522,0,0,0,0,0,'1',0,
    "00",[
]),
xbm('black','',274,201,285,210,1,1523,0,11,9,0,0,1,301000,685000,312000,694000,0,0,1,0,0,0,0,
    "Wed Feb 27 12:14:59 2008","/tmp/TgifAL3Qkx.eps",184,[
    "%!PS-Adobe-2.0 EPSF-1.2",
    "%!PS (but not EPSF; comments have been disabled)",
    "%DVIPSWebPage: (www.radicaleye.com)",
    "%DVIPSCommandLine: dvips -N -n 1 -o /tmp/TgifAL3Qkx.ps /tmp/TgifAL3Qkx",
    "%DVIPSParameters: dpi=600, compressed",
    "%DVIPSSource:  TeX output 2008.02.27:1214",
    "%!",
    "/TeXDict 300 dict def TeXDict begin/N{def}def/B{bind def}N/S{exch}N/X{S",
    "N}B/A{dup}B/TR{translate}N/isls false N/vsize 11 72 mul N/hsize 8.5 72",
    "mul N/landplus90{false}def/@rigin{isls{[0 landplus90{1 -1}{-1 1}ifelse 0",
    "0 0]concat}if 72 Resolution div 72 VResolution div neg scale isls{",
    "landplus90{VResolution 72 div vsize mul 0 exch}{Resolution -72 div hsize",
    "mul 0}ifelse TR}if Resolution VResolution vsize -72 div 1 add mul TR[",
    "matrix currentmatrix{A A round sub abs 0.00001 lt{round}if}forall round",
    "exch round exch]setmatrix}N/@landscape{/isls true N}B/@manualfeed{",
    "statusdict/manualfeed true put}B/@copies{/#copies X}B/FMat[1 0 0 -1 0 0]",
    "N/FBB[0 0 0 0]N/nn 0 N/IEn 0 N/ctr 0 N/df-tail{/nn 8 dict N nn begin",
    "/FontType 3 N/FontMatrix fntrx N/FontBBox FBB N string/base X array",
    "/BitMaps X/BuildChar{CharBuilder}N/Encoding IEn N end A{/foo setfont}2",
    "array copy cvx N load 0 nn put/ctr 0 N[}B/sf 0 N/df{/sf 1 N/fntrx FMat N",
    "df-tail}B/dfs{div/sf X/fntrx[sf 0 0 sf neg 0 0]N df-tail}B/E{pop nn A",
    "definefont setfont}B/Cw{Cd A length 5 sub get}B/Ch{Cd A length 4 sub get",
    "}B/Cx{128 Cd A length 3 sub get sub}B/Cy{Cd A length 2 sub get 127 sub}",
    "B/Cdx{Cd A length 1 sub get}B/Ci{Cd A type/stringtype ne{ctr get/ctr ctr",
    "1 add N}if}B/id 0 N/rw 0 N/rc 0 N/gp 0 N/cp 0 N/G 0 N/CharBuilder{save 3",
    "1 roll S A/base get 2 index get S/BitMaps get S get/Cd X pop/ctr 0 N Cdx",
    "0 Cx Cy Ch sub Cx Cw add Cy setcachedevice Cw Ch true[1 0 0 -1 -.1 Cx",
    "sub Cy .1 sub]/id Ci N/rw Cw 7 add 8 idiv string N/rc 0 N/gp 0 N/cp 0 N{",
    "rc 0 ne{rc 1 sub/rc X rw}{G}ifelse}imagemask restore}B/G{{id gp get/gp",
    "gp 1 add N A 18 mod S 18 idiv pl S get exec}loop}B/adv{cp add/cp X}B",
    "/chg{rw cp id gp 4 index getinterval putinterval A gp add/gp X adv}B/nd{",
    "/cp 0 N rw exit}B/lsh{rw cp 2 copy get A 0 eq{pop 1}{A 255 eq{pop 254}{",
    "A A add 255 and S 1 and or}ifelse}ifelse put 1 adv}B/rsh{rw cp 2 copy",
    "get A 0 eq{pop 128}{A 255 eq{pop 127}{A 2 idiv S 128 and or}ifelse}",
    "ifelse put 1 adv}B/clr{rw cp 2 index string putinterval adv}B/set{rw cp",
    "fillstr 0 4 index getinterval putinterval adv}B/fillstr 18 string 0 1 17",
    "{2 copy 255 put pop}for N/pl[{adv 1 chg}{adv 1 chg nd}{1 add chg}{1 add",
    "chg nd}{adv lsh}{adv lsh nd}{adv rsh}{adv rsh nd}{1 add adv}{/rc X nd}{",
    "1 add set}{1 add clr}{adv 2 chg}{adv 2 chg nd}{pop nd}]A{bind pop}",
    "forall N/D{/cc X A type/stringtype ne{]}if nn/base get cc ctr put nn",
    "/BitMaps get S ctr S sf 1 ne{A A length 1 sub A 2 index S get sf div put",
    "}if put/ctr ctr 1 add N}B/I{cc 1 add D}B/bop{userdict/bop-hook known{",
    "bop-hook}if/SI save N @rigin 0 0 moveto/V matrix currentmatrix A 1 get A",
    "mul exch 0 get A mul add .99 lt{/QV}{/RV}ifelse load def pop pop}N/eop{",
    "SI restore userdict/eop-hook known{eop-hook}if showpage}N/@start{",
    "userdict/start-hook known{start-hook}if pop/VResolution X/Resolution X",
    "1000 div/DVImag X/IEn 256 array N 2 string 0 1 255{IEn S A 360 add 36 4",
    "index cvrs cvn put}for pop 65781.76 div/vsize X 65781.76 div/hsize X}N",
    "/p{show}N/RMat[1 0 0 -1 0 0]N/BDot 260 string N/Rx 0 N/Ry 0 N/V{}B/RV/v{",
    "/Ry X/Rx X V}B statusdict begin/product where{pop false[(Display)(NeXT)",
    "(LaserWriter 16/600)]{A length product length le{A length product exch 0",
    "exch getinterval eq{pop true exit}if}{pop}ifelse}forall}{false}ifelse",
    "end{{gsave TR -.1 .1 TR 1 1 scale Rx Ry false RMat{BDot}imagemask",
    "grestore}}{{gsave TR -.1 .1 TR Rx Ry scale 1 1 false RMat{BDot}",
    "imagemask grestore}}ifelse B/QV{gsave newpath transform round exch round",
    "exch itransform moveto Rx 0 rlineto 0 Ry neg rlineto Rx neg 0 rlineto",
    "fill grestore}B/a{moveto}B/delta 0 N/tail{A/delta X 0 rmoveto}B/M{S p",
    "delta add tail}B/b{S p tail}B/c{-4 M}B/d{-3 M}B/e{-2 M}B/f{-1 M}B/g{0 M}",
    "B/h{1 M}B/i{2 M}B/j{3 M}B/k{4 M}B/w{0 rmoveto}B/l{p -4 w}B/m{p -3 w}B/n{",
    "p -2 w}B/o{p -1 w}B/q{p 1 w}B/r{p 2 w}B/s{p 3 w}B/t{p 4 w}B/x{0 S",
    "rmoveto}B/y{3 2 roll p a}B/bos{/SS save N}B/eos{SS restore}B end",
    "% Thomas Esser, Dec 2002. public domain",
    "%",
    "% Encoding for:",
    "%     cmmi10 cmmi12 cmmi5 cmmi6 cmmi7 cmmi8 cmmi9 cmmib10",
    "%",
    "/TeXaae443f0Encoding [",
    "/Gamma /Delta /Theta /Lambda /Xi /Pi /Sigma /Upsilon /Phi /Psi /Omega",
    "/alpha /beta /gamma /delta /epsilon1 /zeta /eta /theta /iota /kappa",
    "/lambda /mu /nu /xi /pi /rho /sigma /tau /upsilon /phi /chi /psi",
    "/omega /epsilon /theta1 /pi1 /rho1 /sigma1 /phi1 /arrowlefttophalf",
    "/arrowleftbothalf /arrowrighttophalf /arrowrightbothalf /arrowhookleft",
    "/arrowhookright /triangleright /triangleleft /zerooldstyle /oneoldstyle",
    "/twooldstyle /threeoldstyle /fouroldstyle /fiveoldstyle /sixoldstyle",
    "/sevenoldstyle /eightoldstyle /nineoldstyle /period /comma /less /slash",
    "/greater /star /partialdiff /A /B /C /D /E /F /G /H /I /J /K /L /M /N",
    "/O /P /Q /R /S /T /U /V /W /X /Y /Z /flat /natural /sharp /slurbelow",
    "/slurabove /lscript /a /b /c /d /e /f /g /h /i /j /k /l /m /n /o /p",
    "/q /r /s /t /u /v /w /x /y /z /dotlessi /dotlessj /weierstrass /vector",
    "/tie /psi /.notdef /.notdef /.notdef /.notdef /.notdef /.notdef /.notdef",
    "/.notdef /.notdef /.notdef /.notdef /.notdef /.notdef /.notdef /.notdef",
    "/.notdef /.notdef /.notdef /.notdef /.notdef /.notdef /.notdef /.notdef",
    "/.notdef /.notdef /.notdef /.notdef /.notdef /.notdef /.notdef /.notdef",
    "/space /Gamma /Delta /Theta /Lambda /Xi /Pi /Sigma /Upsilon /Phi /Psi",
    "/.notdef /.notdef /Omega /alpha /beta /gamma /delta /epsilon1 /zeta /eta",
    "/theta /iota /kappa /lambda /mu /nu /xi /pi /rho /sigma /tau /upsilon",
    "/phi /chi /psi /tie /.notdef /.notdef /.notdef /.notdef /.notdef /.notdef",
    "/.notdef /.notdef /.notdef /.notdef /.notdef /.notdef /.notdef /.notdef",
    "/.notdef /.notdef /.notdef /.notdef /.notdef /.notdef /.notdef /.notdef",
    "/.notdef /.notdef /.notdef /.notdef /.notdef /.notdef /.notdef /.notdef",
    "/.notdef /.notdef /.notdef /.notdef /.notdef /.notdef /.notdef /.notdef",
    "/.notdef /.notdef /.notdef /.notdef /.notdef /.notdef /.notdef /.notdef",
    "/.notdef /.notdef /.notdef /.notdef /.notdef /.notdef /.notdef /.notdef",
    "/.notdef /.notdef /.notdef /.notdef /.notdef",
    "] def",
    "%!",
    "TeXDict begin/rf{findfont dup length 1 add dict begin{1 index/FID ne 2",
    "index/UniqueID ne and{def}{pop pop}ifelse}forall[1 index 0 6 -1 roll",
    "exec 0 exch 5 -1 roll VResolution Resolution div mul neg 0 0]FontType 0",
    "ne{/Metrics exch def dict begin Encoding{exch dup type/integertype ne{",
    "pop pop 1 sub dup 0 le{pop}{[}ifelse}{FontMatrix 0 get div Metrics 0 get",
    "div def}ifelse}forall Metrics/Metrics currentdict end def}{{1 index type",
    "/nametype eq{exit}if exch pop}loop}ifelse[2 index currentdict end",
    "definefont 3 -1 roll makefont/setfont cvx]cvx def}def/ObliqueSlant{dup",
    "sin S cos div neg}B/SlantFont{4 index mul add}def/ExtendFont{3 -1 roll",
    "mul exch}def/ReEncodeFont{CharStrings rcheck{/Encoding false def dup[",
    "exch{dup CharStrings exch known not{pop/.notdef/Encoding true def}if}",
    "forall Encoding{]exch pop}{cleartomark}ifelse}if/Encoding exch def}def",
    "end",
    "%!PS-AdobeFont-1.1: CMMI12 1.100",
    "% Copyright (C) 1997 American Mathematical Society. All Rights Reserved.",
    "11 dict begin",
    "/FontInfo 7 dict dup begin",
    "/version (1.100) readonly def",
    "/Notice (Copyright (C) 1997 American Mathematical Society. All Rights Reserved) readonly def",
    "/FullName (CMMI12) readonly def",
    "/FamilyName (Computer Modern) readonly def",
    "/Weight (Medium) readonly def",
    "/ItalicAngle -14.04 def",
    "/isFixedPitch false def",
    "end readonly def",
    "/FontName /CMMI12 def",
    "/PaintType 0 def",
    "/FontType 1 def",
    "/FontMatrix [0.001 0 0 0.001 0 0] readonly def",
    "/Encoding 256 array",
    "0 1 255 {1 index exch /.notdef put} for",
    "dup 0 /.notdef put",
    "readonly def",
    "/FontBBox{-30 -250 1026 750}readonly def",
    "/UniqueID 5087386 def",
    "currentdict end",
    "currentfile eexec",
    "D9D66F633B846A97B686A97E45A3D0AA0529731C99A784CCBE85B4993B2EEBDE",
    "3B12D472B7CF54651EF21185116A69AB1096ED4BAD2F646635E019B6417CC77B",
    "532F85D811C70D1429A19A5307EF63EB5C5E02C89FC6C20F6D9D89E7D91FE470",
    "B72BEFDA23F5DF76BE05AF4CE93137A219ED8A04A9D7D6FDF37E6B7FCDE0D90B",
    "986423E5960A5D9FBB4C956556E8DF90CBFAEC476FA36FD9A5C8175C9AF513FE",
    "D919C2DDD26BDC0D99398B9F4D03D6A8F05B47AF95EF28A9C561DBDC98C47CF5",
    "5250011D19E9366EB6FD153D3A100CAA6212E3D5D93990737F8D326D347B7EDC",
    "4391C9DF440285B8FC159D0E98D4258FC57892DCC57F7903449E07914FBE9E67",
    "3C15C2153C061EB541F66C11E7EE77D5D77C0B11E1AC55101DA976CCACAB6993",
    "EED1406FBB7FF30EAC9E90B90B2AF4EC7C273CA32F11A5C1426FF641B4A2FB2F",
    "4E68635C93DB835737567FAF8471CBC05078DCD4E40E25A2F4E5AF46C234CF59",
    "2A1CE8F39E1BA1B2A594355637E474167EAD4D97D51AF0A899B44387E1FD933A",
    "323AFDA6BA740534A510B4705C0A15647AFBF3E53A82BF320DD96753639BE49C",
    "2F79A1988863EF977B800C9DB5B42039C23EB86953713F730E03EA22FF7BB2C1",
    "D97D33FD77B1BDCC2A60B12CF7805CFC90C5B914C0F30A673DF9587F93E47CEA",
    "5932DD1930560C4F0D97547BCD805D6D854455B13A4D7382A22F562D7C55041F",
    "0FD294BDAA1834820F894265A667E5C97D95FF152531EF97258F56374502865D",
    "A1E7C0C5FB7C6FB7D3C43FEB3431095A59FBF6F61CEC6D6DEE09F4EB0FD70D77",
    "2A8B0A4984C6120293F6B947944BE23259F6EB64303D627353163B6505FC8A60",
    "00681F7A3968B6CBB49E0420A691258F5E7B07B417157803FCBE9B9FB1F80FD8",
    "CA0DA1186446DD565542BCCC7D339A1EB34C7F49246E8D72E987EB477C6DB757",
    "99AF86CEBCD7605C487A00CD2CD093098182DC57B20D78ECE0BECF3A0BF88EBA",
    "C866DB19F34BBBED6634AFC0F08D2AFB2A92578A6F8B4ADCD6594737FF6EED7D",
    "5B536DA9E3E2CADB40DB7C600EA4D100D33C3B92B1CF857E012C4EB370BA8295",
    "55B50047CC8911C98FE1A7BA6CDEA82D34476286E710663BB7427AD7373E0A17",
    "3D7158FE66B62F6A5635767E436D25B174633BC0312636DC9EC208DA7D90119B",
    "AAFD0A25159F1003B28B2921BE63F3CCA93667EA25B63871DE5CDE1396C3B6D9",
    "98185F364E19A7810699DA1229D7930923F10DD8F60223C7994BDDF905738827",
    "A55FBBE69BDCD49B8B707F02938746C5F1B721E24ECACBEE6F33E09EE3AE0261",
    "16D70C22522CBC18D37CE0F2B7554B10FC2D78A3F9D294C5A45D3121CA918BEE",
    "769DF51B1BE093E70BE8AD6E00B5BE4FD69F77A4947F977795D12922A5F0ABA8",
    "C2A8E8AE2184DF64FC74575BF2ADE11631D7047BCBBD4B8D906DD36E2D11BC52",
    "CA00100AA6B0A8AD3CC2940029C459C9C6641D8E3C0FF7055BD88F714C2FDA4E",
    "733CBD7A0E8378154D9846E6C4974FCD2F3F37EC2365C1A0F5716016F713DE08",
    "4DF6E99F6B5EA27065FF372179AC6D0E1E980C4D00A149",
    "0000000000000000000000000000000000000000000000000000000000000000",
    "0000000000000000000000000000000000000000000000000000000000000000",
    "0000000000000000000000000000000000000000000000000000000000000000",
    "0000000000000000000000000000000000000000000000000000000000000000",
    "0000000000000000000000000000000000000000000000000000000000000000",
    "0000000000000000000000000000000000000000000000000000000000000000",
    "0000000000000000000000000000000000000000000000000000000000000000",
    "0000000000000000000000000000000000000000000000000000000000000000",
    "cleartomark",
    "TeXDict begin 39158280 55380996 1000 600 600 (/tmp/TgifAL3Qkx.dvi)",
    "@start /Fa 244[107 11[{ TeXaae443f0Encoding ReEncodeFont }1",
    "172.188 /CMMI12 rf end",
    "TeXDict begin",
    " end",
    "TeXDict begin 1 0 bop 1896 714 a Fa(\013)p eop end",
    "userdict /end-hook known{end-hook}if"],
    "1e0232412c14c14818810c387ce",[
])
],
"eq4",1521,0,0,0,0,[
attr("footer=", "", 0, 1, 1,
text('#ff00ff',274,52,3,0,1,126,48,1524,13,3,0,0,0,0,2,126,48,0,0,"",0,0,0,0,65,'',[
minilines(126,48,0,0,0,0,0,[
mini_line(63,13,3,0,0,0,[
str_block(0,63,13,3,0,-1,0,0,0,[
str_seg('#0000ff','Courier',0,80640,63,13,3,0,-1,0,0,0,0,0,
	"footer=")])
]),
mini_line(9,13,3,0,0,0,[
str_block(0,9,13,3,0,-1,0,0,0,[
str_seg('#0000ff','Courier',0,80640,9,13,3,0,-1,0,0,0,0,0,
	"%")])
]),
mini_line(126,13,3,0,0,0,[
str_block(0,126,13,3,0,-4,0,0,0,[
str_seg('#0000ff','Courier',0,80640,126,13,3,0,-4,0,0,0,0,0,
	"\\end{document}")])
])
])])),
attr("header=", "", 0, 1, 1,
text('#ff00ff',450,52,11,0,1,270,176,1525,13,3,0,0,0,0,2,270,176,0,0,"",0,0,0,0,65,'',[
minilines(270,176,0,0,0,0,0,[
mini_line(63,13,3,0,0,0,[
str_block(0,63,13,3,0,-1,0,0,0,[
str_seg('#0000ff','Courier',0,80640,63,13,3,0,-1,0,0,0,0,0,
	"header=")])
]),
mini_line(261,13,3,0,0,0,[
str_block(0,261,13,3,0,-4,0,0,0,[
str_seg('#0000ff','Courier',0,80640,261,13,3,0,-4,0,0,0,0,0,
	"\\documentstyle[12pt]{article}")])
]),
mini_line(162,13,3,0,0,0,[
str_block(0,162,13,3,0,-1,0,0,0,[
str_seg('#0000ff','Courier',0,80640,162,13,3,0,-1,0,0,0,0,0,
	"\\oddsidemargin=0in")])
]),
mini_line(144,13,3,0,0,0,[
str_block(0,144,13,3,0,-1,0,0,0,[
str_seg('#0000ff','Courier',0,80640,144,13,3,0,-1,0,0,0,0,0,
	"\\textwidth=6.5in")])
]),
mini_line(126,13,3,0,0,0,[
str_block(0,126,13,3,0,-1,0,0,0,[
str_seg('#0000ff','Courier',0,80640,126,13,3,0,-1,0,0,0,0,0,
	"\\topmargin=0in")])
]),
mini_line(153,13,3,0,0,0,[
str_block(0,153,13,3,0,-2,0,0,0,[
str_seg('#0000ff','Courier',0,80640,153,13,3,0,-2,0,0,0,0,0,
	"\\textheight=609pt")])
]),
mini_line(117,13,3,0,0,0,[
str_block(0,117,13,3,0,-2,0,0,0,[
str_seg('#0000ff','Courier',0,80640,117,13,3,0,-2,0,0,0,0,0,
	"\\parskip=14pt")])
]),
mini_line(270,13,3,0,0,0,[
str_block(0,270,13,3,0,-4,0,0,0,[
str_seg('#0000ff','Courier',0,80640,270,13,3,0,-4,0,0,0,0,0,
	"\\setlength{\\unitlength}{0.5cm}")])
]),
mini_line(153,13,3,0,0,0,[
str_block(0,153,13,3,0,-4,0,0,0,[
str_seg('#0000ff','Courier',0,80640,153,13,3,0,-4,0,0,0,0,0,
	"\\pagestyle{empty}")])
]),
mini_line(144,13,3,0,0,0,[
str_block(0,144,13,3,0,-4,0,0,0,[
str_seg('#0000ff','Courier',0,80640,144,13,3,0,-4,0,0,0,0,0,
	"\\begin{document}")])
]),
mini_line(9,13,3,0,0,0,[
str_block(0,9,13,3,0,-1,0,0,0,[
str_seg('#0000ff','Courier',0,80640,9,13,3,0,-1,0,0,0,0,0,
	"%")])
])
])])),
attr("exec=", "", 0, 1, 1,
text('blue',274,-199,9,0,1,477,144,1526,13,3,0,0,0,0,2,477,144,0,0,"",0,0,0,0,-186,'',[
minilines(477,144,0,0,0,0,0,[
mini_line(45,13,3,0,0,0,[
str_block(0,45,13,3,0,-1,0,0,0,[
str_seg('blue','Courier',0,80640,45,13,3,0,-1,0,0,0,0,0,
	"exec=")])
]),
mini_line(378,13,3,0,0,0,[
str_block(0,378,13,3,0,-4,0,0,0,[
str_seg('blue','Courier',0,80640,378,13,3,0,-4,0,0,0,0,0,
	"    mktemp(\"/tmp/TgifXXXXXX\",\"file_name\");")])
]),
mini_line(468,13,3,0,0,0,[
str_block(0,468,13,3,0,-4,0,0,0,[
str_seg('blue','Courier',0,80640,468,13,3,0,-4,0,0,0,0,0,
	"    write_attr_into_file(header,\"$(file_name).tex\");")])
]),
mini_line(441,13,3,0,0,0,[
str_block(0,441,13,3,0,-4,0,0,0,[
str_seg('blue','Courier',0,80640,441,13,3,0,-4,0,0,0,0,0,
	"    append_attr_into_file(eq,\"$(file_name).tex\");")])
]),
mini_line(477,13,3,0,0,0,[
str_block(0,477,13,3,0,-4,0,0,0,[
str_seg('blue','Courier',0,80640,477,13,3,0,-4,0,0,0,0,0,
	"    append_attr_into_file(footer,\"$(file_name).tex\");")])
]),
mini_line(162,13,3,0,0,0,[
str_block(0,162,13,3,0,-4,0,0,0,[
str_seg('blue','Courier',0,80640,162,13,3,0,-4,0,0,0,0,0,
	"    launch(\"cmd\");")])
]),
mini_line(477,13,3,0,0,0,[
str_block(0,477,13,3,0,-4,0,0,0,[
str_seg('blue','Courier',0,80640,477,13,3,0,-4,0,0,0,0,0,
	"    pstoepsi(\"$(file_name).eps\",\"$(file_name).ps\",1);")])
]),
mini_line(369,13,3,0,0,0,[
str_block(0,369,13,3,0,-4,0,0,0,[
str_seg('blue','Courier',0,80640,369,13,3,0,-4,0,0,0,0,0,
	"    update_eps_child(\"$(file_name).eps\");")])
]),
mini_line(189,13,3,0,0,0,[
str_block(0,189,13,3,0,-4,0,0,0,[
str_seg('blue','Courier',0,80640,189,13,3,0,-4,0,0,0,0,0,
	"    launch(\"cleanup\")")])
])
])])),
attr("cmd=", "", 0, 1, 1,
text('blue',274,-79,4,0,1,702,64,1527,13,3,0,0,0,0,2,702,64,0,0,"",0,0,0,0,-66,'',[
minilines(702,64,0,0,0,0,0,[
mini_line(36,13,3,0,0,0,[
str_block(0,36,13,3,0,-1,0,0,0,[
str_seg('blue','Courier',0,80640,36,13,3,0,-1,0,0,0,0,0,
	"cmd=")])
]),
mini_line(108,13,3,0,0,0,[
str_block(0,108,13,3,0,-4,0,0,0,[
str_seg('blue','Courier',0,80640,108,13,3,0,-4,0,0,0,0,0,
	"    cd /tmp;")])
]),
mini_line(459,13,3,0,0,0,[
str_block(0,459,13,3,0,-4,0,0,0,[
str_seg('blue','Courier',0,80640,459,13,3,0,-4,0,0,0,0,0,
	"    xterm -geom 40x8+200+400 -e latex $(file_name);")])
]),
mini_line(702,13,3,0,0,0,[
str_block(0,702,13,3,0,-4,0,0,0,[
str_seg('blue','Courier',0,80640,702,13,3,0,-4,0,0,0,0,0,
	"    xterm -geom 40x8+200+400 -e dvips -N -n 1 -o $(file_name).ps $(file_name);")])
])
])])),
attr("cleanup=", "", 0, 1, 1,
text('blue',274,1,3,0,1,540,48,1528,13,3,0,0,0,0,2,540,48,0,0,"",0,0,0,0,14,'',[
minilines(540,48,0,0,0,0,0,[
mini_line(72,13,3,0,0,0,[
str_block(0,72,13,3,0,-1,0,0,0,[
str_seg('blue','Courier',0,80640,72,13,3,0,-1,0,0,0,0,0,
	"cleanup=")])
]),
mini_line(540,13,3,0,0,0,[
str_block(0,540,13,3,0,-2,0,0,0,[
str_seg('blue','Courier',0,80640,540,13,3,0,-2,0,0,0,0,0,
	"    rm -f $(file_name).tex $(file_name).aux $(file_name).dvi")])
]),
mini_line(513,13,3,0,0,0,[
str_block(0,513,13,3,0,-2,0,0,0,[
str_seg('blue','Courier',0,80640,513,13,3,0,-2,0,0,0,0,0,
	"        $(file_name).log $(file_name).ps $(file_name).eps")])
])
])])),
attr("file_name=", "/tmp/TgifAL3Qkx", 0, 1, 1,
text('blue',274,105,1,0,1,225,16,1529,13,3,0,0,0,0,2,225,16,0,0,"",0,0,0,0,118,'',[
minilines(225,16,0,0,0,0,0,[
mini_line(225,13,3,0,0,0,[
str_block(0,225,13,3,0,-1,0,0,0,[
str_seg('blue','Courier',0,80640,225,13,3,0,-1,0,0,0,0,0,
	"file_name=/tmp/TgifAL3Qkx")])
])
])])),
attr("eq=", "", 0, 1, 1,
text('blue',274,121,5,0,1,81,80,1530,13,3,0,0,0,0,2,81,80,0,0,"",0,0,0,0,134,'',[
minilines(81,80,0,0,0,0,0,[
mini_line(27,13,3,0,0,0,[
str_block(0,27,13,3,0,-1,0,0,0,[
str_seg('blue','Courier',0,80640,27,13,3,0,-1,0,0,0,0,0,
	"eq=")])
]),
mini_line(54,13,3,0,0,0,[
str_block(0,54,13,3,0,-1,0,0,0,[
str_seg('blue','Courier',0,80640,54,13,3,0,-1,0,0,0,0,0,
	"\\LARGE")])
]),
mini_line(18,13,3,0,0,0,[
str_block(0,18,13,3,0,-3,0,0,0,[
str_seg('blue','Courier',0,80640,18,13,3,0,-3,0,0,0,0,0,
	"\\[")])
]),
mini_line(81,13,3,0,0,0,[
str_block(0,81,13,3,0,-1,0,0,0,[
str_seg('blue','Courier',0,80640,81,13,3,0,-1,0,0,0,0,0,
	"   \\alpha")])
]),
mini_line(18,13,3,0,0,0,[
str_block(0,18,13,3,0,-4,0,0,0,[
str_seg('blue','Courier',0,80640,18,13,3,0,-4,0,0,0,0,0,
	"\\]")])
])
])])),
attr("", "not_rigid", 0, 1, 1,
text('blue',274,225,1,0,1,81,16,1531,13,3,0,0,0,0,2,81,16,0,0,"",0,0,0,0,238,'',[
minilines(81,16,0,0,0,0,0,[
mini_line(81,13,3,0,0,0,[
str_block(0,81,13,3,0,-1,0,0,0,[
str_seg('blue','Courier',0,80640,81,13,3,0,-1,0,0,0,0,0,
	"not_rigid")])
])
])]))
]).
