%!PS-Adobe-3.0 EPSF-3.0
%%BoundingBox: 24 393 200 507
%%Title: cylinder
%%CreationDate: Thu Oct  7 10:17:24 2010
%%Creator: Tgif-4.2.2-QPL written by William Chia-Wei Cheng (bill.cheng@acm.org)
%%ProducedBy: (unknown)
%%Pages: 1
%%DocumentFonts: (atend)
%%EndComments
%%BeginPreview: 176 114 1 114
% 00000000000000001000000000000000000000000000
% 00000000000000004000000000000000000000000000
% 00000000000000018000000000000000000000000000
% 00000000000000047800000000000000000000000000
% 00000000000000201f00000000000000000000000000
% 00000000000001800030000000000000000000000000
% 0000000000000200000c000000000000000000000000
% 00000000000018000000600000000000000000000000
% 00000000000040000000070000000000000000000000
% 00000000000200000000003000000000000000000000
% 00000000000400000000000c00000000000000000000
% 00000000002000000000000060000000000000000000
% 00000000008000000000000003000000000000000000
% 0000000ffff000000000000000380000000000000000
% 0000003ffffc00000000000020060000000000000000
% 000001ffffffc0000000000000006000000000000000
% 000007fffffffe000000000010000300000000000000
% 00003fffffffffe00000000000000030000000000000
% 00007ffffffffff8000000000000000e000000000000
% 0001ffffffffffffc000000036000000300000000000
% 0003fffffffffffffc00000000000000030000000000
% 0007ffffffffffffffc0000000000000001800000000
% 000ffffffffffffffff8000000000000000600000000
% 001fffffffffffffffff800000000000000070000000
% 003ffffffffffffffffffc0000000000000003100000
% 007fffffffffffffffffffc0000000000000001c0800
% 007ffffffffffffffffffff8000000000000001c3000
% 01ffffffffffffffffffffff80000000000000008000
% 01fffffffffffffffffffffff8000000000000030000
% 03ffffffffffffffffffffffffc00000000000080000
% 03fffffffffffffffffffffffff00000000000100000
% 07ffffffffffffffffffffffffff0000000000600000
% 07fffffffffffffffffffffffffff000000001000000
% 0fffffffffffffffffffffffffffff80000006000000
% 0fffffffffffffffffffffffffffffe0000008000000
% 1fffffffffffffffffffffffffffffff000020000000
% 1ffffffffffffffffffffffffffffffff00080000000
% 3fffffffffffffffffffffffffffffffff0200000000
% 3fffffffffffffffffffffffffffffffffe600000000
% 3ffffffffffffffffffffffffffffffffffe00000000
% 3ffffffffffffffffffffffffffffffffffff0000000
% 3ffffffffffffffffffffffffffffffffffffc000000
% 3ffffffffffffffffffffffffffffffffffffe000000
% 7fffffffffffffffffffffffffffffffffffff800000
% 7fffffffffffffffffffffffffffffffffffffe00000
% 7ffffffffffffffffffffffffffffffffffffff80000
% 7ffffffffffffffffffffffffffffffffffffff80000
% 7ffffffffffffffffffffffffffffffffffffffe0000
% 7fffffffffffffffffffffffffffffffffffffff0000
% 7fffffffffffffffffffffffffffffffffffffff8000
% 7fffffffffffffffffffffffffffffffffffffffc000
% 7fffffffffffffffffffffffffffffffffffffffe000
% 3ffffffffffffffffffffffffffffffffffffffff000
% 3ffffffffffffffffffffffffffffffffffffffff800
% 3ffffffffffffffffffffffffffffffffffffffff800
% 3ffffffffffffffffffffffffffffffffffffffffc00
% 3ffffffffffffffffffffffffffffffffffffffffc00
% 1fffffffffffffffffffffffffffffffffffffffff00
% 1fffffffffffffffffffffffffffffffffffffffff00
% 1fffffffffffffffffffffffffffffffffffffffff00
% 0fffffffffffffffffffffffffffffffffffffffff80
% 0fffffffffffffffffffffffffffffffffffffffff80
% 07ffffffffffffffffffffffffffffffffffffffff80
% 07ffffffffffffffffffffffffffffffffffffffffc0
% 03ffffffffffffffffffffffffffffffffffffffffc0
% 03ffffffffffffffffffffffffffffffffffffffffc0
% 01ffffffffffffffffffffffffffffffffffffffffe0
% 01ffffffffffffffffffffffffffffffffffffffffe0
% 007ffffffffffffffffffffffffffffffffffffffff0
% 007ffffffffffffffffffffffffffffffffffffffff0
% 003ffffffffffffffffffffffffffffffffffffffff0
% 001ffffffffffffffffffffffffffffffffffffffff0
% 000ffffffffffffffffffffffffffffffffffffffff0
% 0007fffffffffffffffffffffffffffffffffffffff0
% 0003fffffffffffffffffffffffffffffffffffffff0
% 0001fffffffffffffffffffffffffffffffffffffff0
% 00007ffffffffffffffffffffffffffffffffffffff0
% 00003ffffffffffffffffffffffffffffffffffffff0
% 000007fffffffffffffffffffffffffffffffffffff0
% 000001fffffffffffffffffffffffffffffffffffff0
% 0000003ffffffffffffffffffffffffffffffffffff0
% 0000001ffffffffffffffffffffffffffffffffffff0
% 00000001fffffffffffffffffffffffffffffffffff0
% 000000003ffffffffffffffffffffffffffffffffff0
% 0000000003ffffffffffffffffffffffffffffffffe0
% 0000000000ffffffffffffffffffffffffffffffffe0
% 00000000001fffffffffffffffffffffffffffffffe0
% 000000000001ffffffffffffffffffffffffffffffc0
% 0000000000001ffffffffffffffffffffffffffffff0
% 0000000000000ffffffffffffffffffffffffffffff8
% 00000000000000ffffffffffffffffffffffffffff87
% 800000000000001fffffffffffffffffffffffffff80
% 0000000000000001ffffffffffffffffffffffffff80
% 00000000000000007fffffffffffffffffffffffff00
% 00000000000000000fffffffffffffffffffffffff00
% 000000000000000000fffffffffffffffffffffffe00
% 0000000000000000001ffffffffffffffffffffffc00
% 00000000000000000007fffffffffffffffffffffc00
% 000000000000000000007ffffffffffffffffffff800
% 000000000000000000000ffffffffffffffffffff000
% 0000000000000000000000fffffffffffffffffff000
% 00000000000000000000007fffffffffffffffffe000
% 000000000000000000000007ffffffffffffffffc000
% 0000000000000000000000007fffffffffffffff8000
% 0000000000000000000000000fffffffffffffff0000
% 00000000000000000000000003fffffffffffffe0000
% 000000000000000000000000007ffffffffffff80000
% 0000000000000000000000000007fffffffffff00000
% 0000000000000000000000000000ffffffffffe00000
% 00000000000000000000000000003fffffffff800000
% 000000000000000000000000000003fffffffe000000
% 0000000000000000000000000000003ffffff8000000
% 00000000000000000000000000000007ffff80000000
% 00000000000000000000000000000001fffe00000000
%%EndImage
%%EndPreview
%%BeginProlog

/tgifdict 59 dict def
tgifdict begin

/tgifellipsedict 6 dict def
tgifellipsedict /mtrx matrix put

/TGEL % tgifellipse
 { tgifellipsedict begin
      /yrad exch def
      /xrad exch def
      /y exch def
      /x exch def
      /savematrix mtrx currentmatrix def
      x y translate
      xrad yrad scale
      0 0 1 0 360 arc
      savematrix setmatrix
   end
 } def

/tgifarrowtipdict 8 dict def
tgifarrowtipdict /mtrx matrix put

/TGAT % tgifarrowtip
 { tgifarrowtipdict begin
      /dy exch def
      /dx exch def
      /h exch def
      /w exch def
      /y exch def
      /x exch def
      /savematrix mtrx currentmatrix def
      x y translate
      dy dx atan rotate
      0 0 moveto
      w neg h lineto
      w neg h neg lineto
      savematrix setmatrix
   end
 } def

/tgifarcdict 8 dict def
tgifarcdict /mtrx matrix put

/TGAN % tgifarcn
 { tgifarcdict begin
      /endangle exch def
      /startangle exch def
      /yrad exch def
      /xrad exch def
      /y exch def
      /x exch def
      /savematrix mtrx currentmatrix def
      x y translate
      xrad yrad scale
      0 0 1 startangle endangle arc
      savematrix setmatrix
   end
 } def

/TGAR % tgifarc
 { tgifarcdict begin
      /endangle exch def
      /startangle exch def
      /yrad exch def
      /xrad exch def
      /y exch def
      /x exch def
      /savematrix mtrx currentmatrix def
      x y translate
      xrad yrad scale
      0 0 1 startangle endangle arcn
      savematrix setmatrix
   end
 } def

/TGMAX
 { exch dup 3 1 roll exch dup 3 1 roll gt { pop } { exch pop } ifelse
 } def
/TGMIN
 { exch dup 3 1 roll exch dup 3 1 roll lt { pop } { exch pop } ifelse
 } def
/TGSW { stringwidth pop } def
/tgifstrw 0 def

/bd { bind def } bind def

/GS { gsave } bd
/GR { grestore } bd
/NP { newpath } bd
/CP { closepath } bd
/CHP { charpath } bd
/CT { curveto } bd
/L { lineto } bd
/RL { rlineto } bd
/M { moveto } bd
/RM { rmoveto } bd
/S { stroke } bd
/F { fill } bd
/TR { translate } bd
/RO { rotate } bd
/SC { scale } bd
/MU { mul } bd
/DI { div } bd
/DU { dup } bd
/NE { neg } bd
/AD { add } bd
/SU { sub } bd
/PO { pop } bd
/EX { exch } bd
/CO { concat } bd
/CL { clip } bd
/EC { eoclip } bd
/EF { eofill } bd
/IM { image } bd
/IMM { imagemask } bd
/ARY { array } bd
/SG { setgray } bd
/RG { setrgbcolor } bd
/SD { setdash } bd
/W { setlinewidth } bd
/SM { setmiterlimit } bd
/SLC { setlinecap } bd
/SLJ { setlinejoin } bd
/SH { show } bd
/FF { findfont } bd
/MS { makefont setfont } bd
/AR { arcto 4 {pop} repeat } bd
/CURP { currentpoint } bd
/FLAT { flattenpath strokepath clip newpath } bd
/TGSM { tgiforigctm setmatrix } def
/TGRM { savematrix setmatrix } def

end

%%EndProlog
%%Page: 1 1

%%PageBoundingBox: 24 393 200 507
tgifdict begin
/tgifsavedpage save def

1 SM
1 W

0 SG

72 0 MU 72 11 MU TR
72 128 DI 100.000 MU 100 DI DU NE SC

GS

/tgiforigctm matrix currentmatrix def

% POLYGON/CLOSED-SPLINE
0.761 0.843 0.851 RG
NP
   125 533 M
   92 649 L
   261 702 L
   304 579 L
   207 554 L
CP
GS
   EF
GR
GS
   S
GR

% ARC
0.761 0.843 0.851 RG
NP
   106 590 M
   106 590 61 60 -75 -256 TGAR
   106 590 L
   F
GS
   GS
      NP
         106 590 61 60 -75 -256 TGAR
      S
   GR
GR

% OVAL
0.761 0.843 0.851 RG
NP 280 640 64 65 TGEL F
GS
   GS
      NP 280 640 64 65 TGEL
      S
   GR
GR

% POLY/OPEN-SPLINE
0.188 0.286 0.549 RG
GS
   NP
      300 578 M
      120 532 L
   TGSM
   1 W
   S
GR

% POLY/OPEN-SPLINE
0.188 0.286 0.549 RG
GS
   NP
      89 648 M
      264 704 L
   TGSM
   1 W
   S
GR

% ARC
0.761 0.843 0.851 RG
NP
   105 590 M
   105 590 60 60 -75 104 TGAN
   105 590 L
   F
GS
   GS
      NP
         105 590 60 60 -75 104 TGAN
      [16 16] 0 SD
      S
   GR
GR

% OVAL
0.267 0.522 0.478 RG
NP 282 643 30 29 TGEL F
GS
   GS
      NP 282 643 30 29 TGEL
      S
   GR
GR

% OVAL
0.267 0.522 0.478 RG
GS
   GS
      NP 282 643 26 25 TGEL
      S
   GR
GR

% OVAL
0.267 0.522 0.478 RG
NP 105 588 30 29 TGEL F
GS
   GS
      NP 105 588 30 29 TGEL
      S
   GR
GR

% TEXT
NP
0 SG
   GS
      1 W
      309 614 M
      GS
            0 SG
            /Courier FF [14 0 0 -14 0 0] MS
            (dr) SH
      GR
   GR

% POLY/OPEN-SPLINE
0 SG
GS
   NP
      113 529 M
      162 508 L
   TGSM
   1 W
   S
GR

% POLY/OPEN-SPLINE
0 SG
GS
   NP
      292 574 M
      333 551 L
   TGSM
   1 W
   S
GR

% POLY/OPEN-SPLINE
0 SG
GS
   NP
      156 512 M
      42 167 atan DU cos 8.000 MU exch sin 8.000 MU RM
      42 167 atan DU cos 8.000 MU 323 exch SU
      exch sin 8.000 MU 554 exch SU L
   TGSM
   1 W
   S
GR
GS
   TGSM
   NP
      156 512 8.000 3.000 -167 -42 TGAT
   1 SG CP F
   0 SG
   NP
      156 512 8.000 3.000 -167 -42 TGAT
   CP F
GR
GS
   TGSM
   NP
      323 554 8.000 3.000 167 42 TGAT
   1 SG CP F
   0 SG
   NP
      323 554 8.000 3.000 167 42 TGAT
   CP F
GR

% TEXT
NP
0 SG
   GS
      1 W
      216 542 M
      GS
            0 SG
            /Courier FF [14 0 0 -14 0 0] MS
            (h) SH
      GR
   GR

% ARC
0.188 0.286 0.549 RG
GS
   GS
      NP
         106 590 60 60 -75 104 TGAN
      [16 16] 0 SD
      S
   GR
GR

% ARC
0.188 0.286 0.549 RG
GS
   GS
      NP
         106 590 61 60 -75 -256 TGAR
      S
   GR
GR

% OVAL
0.188 0.286 0.549 RG
GS
   GS
      NP 280 640 64 65 TGEL
      S
   GR
GR

% OVAL
0.761 0.843 0.851 RG
NP 105 588 26 25 TGEL F
GS
   GS
      NP 105 588 26 25 TGEL
      S
   GR
GR

% OVAL
0.267 0.522 0.478 RG
GS
   GS
      NP 105 588 26 25 TGEL
      S
   GR
GR

% OVAL
0.761 0.843 0.851 RG
NP 282 643 26 25 TGEL F
GS
   GS
      NP 282 643 26 25 TGEL
      S
   GR
GR

% POLY/OPEN-SPLINE
0 SG
GS
   NP
      284 642 M
      -1 24 atan DU cos 8.000 MU 308 exch SU
      exch sin 8.000 MU 641 exch SU L
   TGSM
   1 W
   S
GR
GS
   TGSM
   NP
      308 641 8.000 3.000 24 -1 TGAT
   1 SG CP F
   0 SG
   NP
      308 641 8.000 3.000 24 -1 TGAT
   CP F
GR

% TEXT
NP
0 SG
   GS
      1 W
      293 638 M
      GS
            0 SG
            /Courier FF [14 0 0 -14 0 0] MS
            (r) SH
      GR
   GR

% POLY/OPEN-SPLINE
0 SG
GS
   [20 4 4 4] 0 SD
   NP
      65 568 M
      353 666 L
   TGSM
   2 W
   S
   [] 0 SD
   1 W
GR

% POLYGON/CLOSED-SPLINE
0.267 0.522 0.478 RG
NP
   96 612 M
   275 669 L
   275 672 L
   94 616 L
CP
GS
   EF
GR
GS
   S
GR

% POLYGON/CLOSED-SPLINE
0.267 0.522 0.478 RG
NP
   117 561 M
   116 565 L
   292 618 L
   294 616 L
CP
GS
   EF
GR
GS
   S
GR

GR
tgifsavedpage restore
end
showpage

%%Trailer
%MatchingCreationDate: Thu Oct  7 10:17:24 2010
%%DocumentFonts: Courier
%%EOF
