%!PS-Adobe-3.0 EPSF-3.0
%%BoundingBox: 62 636 281 748
%%Title: ellipse
%%CreationDate: Thu Feb 28 15:18:29 2008
%%Creator: Tgif-4.1.45-QPL written by William Chia-Wei Cheng (bill.cheng@acm.org)
%%ProducedBy: (unknown)
%%Pages: 1
%%DocumentFonts: (atend)
%%EndComments
%%BeginPreview: 219 112 1 112
% 00000000000000000000000000000000000000000000000000000000
% 0000000000000000000007ffffff8000000000000000000000000000
% 00000000000000000000fffffffffc00000000000000000000000000
% 00000000000000000003ffffffffff00000000000000000000000000
% 0000000000000000003ffffffffffff0000000000000000000000000
% 000000000000000003ffffffffffffff0003ffffffffc00000000000
% 00000000000000001fffffffffffffffe00000000000000000000000
% 00000000000000003ffffffffffffffff00000000000000000000000
% 0000000000000000fffffffffffffffffc000000000c000000000000
% 0000000000000003ffffffffffffffffff000000000c000000000000
% 000000000000000fffffffffffffffffffc00000000e000000000000
% 000000000000001fffffffffffffffffffe000000000000000000000
% 000000000000007ffffffffffffffffffff800000000000000000000
% 00000000000000fffffffffffffffffffffc00000000000000000000
% 00000000000003ffffffffffffffffffffff00000000000000000000
% 00000000000007ffffffffffffffffffffff80000000000000000000
% 0000000000000fffffffffffffffffffffffc0000000000000000000
% 0000000000001fffffffffffffffffffffffe0000000000000000000
% 03c39c1c00003ffffffffffffffffffffffff0000000180000000000
% 01c39e3c00007ffffffffffffffffffffffff8000000180000000000
% 00e78e380000fffffffffffffffffffffffffc000000180000000000
% 00f607700001fffffffffffffffffffffffffe000000180000000000
% 007e07e00001fffffffffffffffffffffffffe000000198000000000
% 007e03e00003ffffffffffffffffffffffffff0000001fc000000000
% 003c03e00007ffffffffffffffffffffffffff8000001c6000000000
% 003c01c0000fffffffffffffffffffffffffffc00000187000000000
% 003c03e0000fffffffffffffffffffffffffffc00000183000000000
% 007c03e0001fffffffffffffffffffffffffffe00000183000000000
% 007e07f0001fffffffffffffffffffffffffffe00000183000000000
% 00e70670003ffffffffffffffffffffffffffff00000187000000000
% 00c78e38007ffffffffffffffffffffffffffff800001e6000000000
% 01c39e38007ffffffffffffffffffffffffffff800001fc000000000
% 03c3dc1c007ffffffffffffffffffffffffffff800001b8000000000
% 0000000000fffffffffffffffffffffffffffffc0000000000000000
% 0000000000fffffffffffffffffffffffffffffc0000000000000000
% 0000000000fffffffffffffffffffffffffffffc0000000000000000
% 0000000000fffffffffffffffffffffffffffffc0000000000000000
% 0000000001fffffffffffffffffffffffffffffe0000000000000000
% 0000000001fffffffffffffffffffffffffffffe0000000000000000
% 0000000001fffffffffffffffffffffffffffffe0000000000000000
% 0000000001fffffffffffffffffffffffffffffe0000000000000000
% 7ff39ffce7ffffffffffffffffffffffffffffff9ffe67fc00000000
% 0000000001fffffffffffffffffffffffffffffe0000008000000000
% 0000000001fffffffffffffffffffffffffffffe0000008000000000
% 0000000001fffffffffffffffffffffffffffffe0000008000000000
% 0000000001fffffffffffffffffffffffffffffe000001c000000000
% 0000000001fffffffffffffffffffffffffffffe0000008000000000
% 0000000001fffffffffffffffffffffffffffffe0000008000000000
% 0000000001fffffffffffffffffffffffffffffe0000008000000000
% 0000000000fffffffffffffffffffffffffffffc0000008000000000
% 0000000000fffffffffffffffffffffffffffffc0000008000000000
% 0000000000fffffffffffffffffffffffffffffc0000008000000000
% 0000000000fffffffffffffffffffffffffffffc0000008000000000
% 00000000007ffffffffffffffffffffffffffff80000008000000000
% 00000000007ffffffffffffffffffffffffffff80000008030000000
% 00000000007ffffffffffffffffffffffffffff80000008030011c00
% 00000000003ffffffffffffffffffffffffffff00000008030013f00
% 00000000001fffffffffffffffffffffffffffe00000000030026100
% 00000000001fffffffffffffffffffffffffffe0000000003702c180
% 00000000001fffffffffffffffffffffffffffe0000000803f82c180
% 00000000000fffffffffffffffffffffffffffc00000008039c40100
% 000000000007ffffffffffffffffffffffffff800000000030c40300
% 000000000007ffffffffffffffffffffffffff800000000030440e00
% 000000000003ffffffffffffffffffffffffff000000000030441c00
% 000000000081fffffffffffffffffffffffffe040000008030483000
% 000000000080fffffffffffffffffffffffffc040000008030c86000
% 0000000000807ffffffffffffffffffffffff8040000008039d8c000
% 0000000000807ffffffffffffffffffffffff804000000803f98ff80
% 0000000000803ffffffffffffffffffffffff004000000803710ff80
% 0000000000800fffffffffffffffffffffffc0040000008000000000
% 00000000008007ffffffffffffffffffffff80040000008000000000
% 00000000008007ffffffffffffffffffffff80040000008000000000
% 00000000008001fffffffffffffffffffffe00040000008000000000
% 000000000080007ffffffffffffffffffff800040000008000000000
% 000000000080003ffffffffffffffffffff000040000008000000000
% 000000000080001fffffffffffffffffffe000040000000000000000
% 0000000000800007ffffffffffffffffff800004000e000000000000
% 0000000000800001fffffffffffffffffe000004000c008000000000
% 00000000008000007ffffffffffffffff8000004000c01c000000000
% 00000000008000003ffffffffffffffff0000004000001c000000000
% 000000000080000007ffffffffffffff800000040000008000000000
% 000000000080000000fffffffffffffc000000040000008000000000
% 0000000000800000001fffffffffffe0000000040000000000000000
% 00000000008000000003ffffffffff00000000040000000000000000
% 000000000080000000003ffffffff000000fffffffff000000000000
% 00000000008000000000007ffff80000000000040000000000000000
% 00000000008000000000000000000000000000040000000000000000
% 00000000008000000000000000000000000000040000000000000000
% 00000000008000000000000000000000000000040000000000000000
% 00000000009c00000000000000000000000001e40000000000000000
% 00000000009c00000000000000000000000001e40000000000000000
% 00000000008400000000000000000000000001800000000000000000
% 00000000000000000000000000000000000000000000000000000000
% 00000000000000000000000000000000000000000000000000000000
% 00000000000000000000000000000000000000000000000000000000
% 00000000000000000000000000000000000000000000000000000000
% 00000000000000000000000000000000000000000000000000000000
% 000000000000000000000001f8000000000000000000000000000000
% 0000000000000000000000030c000000000000000000000000000000
% 0000000000000000000000030c000000000000000000000000000000
% 0000000000000000000000000c000000000000000000000000000000
% 000000000000000000000000fc000000000000000000000000000000
% 0000000000000000000000038c000000000000000000000000000000
% 0000000000000000000000030c000000000000000000000000000000
% 0000000000000000000000030c000000000000000000000000000000
% 000000000000000000000003bc000000000000000000000000000000
% 000000000000000000000001e6000000000000000000000000000000
% 00000000000000000000000000000000000000000000000000000000
% 00000000000000000000000000000000000000000000000000000000
% 00000000000000000000000000000000000000000000000000000000
% 00000000000000000000000000000000000000000000000000000000
% 00000000000000000000000000000000000000000000000000000000
%%EndImage
%%EndPreview
%%BeginProlog

/tgifdict 55 dict def
tgifdict begin

/tgifellipsedict 6 dict def
tgifellipsedict /mtrx matrix put

/TGEL % tgifellipse
 { tgifellipsedict begin
      /yrad exch def
      /xrad exch def
      /y exch def
      /x exch def
      /savematrix mtrx currentmatrix def
      x y translate
      xrad yrad scale
      0 0 1 0 360 arc
      savematrix setmatrix
   end
 } def

/tgifarrowtipdict 8 dict def
tgifarrowtipdict /mtrx matrix put

/TGAT % tgifarrowtip
 { tgifarrowtipdict begin
      /dy exch def
      /dx exch def
      /h exch def
      /w exch def
      /y exch def
      /x exch def
      /savematrix mtrx currentmatrix def
      x y translate
      dy dx atan rotate
      0 0 moveto
      w neg h lineto
      w neg h neg lineto
      savematrix setmatrix
   end
 } def

/TGMAX
 { exch dup 3 1 roll exch dup 3 1 roll gt { pop } { exch pop } ifelse
 } def
/TGMIN
 { exch dup 3 1 roll exch dup 3 1 roll lt { pop } { exch pop } ifelse
 } def
/TGSW { stringwidth pop } def

/bd { bind def } bind def

/GS { gsave } bd
/GR { grestore } bd
/NP { newpath } bd
/CP { closepath } bd
/CHP { charpath } bd
/CT { curveto } bd
/L { lineto } bd
/RL { rlineto } bd
/M { moveto } bd
/RM { rmoveto } bd
/S { stroke } bd
/F { fill } bd
/TR { translate } bd
/RO { rotate } bd
/SC { scale } bd
/MU { mul } bd
/DI { div } bd
/DU { dup } bd
/NE { neg } bd
/AD { add } bd
/SU { sub } bd
/PO { pop } bd
/EX { exch } bd
/CO { concat } bd
/CL { clip } bd
/EC { eoclip } bd
/EF { eofill } bd
/IM { image } bd
/IMM { imagemask } bd
/ARY { array } bd
/SG { setgray } bd
/RG { setrgbcolor } bd
/SD { setdash } bd
/W { setlinewidth } bd
/SM { setmiterlimit } bd
/SLC { setlinecap } bd
/SLJ { setlinejoin } bd
/SH { show } bd
/FF { findfont } bd
/MS { makefont setfont } bd
/AR { arcto 4 {pop} repeat } bd
/CURP { currentpoint } bd
/FLAT { flattenpath strokepath clip newpath } bd
/TGSM { tgiforigctm setmatrix } def
/TGRM { savematrix setmatrix } def

end

%%EndProlog
%%Page: 1 1

%%PageBoundingBox: 62 636 281 748
tgifdict begin
/tgifsavedpage save def

1 SM
1 W

0 SG

72 0 MU 72 11 MU TR
72 128 DI 100.000 MU 100 DI DU NE SC

GS

/tgiforigctm matrix currentmatrix def

% POLY/OPEN-SPLINE
0 SG
GS
   NP
      360 227 M
      424 227 L
   TGSM
   1 W
   S
GR

% POLY/OPEN-SPLINE
0 SG
GS
   NP
      363 89 M
      427 89 L
   TGSM
   1 W
   S
GR

% POLY/OPEN-SPLINE
0 SG
GS
   NP
      183 192 M
      183 240 L
   TGSM
   1 W
   S
GR

% POLY/OPEN-SPLINE
0 SG
GS
   NP
      390 191 M
      390 239 L
   TGSM
   1 W
   S
GR

% POLY/OPEN-SPLINE
0 SG
GS
   NP
      185 237 M
      0 203 atan DU cos 8.000 MU exch sin 8.000 MU RM
      0 203 atan DU cos 8.000 MU 388 exch SU
      exch sin 8.000 MU 237 exch SU L
   TGSM
   1 W
   S
GR
GS
   TGSM
   NP
      185 237 8.000 3.000 -203 0 TGAT
   1 SG CP F
   0 SG
   NP
      185 237 8.000 3.000 -203 0 TGAT
   CP F
GR
GS
   TGSM
   NP
      388 237 8.000 3.000 203 0 TGAT
   1 SG CP F
   0 SG
   NP
      388 237 8.000 3.000 203 0 TGAT
   CP F
GR

% POLY/OPEN-SPLINE
0 SG
GS
   NP
      418 91 M
      129 0 atan DU cos 8.000 MU exch sin 8.000 MU RM
      129 0 atan DU cos 8.000 MU 418 exch SU
      exch sin 8.000 MU 220 exch SU L
   TGSM
   1 W
   S
GR
GS
   TGSM
   NP
      418 91 8.000 3.000 0 -129 TGAT
   1 SG CP F
   0 SG
   NP
      418 91 8.000 3.000 0 -129 TGAT
   CP F
GR
GS
   TGSM
   NP
      418 220 8.000 3.000 0 129 TGAT
   1 SG CP F
   0 SG
   NP
      418 220 8.000 3.000 0 129 TGAT
   CP F
GR

% POLY/OPEN-SPLINE
0 SG
GS
   [20 4 4 4] 0 SD
   NP
      113 153 M
      449 153 L
   TGSM
   2 W
   S
   [] 0 SD
   1 W
GR

% TEXT
NP
0 SG
   GS
      1 W
      427 137 M
      GS
            0 SG
            /Helvetica FF [34 0 0 -34 0 0] MS
            (b) SH
      GR
   GR

% TEXT
NP
0 SG
   GS
      1 W
      277 267 M
      GS
            0 SG
            /Helvetica FF [34 0 0 -34 0 0] MS
            (a) SH
      GR
   GR

% POLY/OPEN-SPLINE
0 SG
GS
   [20 4 4 4] 0 SD
   NP
      438 153 M
      71 0 atan DU cos 8.000 MU exch sin 8.000 MU RM
      71 0 atan DU cos 8.000 MU 438 exch SU
      exch sin 8.000 MU 224 exch SU L
   TGSM
   1 W
   S
   [] 0 SD
GR
GS
   TGSM
   NP
      438 153 8.000 3.000 0 -71 TGAT
   1 SG CP F
   0 SG
   NP
      438 153 8.000 3.000 0 -71 TGAT
   CP F
GR
GS
   TGSM
   NP
      438 224 8.000 3.000 0 71 TGAT
   1 SG CP F
   0 SG
   NP
      438 224 8.000 3.000 0 71 TGAT
   CP F
GR

% TEXT
NP
0 SG
   GS
      1 W
      453 200 M
      GS
            0 SG
            /Helvetica FF [34 0 0 -34 0 0] MS
            (b/2) SH
      GR
   GR

% TEXT
NP
0 SG
   GS
      1 W
      122 137 M
      GS
            0 SG
            /Helvetica-Bold FF [34 0 0 -34 0 0] MS
            (XX) SH
      GR
   GR

% OVAL
0.373 0.620 0.627 RG
NP 286 155 105 74 TGEL F
GS
   GS
      NP 286 155 105 74 TGEL
      2 W
      S
   GR
GR

% TEXT
NP
0 SG
   GS
      1 W
      248 124 M
      GS
            0 SG
            /Helvetica FF [34 0 0 -34 0 0] MS
            (a > b) SH
      GR
   GR

GR
tgifsavedpage restore
end
showpage

%%Trailer
%MatchingCreationDate: Thu Feb 28 15:18:29 2008
%%DocumentFonts: Helvetica-Bold
%%+ Helvetica
%%EOF
