%!PS-Adobe-3.0 EPSF-3.0
%%BoundingBox: 34 606 296 757
%%Title: rectanggel
%%CreationDate: Thu Feb 28 15:10:08 2008
%%Creator: Tgif-4.1.45-QPL written by William Chia-Wei Cheng (bill.cheng@acm.org)
%%ProducedBy: (unknown)
%%Pages: 1
%%DocumentFonts: (atend)
%%EndComments
%%BeginPreview: 262 151 1 302
% 000000000fffffffffffffffffffffffffffffffffffffffff00000000000000
% 00
% 000000000fffffffffffffffffffffffffffffffffffffffff00000000000000
% 00
% 000000000fffffffffffffffffffffffffffffffffffffffff00006000000000
% 00
% 000000000fffffffffffffffffffffffffffffffffffffffff00006000000000
% 00
% 000000000fffffffffffffffffffffffffffffffffffffffff0000e000000000
% 00
% 000000000fffffffffffffffffffffffffffffffffffffffff00000000000000
% 00
% 000000000fffffffffffffffffffffffffffffffffffffffff00000000000000
% 00
% 000000000fffffffffffffffffffffffffffffffffffffffff00000000000000
% 00
% 000000000fffffffffffffffffffffffffffffffffffffffff00000000000000
% 00
% 000000000fffffffffffffffffffffffffffffffffffffffff00000000000000
% 00
% 000000000fffffffffffffffffffffffffffffffffffffffff00000000000000
% 00
% 000000000fffffffffffffffffffffffffffffffffffffffff00000000000000
% 00
% 000000000fffffffffffffffffffffffffffffffffffffffff00000000000000
% 00
% 000000000fffffffffffffffffffffffffffffffffffffffff00000000000000
% 00
% 000000000fffffffffffffffffffffffffffffffffffffffff00000000000000
% 00
% 000000000fffffffffffffffffffffffffffffffffffffffff00000000000000
% 00
% 000000000fffffffffffffffffffffffffffffffffffffffff00000000000000
% 00
% 000000000fffffffffffffffffffffffffffffffffffffffff00000000000000
% 00
% 000000000fffffffffffffffffffffffffffffffffffffffff00000000000000
% 00
% 000000000fffffffffffffffffffffffffffffffffffffffff00000000000000
% 00
% 000000000fffffffffffffffffffffffffffffffffffffffff00000000000000
% 00
% 000000000fffffffffffffffffffffffffffffffffffffffff00000000000000
% 00
% 000000000fffffffffffffffffffffffffffffffffffffffff00000000000000
% 00
% 000000000fffffffffffffffffffffffffffffffffffffffff00000000000000
% 00
% 000000000fffffffffffffffffffffffffffffffffffffffff00000000000000
% 00
% 000000000fffffffffffffffffffffffffffffffffffffffff00000000000000
% 00
% 000000000fffffffffffffffffffffffffffffffffffffffff00000000000000
% 00
% 000000000fffffffffffffffffffffffffffffffffffffffff00000000000000
% 00
% 000000000fffffffffffffffffffffffffffffffffffffffff00000000000000
% 00
% 000000000fffffffffffffffffffffffffffffffffffffffff00000000000000
% 00
% 000000000fffffffffffffffffffffffffffffffffffffffff00000000000000
% 00
% 000000000fffffffffffffffffffffffffffffffffffffffff00000000000000
% 00
% 787383000fffffffffffffffffffffffffffffffffffffffff00000000000000
% 00
% 3873c7000fffffffffffffffffffffffffffffffffffffffff00000000000000
% 00
% 1ce1c6000fffffffffffffffffffffffffffffffffffffffff00000000000000
% 00
% 0cc0ee000fffffffffffffffffffffffffffffffffffffffff00000000000000
% 00
% 0dc0fc000fffffffffffffffffffffffffffffffffffffffff00000000000000
% 00
% 0f807c000fffffffffffffffffffffffffffffffffffffffff01800000000000
% 00
% 078078000fffffffffffffffffffffffffffffffffffffffff01800000000000
% 00
% 078078000fffffffffffffffffffffffffffffffffffffffff01800000000000
% 00
% 07807c000fffffffffffffffffffffffffffffffffffffffff01800000000000
% 00
% 0fc07c000fffffffffffffffffffffffffffffffffffffffff01b80000000000
% 00
% 1cc1ee000fffffffffffffffffffffffffffffffffffffffff01fc0000000000
% 00
% 3ce1c6000fffffffffffffffffffffffffffffffffffffffff01860000000000
% 00
% 3873c7000fffffffffffffffffffffffffffffffffffffffff01820000000000
% 00
% 787387000fffffffffffffffffffffffffffffffffffffffff01820000000000
% 00
% 000000000fffffffffffffffffffffffffffffffffffffffff01820000000000
% 00
% 000000000fffffffffffffffffffffffffffffffffffffffff01820000000000
% 00
% 000000000fffffffffffffffffffffffffffffffffffffffff01860000000000
% 00
% 000000000fffffffffffffffffffffffffffffffffffffffff01c60000000000
% 00
% 000000000fffffffffffffffffffffffffffffffffffffffff01fc0000000000
% 00
% 000000000fffffffffffffffffffffffffffffffffffffffff00000000000000
% 00
% 000000000fffffffffffffffffffffffffffffffffffffffff00000000000000
% 00
% 000000000fffffffffffffffffffffffffffffffffffffffff00000000000000
% 00
% 000000000fffffffffffffffffffffffffffffffffffffffff00000000000000
% 00
% 003ff9cfffffffffffffffffffffffffffffffffffffffffffcc7ff31ffcc000
% 00
% 000000000fffffffffffffffffffffffffffffffffffffffff00000000000000
% 00
% 000000000fffffffffffffffffffffffffffffffffffffffff00000030000000
% 00
% 000000000fffffffffffffffffffffffffffffffffffffffff00000030000000
% 00
% 000000000fffffffffffffffffffffffffffffffffffffffff00000030000000
% 00
% 000000000fffffffffffffffffffffffffffffffffffffffff00000000000000
% 00
% 000000000fffffffffffffffffffffffffffffffffffffffff00000000000000
% 00
% 000000000fffffffffffffffffffffffffffffffffffffffff00000000000000
% 00
% 000000000fffffffffffffffffffffffffffffffffffffffff00000000000000
% 00
% 000000000fffffffffffffffffffffffffffffffffffffffff00000000000000
% 00
% 000000000fffffffffffffffffffffffffffffffffffffffff00000000000000
% 00
% 000000000fffffffffffffffffffffffffffffffffffffffff00000000000000
% 00
% 000000000fffffffffffffffffffffffffffffffffffffffff00000000000000
% 00
% 000000000fffffffffffffffffffffffffffffffffffffffff00000000060000
% 00
% 000000000fffffffffffffffffffffffffffffffffffffffff00000000060027
% c0
% 000000000fffffffffffffffffffffffffffffffffffffffff00000000060027
% e0
% 000000000fffffffffffffffffffffffffffffffffffffffff0000000006004c
% 20
% 000000000fffffffffffffffffffffffffffffffffffffffff0000000006e058
% 30
% 000000000fffffffffffffffffffffffffffffffffffffffff0000000007f040
% 30
% 000000000fffffffffffffffffffffffffffffffffffffffff00000000073880
% 20
% 000000000fffffffffffffffffffffffffffffffffffffffff00000000061880
% 60
% 000000000fffffffffffffffffffffffffffffffffffffffff00000000060881
% c0
% 000000000fffffffffffffffffffffffffffffffffffffffff00000000060887
% 00
% 000000000fffffffffffffffffffffffffffffffffffffffff00000000060906
% 00
% 000000000fffffffffffffffffffffffffffffffffffffffff0000000006190c
% 00
% 000000000fffffffffffffffffffffffffffffffffffffffff00000000073b18
% 00
% 000000000fffffffffffffffffffffffffffffffffffffffff0000000007f21f
% f0
% 000000000fffffffffffffffffffffffffffffffffffffffff0000000006e21f
% f0
% 000000000fffffffffffffffffffffffffffffffffffffffff00000000000000
% 00
% 000000000fffffffffffffffffffffffffffffffffffffffff00000000000000
% 00
% 000000000fffffffffffffffffffffffffffffffffffffffff00000000000000
% 00
% 000000000fffffffffffffffffffffffffffffffffffffffff00000000000000
% 00
% 000000000fffffffffffffffffffffffffffffffffffffffff00000000000000
% 00
% 000000000fffffffffffffffffffffffffffffffffffffffff00000000000000
% 00
% 000000000fffffffffffffffffffffffffffffffffffffffff00000000000000
% 00
% 000000000fffffffffffffffffffffffffffffffffffffffff00000000000000
% 00
% 000000000fffffffffffffffffffffffffffffffffffffffff00000000000000
% 00
% 000000000fffffffffffffffffffffffffffffffffffffffff00000000000000
% 00
% 000000000fffffffffffffffffffffffffffffffffffffffff00000000000000
% 00
% 000000000fffffffffffffffffffffffffffffffffffffffff00000000000000
% 00
% 000000000fffffffffffffffffffffffffffffffffffffffff00000000000000
% 00
% 000000000fffffffffffffffffffffffffffffffffffffffff00000000000000
% 00
% 000000000fffffffffffffffffffffffffffffffffffffffff00000000000000
% 00
% 000000000fffffffffffffffffffffffffffffffffffffffff00000000000000
% 00
% 000000000fffffffffffffffffffffffffffffffffffffffff00000000000000
% 00
% 000000000fffffffffffffffffffffffffffffffffffffffff00000000000000
% 00
% 000000000fffffffffffffffffffffffffffffffffffffffff00000000000000
% 00
% 000000000fffffffffffffffffffffffffffffffffffffffff00000000000000
% 00
% 000000000fffffffffffffffffffffffffffffffffffffffff00000000000000
% 00
% 000000000fffffffffffffffffffffffffffffffffffffffff00000000000000
% 00
% 000000000fffffffffffffffffffffffffffffffffffffffff0000e070000000
% 00
% 000000000fffffffffffffffffffffffffffffffffffffffff0000e030000000
% 00
% 000000000fffffffffffffffffffffffffffffffffffffffff00006030000000
% 00
% 000000000fffffffffffffffffffffffffffffffffffffffff00006030000000
% 00
% 000000000fffffffffffffffffffffffffffffffffffffffff00000000000000
% 00
% 0000000000000000000000000000000000000000000000000000000000000000
% 00
% 0000000000000000000000000000000000000000000000000000000000000000
% 00
% 0000000000000000000000000000000000000000000000000000000000000000
% 00
% 0000000000000000000000000000000000000000000000000000000000000000
% 00
% 0000000000000000000000000000000000000000000000000000000000000000
% 00
% 0000000000000000000000000000000000000000000000000000000000000000
% 00
% 0000000000000000000000000000000000000000000000000000000000000000
% 00
% 0000000000000000000000000000000000000000000000000000000000000000
% 00
% 0000000000000000000000000000000000000000000000000000000000000000
% 00
% 0000000000000000000000000000000000000000000000000000000000000000
% 00
% 0000000000000000000000000000000000000000000000000000000000000000
% 00
% 0000000000000000000000000000000000000000000000000000000000000000
% 00
% 0000000000000000000000000000000000000000000000000000000000000000
% 00
% 0000000000000000000000000000000000000000000000000000000000000000
% 00
% 0000000000000000000000000000000000000000000000000000000000000000
% 00
% 0000000000000000000000000000000000000000000000000000000000000000
% 00
% 0000000000000000000000000000000000000000000000000000000000000000
% 00
% 0000000001800000000000000000000000000000000000001c00000000000000
% 00
% 0000000007ffffffffffffffffffffffffffffffffffffffff00000000000000
% 00
% 0000000000800000000000000000000000000000000000001800000000000000
% 00
% 0000000000000000000000000000000000000000000000000000000000000000
% 00
% 0000000000000000000000000000000000000000000000000000000000000000
% 00
% 0000000000000000000000000000000000000000000000000000000000000000
% 00
% 0000000000000000000000000000000000000000000000000000000000000000
% 00
% 0000000000000000000000000000000000000000000000000000000000000000
% 00
% 0000000000000000000000000000000000000000000000000000000000000000
% 00
% 0000000000000000000000000001f80000000000000000000000000000000000
% 00
% 0000000000000000000000000001980000000000000000000000000000000000
% 00
% 00000000000000000000000000030c0000000000000000000000000000000000
% 00
% 00000000000000000000000000001c0000000000000000000000000000000000
% 00
% 0000000000000000000000000001fc0000000000000000000000000000000000
% 00
% 0000000000000000000000000003cc0000000000000000000000000000000000
% 00
% 00000000000000000000000000030c0000000000000000000000000000000000
% 00
% 00000000000000000000000000021c0000000000000000000000000000000000
% 00
% 0000000000000000000000000003bc0000000000000000000000000000000000
% 00
% 0000000000000000000000000003ee0000000000000000000000000000000000
% 00
% 0000000000000000000000000000000000000000000000000000000000000000
% 00
% 0000000000000000000000000000000000000000000000000000000000000000
% 00
% 0000000000000000000000000000000000000000000000000000000000000000
% 00
% 0000000000000000000000000000000000000000000000000000000000000000
% 00
% 0000000000000000000000000000000000000000000000000000000000000000
% 00
%%EndImage
%%EndPreview
%%BeginProlog

/tgifdict 53 dict def
tgifdict begin

/tgifarrowtipdict 8 dict def
tgifarrowtipdict /mtrx matrix put

/TGAT % tgifarrowtip
 { tgifarrowtipdict begin
      /dy exch def
      /dx exch def
      /h exch def
      /w exch def
      /y exch def
      /x exch def
      /savematrix mtrx currentmatrix def
      x y translate
      dy dx atan rotate
      0 0 moveto
      w neg h lineto
      w neg h neg lineto
      savematrix setmatrix
   end
 } def

/TGMAX
 { exch dup 3 1 roll exch dup 3 1 roll gt { pop } { exch pop } ifelse
 } def
/TGMIN
 { exch dup 3 1 roll exch dup 3 1 roll lt { pop } { exch pop } ifelse
 } def
/TGSW { stringwidth pop } def

/bd { bind def } bind def

/GS { gsave } bd
/GR { grestore } bd
/NP { newpath } bd
/CP { closepath } bd
/CHP { charpath } bd
/CT { curveto } bd
/L { lineto } bd
/RL { rlineto } bd
/M { moveto } bd
/RM { rmoveto } bd
/S { stroke } bd
/F { fill } bd
/TR { translate } bd
/RO { rotate } bd
/SC { scale } bd
/MU { mul } bd
/DI { div } bd
/DU { dup } bd
/NE { neg } bd
/AD { add } bd
/SU { sub } bd
/PO { pop } bd
/EX { exch } bd
/CO { concat } bd
/CL { clip } bd
/EC { eoclip } bd
/EF { eofill } bd
/IM { image } bd
/IMM { imagemask } bd
/ARY { array } bd
/SG { setgray } bd
/RG { setrgbcolor } bd
/SD { setdash } bd
/W { setlinewidth } bd
/SM { setmiterlimit } bd
/SLC { setlinecap } bd
/SLJ { setlinejoin } bd
/SH { show } bd
/FF { findfont } bd
/MS { makefont setfont } bd
/AR { arcto 4 {pop} repeat } bd
/CURP { currentpoint } bd
/FLAT { flattenpath strokepath clip newpath } bd
/TGSM { tgiforigctm setmatrix } def
/TGRM { savematrix setmatrix } def

end

%%EndProlog
%%Page: 1 1

%%PageBoundingBox: 34 606 296 757
tgifdict begin
/tgifsavedpage save def

1 SM
1 W

0 SG

72 0 MU 72 11 MU TR
72 128 DI 100.000 MU 100 DI DU NE SC

GS

/tgiforigctm matrix currentmatrix def

% BOX
0.373 0.620 0.627 RG
NP 128 64 M 416 64 L 416 256 L 128 256 L CP F
GS
   10 SM
   GS
      NP 128 64 M 416 64 L 416 256 L 128 256 L CP
      2 W
      S
   GR
GR

% POLY/OPEN-SPLINE
0 SG
GS
   NP
      416 256 M
      480 256 L
   TGSM
   1 W
   S
GR

% POLY/OPEN-SPLINE
0 SG
GS
   NP
      416 64 M
      480 64 L
   TGSM
   1 W
   S
GR

% POLY/OPEN-SPLINE
0 SG
GS
   NP
      128 256 M
      128 304 L
   TGSM
   1 W
   S
GR

% POLY/OPEN-SPLINE
0 SG
GS
   NP
      416 256 M
      416 304 L
   TGSM
   1 W
   S
GR

% POLY/OPEN-SPLINE
0 SG
GS
   NP
      128 288 M
      0 288 atan DU cos 8.000 MU exch sin 8.000 MU RM
      0 288 atan DU cos 8.000 MU 416 exch SU
      exch sin 8.000 MU 288 exch SU L
   TGSM
   1 W
   S
GR
GS
   TGSM
   NP
      128 288 8.000 3.000 -288 0 TGAT
   1 SG CP F
   0 SG
   NP
      128 288 8.000 3.000 -288 0 TGAT
   CP F
GR
GS
   TGSM
   NP
      416 288 8.000 3.000 288 0 TGAT
   1 SG CP F
   0 SG
   NP
      416 288 8.000 3.000 288 0 TGAT
   CP F
GR

% POLY/OPEN-SPLINE
0 SG
GS
   NP
      448 64 M
      192 0 atan DU cos 8.000 MU exch sin 8.000 MU RM
      192 0 atan DU cos 8.000 MU 448 exch SU
      exch sin 8.000 MU 256 exch SU L
   TGSM
   1 W
   S
GR
GS
   TGSM
   NP
      448 64 8.000 3.000 0 -192 TGAT
   1 SG CP F
   0 SG
   NP
      448 64 8.000 3.000 0 -192 TGAT
   CP F
GR
GS
   TGSM
   NP
      448 256 8.000 3.000 0 192 TGAT
   1 SG CP F
   0 SG
   NP
      448 256 8.000 3.000 0 192 TGAT
   CP F
GR

% POLY/OPEN-SPLINE
0 SG
GS
   [20 4 4 4] 0 SD
   NP
      80 160 M
      496 160 L
   TGSM
   2 W
   S
   [] 0 SD
   1 W
GR

% TEXT
NP
0 SG
   GS
      1 W
      427 153 M
      GS
            0 SG
            /Helvetica FF [34 0 0 -34 0 0] MS
            (b) SH
      GR
   GR

% TEXT
NP
0 SG
   GS
      1 W
      256 320 M
      GS
            0 SG
            /Helvetica FF [34 0 0 -34 0 0] MS
            (a) SH
      GR
   GR

% POLY/OPEN-SPLINE
0 SG
GS
   [20 4 4 4] 0 SD
   NP
      464 160 M
      96 0 atan DU cos 8.000 MU exch sin 8.000 MU RM
      96 0 atan DU cos 8.000 MU 464 exch SU
      exch sin 8.000 MU 256 exch SU L
   TGSM
   1 W
   S
   [] 0 SD
GR
GS
   TGSM
   NP
      464 160 8.000 3.000 0 -96 TGAT
   1 SG CP F
   0 SG
   NP
      464 160 8.000 3.000 0 -96 TGAT
   CP F
GR
GS
   TGSM
   NP
      464 256 8.000 3.000 0 96 TGAT
   1 SG CP F
   0 SG
   NP
      464 256 8.000 3.000 0 96 TGAT
   CP F
GR

% TEXT
NP
0 SG
   GS
      1 W
      480 208 M
      GS
            0 SG
            /Helvetica FF [34 0 0 -34 0 0] MS
            (b/2) SH
      GR
   GR

% TEXT
NP
0 SG
   GS
      1 W
      64 144 M
      GS
            0 SG
            /Helvetica-Bold FF [34 0 0 -34 0 0] MS
            (XX) SH
      GR
   GR

GR
tgifsavedpage restore
end
showpage

%%Trailer
%MatchingCreationDate: Thu Feb 28 15:10:08 2008
%%DocumentFonts: Helvetica-Bold
%%+ Helvetica
%%EOF
