0.912463697606  1.04423983562
1.02600304628  1.0534052992
0.981939969936  1.0540343016
1.2054394969  1.06194176037
1.12039861727  1.06299009771
1.37571835996  1.08174035979
1.6166752533  1.10111962428
1.87223981714  1.12070855623
2.20114024769  1.16177342734
2.47503172494  1.17093889092
2.86692245977  1.20137062619
3.3216021585  1.24264516477
3.7916498139  1.2732865675
4.39591572697  1.34708951603
5.17160166341  1.42068279708
6.36707430661  1.56954669894
7.27778909527  1.66524492155
8.32431458278  1.79347155412
9.24262602119  1.90043191498
10.1109326274  1.99675914
10.5740385481  2.03950135086
12.2864644771  2.22173233252
13.8614077153  2.3935398458
15.4008150426  2.53302861661
16.6103181453  2.65125111573
18.1990709499  2.82347796395
19.6152565651  2.90917205312
19.9132223964  2.93064799228
