%TGIF 4.1.43-QPL
state(0,37,100.000,0,608,0,16,0,9,1,1,0,0,1,0,1,1,'NewCenturySchlbk-Bold',1,195840,0,0,0,10,0,0,1,1,0,16,0,0,1,1,1,1,1088,1408,0,0,2880,0).
%
% @(#)$Header$
% %W%
%
unit("1 pixel/pixel").
color_info(11,65535,0,[
	"magenta", 65535, 0, 65535, 65535, 0, 65535, 1,
	"red", 65535, 0, 0, 65535, 0, 0, 1,
	"green", 0, 65535, 0, 0, 65535, 0, 1,
	"blue", 0, 0, 65535, 0, 0, 65535, 1,
	"yellow", 65535, 65535, 0, 65535, 65535, 0, 1,
	"pink", 65535, 49344, 52171, 65535, 49344, 52171, 1,
	"cyan", 0, 65535, 65535, 0, 65535, 65535, 1,
	"CadetBlue", 24415, 40606, 41120, 24415, 40606, 41120, 1,
	"white", 65535, 65535, 65535, 65535, 65535, 65535, 1,
	"black", 0, 0, 0, 0, 0, 0, 1,
	"DarkSlateGray", 12079, 20303, 20303, 12079, 20303, 20303, 1
]).
script_frac("0.6").
fg_bg_colors('black','white').
dont_reencode("FFDingbests:ZapfDingbats").
page(1,"",1,'').
xbm('black','',0,0,905,1134,0,23,0,431,540,0,0,1,1000,1000,432000,541000,1,0,0,0,1,0,0,
    "Fri Sep 30 14:45:50 2005","hand.epsi",[
    0,0,0,0,431,540,2100,0,0,2100,0,0],[
]).
text('black',289,201,4,1,1,276,160,25,33,7,0,0,0,0,2,276,160,0,0,"",0,1,0,0,234,'',[
	289,201,151,201,427,361,1000,0,0,1000,0,0,150,200,428,362],[
minilines(276,160,0,0,1,0,0,[
mini_line(242,33,7,0,0,0,[
str_block(0,242,33,7,0,-1,0,0,0,[
str_seg('black','NewCenturySchlbk-Bold',1,195840,242,33,7,0,-1,0,0,0,0,0,
	"Fundamentals")])
]),
mini_line(41,33,7,0,0,0,[
str_block(0,41,33,7,0,-7,0,0,0,[
str_seg('black','NewCenturySchlbk-Bold',1,195840,41,33,7,0,-7,0,0,0,0,0,
	"of ")])
]),
mini_line(233,33,7,0,0,0,[
str_block(0,233,33,7,0,-7,0,0,0,[
str_seg('black','NewCenturySchlbk-Bold',1,195840,233,33,7,0,-7,0,0,0,0,0,
	"Compressible ")])
]),
mini_line(276,33,7,0,0,0,[
str_block(0,276,33,7,0,-1,0,0,0,[
str_seg('black','NewCenturySchlbk-Bold',1,195840,276,33,7,0,-1,0,0,0,0,0,
	"Fluid Mechanics")])
])
])]).
text('black',248,844,1,1,1,312,56,19,32,7,0,0,0,0,2,272,39,0,1,"",0,1,0,0,876,'',[
	248,844,112,844,384,883,1144,0,0,1434.36,40,32,111,843,386,884],[
minilines(272,39,0,1,1,0,0,[
mini_line(272,32,7,0,1,0,[
str_block(0,272,32,7,0,1,0,0,0,[
str_seg('black','NewCenturySchlbk-BoldItalic',3,195840,272,32,7,0,1,0,0,0,0,0,
	"Genick Bar-Meir")])
])
])]).
text('black',255,996,2,1,1,130,85,22,12,4,0,0,0,0,2,63,32,0,0,"",0,1,0,0,1008,'',[
	255,996,224,996,287,1028,2066.66,0,0,2666.67,56,0,223,995,288,1029],[
minilines(63,32,0,0,1,0,0,[
mini_line(63,12,4,0,0,0,[
str_block(0,63,12,4,0,0,0,0,0,[
str_seg('black','Courier-Bold',1,80640,63,12,4,0,0,0,0,0,0,0,
	"Version")])
]),
mini_line(63,12,4,0,0,0,[
str_block(0,63,12,4,0,-2,0,0,0,[
str_seg('black','Courier-Bold',1,80640,63,12,4,0,-2,0,0,0,0,0,
	"0.4.1.8")])
])
])]).
