%!PS-Adobe-3.0 EPSF-3.0
%%BoundingBox: 88 689 151 746
%%Title: contantforces
%%CreationDate: Mon Jun 30 10:29:17 2008
%%Creator: Tgif-4.1.45-QPL written by William Chia-Wei Cheng (bill.cheng@acm.org)
%%ProducedBy: (unknown)
%%Pages: 1
%%DocumentFonts: (atend)
%%EndComments
%%BeginPreview: 63 57 1 57
% 0800000000000000
% 0000000000000000
% 0400000000000000
% 0200000000000000
% 0000000000000000
% 0100001f00000000
% 0100003180000000
% 0000006080000000
% 0080004000000000
% 0000004000000000
% 00400043c0000000
% 0020004040000000
% 0000006040000000
% 00100060c0000000
% 00100031c0000000
% 000c000e40000000
% 000e000000000000
% 000c00000007fc00
% 0004000000040000
% 0002000000020800
% 0001000000000000
% 0001000000011000
% 0000000000000000
% 0000800000002000
% 00005ffffffffff8
% 00005ffffffffff8
% 00001ffffffffff8
% 0e009ffffffffff8
% 118e100000000000
% 309c180000000000
% 203c000000000000
% 18000c0010000000
% 0700060010004000
% 0180040010000000
% 0080078010000000
% 6080018010000000
% 3180008010000000
% 1f00008010000000
% 0000008010000000
% 0000004010000000
% 0000004010000000
% 000000201f800000
% 0000001000000000
% 0000000000000000
% 0000000000000000
% 0000000800000000
% 0000000400000000
% 0000000200000000
% 0000000200000000
% 0000000100000000
% 0000000000000000
% 0000000080000000
% 0000000080000000
% 0000000040000000
% 0000000020000000
% 0000000000000000
% 0000000000000000
%%EndImage
%%EndPreview
%%BeginProlog

/tgifdict 53 dict def
tgifdict begin

/tgifarrowtipdict 8 dict def
tgifarrowtipdict /mtrx matrix put

/TGAT % tgifarrowtip
 { tgifarrowtipdict begin
      /dy exch def
      /dx exch def
      /h exch def
      /w exch def
      /y exch def
      /x exch def
      /savematrix mtrx currentmatrix def
      x y translate
      dy dx atan rotate
      0 0 moveto
      w neg h lineto
      w neg h neg lineto
      savematrix setmatrix
   end
 } def

/TGMAX
 { exch dup 3 1 roll exch dup 3 1 roll gt { pop } { exch pop } ifelse
 } def
/TGMIN
 { exch dup 3 1 roll exch dup 3 1 roll lt { pop } { exch pop } ifelse
 } def
/TGSW { stringwidth pop } def

/bd { bind def } bind def

/GS { gsave } bd
/GR { grestore } bd
/NP { newpath } bd
/CP { closepath } bd
/CHP { charpath } bd
/CT { curveto } bd
/L { lineto } bd
/RL { rlineto } bd
/M { moveto } bd
/RM { rmoveto } bd
/S { stroke } bd
/F { fill } bd
/TR { translate } bd
/RO { rotate } bd
/SC { scale } bd
/MU { mul } bd
/DI { div } bd
/DU { dup } bd
/NE { neg } bd
/AD { add } bd
/SU { sub } bd
/PO { pop } bd
/EX { exch } bd
/CO { concat } bd
/CL { clip } bd
/EC { eoclip } bd
/EF { eofill } bd
/IM { image } bd
/IMM { imagemask } bd
/ARY { array } bd
/SG { setgray } bd
/RG { setrgbcolor } bd
/SD { setdash } bd
/W { setlinewidth } bd
/SM { setmiterlimit } bd
/SLC { setlinecap } bd
/SLJ { setlinejoin } bd
/SH { show } bd
/FF { findfont } bd
/MS { makefont setfont } bd
/AR { arcto 4 {pop} repeat } bd
/CURP { currentpoint } bd
/FLAT { flattenpath strokepath clip newpath } bd
/TGSM { tgiforigctm setmatrix } def
/TGRM { savematrix setmatrix } def

end

%%EndProlog
%%Page: 1 1

%%PageBoundingBox: 88 689 151 746
tgifdict begin
/tgifsavedpage save def

1 SM
1 W

0 SG

72 0 MU 72 11 MU TR
72 128 DI 100.000 MU 100 DI DU NE SC

GS

/tgiforigctm matrix currentmatrix def

% POLY/OPEN-SPLINE
0.000 0.808 0.820 RG
GS
   NP
      191 127 M
      265 127 L
   TGSM
   7 W
   S
   1 W
GR

% POLY/OPEN-SPLINE
0 SG
GS
   NP
      191 126 M
      0 24 atan DU cos 8.000 MU 215 exch SU
      exch sin 8.000 MU 126 exch SU L
   TGSM
   1 W
   S
GR
GS
   TGSM
   NP
      215 126 8.000 3.000 24 0 TGAT
   1 SG CP F
   0 SG
   NP
      215 126 8.000 3.000 24 0 TGAT
   CP F
GR

% POLY/OPEN-SPLINE
0 SG
GS
   NP
      190 126 M
      -21 -12 atan DU cos 8.000 MU 178 exch SU
      exch sin 8.000 MU 105 exch SU L
   TGSM
   1 W
   S
GR
GS
   TGSM
   NP
      178 105 8.000 3.000 -12 -21 TGAT
   1 SG CP F
   0 SG
   NP
      178 105 8.000 3.000 -12 -21 TGAT
   CP F
GR

% POLY/OPEN-SPLINE
0 SG
GS
   NP
      191 127 M
      20 11 atan DU cos 8.000 MU 202 exch SU
      exch sin 8.000 MU 147 exch SU L
   TGSM
   1 W
   S
GR
GS
   TGSM
   NP
      202 147 8.000 3.000 11 20 TGAT
   1 SG CP F
   0 SG
   NP
      202 147 8.000 3.000 11 20 TGAT
   CP F
GR

% POLY/OPEN-SPLINE
0.545 0.000 0.000 RG
GS
   NP
      166 82 M
      189 126 L
      191 126 L
      192 127 L
      191 130 L
      220 180 L
   TGSM
   1 W
   S
GR

% POLY/OPEN-SPLINE
0 SG
GS
   NP
      189 128 M
      7 -14 atan DU cos 8.000 MU 175 exch SU
      exch sin 8.000 MU 135 exch SU L
   TGSM
   1 W
   S
GR
GS
   TGSM
   NP
      175 135 8.000 3.000 -14 7 TGAT
   1 SG CP F
   0 SG
   NP
      175 135 8.000 3.000 -14 7 TGAT
   CP F
GR

% POLYGON/CLOSED-SPLINE
0.000 0.808 0.820 RG
NP
   237 112 M
   245 124 L
   252 112 L
CP
GS
GR
GS
   S
GR

% POLY/OPEN-SPLINE
0.000 0.808 0.820 RG
GS
   NP
      242 135 M
      248 135 L
   TGSM
   1 W
   S
GR

% POLY/OPEN-SPLINE
0.000 0.808 0.820 RG
GS
   NP
      244 138 M
      246 138 L
   TGSM
   1 W
   S
GR

% TEXT
NP
0.000 0.808 0.820 RG
   GS
      1 W
      160 148 M
      GS
            0.545 0.000 0.000 RG
            /Helvetica FF [24 0 0 -24 0 0] MS
            (S) SH
      GR
   GR

% TEXT
NP
0.000 0.808 0.820 RG
   GS
      1 W
      217 155 M
      GS
            0.000 0.808 0.820 RG
            /Helvetica FF [24 0 0 -24 0 0] MS
            (L) SH
      GR
   GR

% TEXT
NP
0.000 0.808 0.820 RG
   GS
      1 W
      201 109 M
      GS
            1.000 0.843 0.000 RG
            /Helvetica FF [24 0 0 -24 0 0] MS
            (G) SH
      GR
   GR

GR
tgifsavedpage restore
end
showpage

%%Trailer
%MatchingCreationDate: Mon Jun 30 10:29:17 2008
%%DocumentFonts: Helvetica
%%EOF
