%TGIF 4.1.45-QPL
state(0,37,100.000,0,0,0,16,0,23,1,1,4,0,0,0,1,0,'Helvetica',0,103680,0,0,0,10,2,0,1,1,0,16,0,0,1,1,1,1,1088,1408,0,0,2880,1).
%
% @(#)$Header$
% %W%
%
unit("1 pixel/pixel").
color_info(52,65535,0,[
	"magenta", 65535, 0, 65535, 65535, 0, 65535, 1,
	"red", 65535, 0, 0, 65535, 0, 0, 1,
	"green", 0, 65535, 0, 0, 65535, 0, 1,
	"blue", 0, 0, 65535, 0, 0, 65535, 1,
	"yellow", 65535, 65535, 0, 65535, 65535, 0, 1,
	"pink", 65535, 49344, 52171, 65535, 49344, 52171, 1,
	"cyan", 0, 65535, 65535, 0, 65535, 65535, 1,
	"CadetBlue", 24415, 40606, 41120, 24415, 40606, 41120, 1,
	"white", 65535, 65535, 65535, 65535, 65535, 65535, 1,
	"black", 0, 0, 0, 0, 0, 0, 1,
	"DarkSlateGray", 12079, 20303, 20303, 12079, 20303, 20303, 1,
	"lightgreen", 37008, 61166, 37008, 37008, 61166, 37008, 1,
	"gold", 65535, 55255, 0, 65535, 55255, 0, 1,
	"gray", 48830, 48830, 48830, 48830, 48830, 48830, 1,
	"lightgray", 54227, 54227, 54227, 54227, 54227, 54227, 1,
	"brown", 42405, 10794, 10794, 42405, 10794, 10794, 1,
	"lightblue", 44461, 55512, 59110, 44461, 55512, 59110, 1,
	"darkblue", 0, 0, 35723, 0, 0, 35723, 1,
	"darkgreen", 0, 25700, 0, 0, 25700, 0, 1,
	"lightpink", 65535, 46774, 49601, 65535, 46774, 49601, 1,
	"darkgray", 43433, 43433, 43433, 43433, 43433, 43433, 1,
	"tan", 53970, 46260, 35980, 53970, 46260, 35980, 1,
	"deeppink", 65535, 5140, 37779, 65535, 5140, 37779, 1,
	"darkred", 35723, 0, 0, 35723, 0, 0, 1,
	"greenyellow", 44461, 65535, 12079, 44461, 65535, 12079, 1,
	"hotpink", 65535, 26985, 46260, 65535, 26985, 46260, 1,
	"ivory", 65535, 65535, 61680, 65535, 65535, 61680, 1,
	"khaki", 61680, 59110, 35980, 61680, 59110, 35980, 1,
	"darkkhaki", 48573, 47031, 27499, 48573, 47031, 27499, 1,
	"lavender", 59110, 59110, 64250, 59110, 59110, 64250, 1,
	"linen", 64250, 61680, 59110, 64250, 61680, 59110, 1,
	"maroon", 45232, 12336, 24672, 45232, 12336, 24672, 1,
	"navyblue", 0, 0, 32896, 0, 0, 32896, 1,
	"orchid", 56026, 28784, 54998, 56026, 28784, 54998, 1,
	"orangered", 65535, 17733, 0, 65535, 17733, 0, 1,
	"darkorange", 65535, 35980, 0, 65535, 35980, 0, 1,
	"darkorchid", 39321, 12850, 52428, 39321, 12850, 52428, 1,
	"violet", 61166, 33410, 61166, 61166, 33410, 61166, 1,
	"purple", 41120, 8224, 61680, 41120, 8224, 61680, 1,
	"seagreen", 11822, 35723, 22359, 11822, 35723, 22359, 1,
	"steelblue", 17990, 33410, 46260, 17990, 33410, 46260, 1,
	"springgreen", 0, 65535, 32639, 0, 65535, 32639, 1,
	"skyblue", 34695, 52942, 60395, 34695, 52942, 60395, 1,
	"slategray", 28784, 32896, 37008, 28784, 32896, 37008, 1,
	"turquoise", 16448, 57568, 53456, 16448, 57568, 53456, 1,
	"darkturquoise", 0, 52942, 53713, 0, 52942, 53713, 1,
	"wheat", 62965, 57054, 46003, 62965, 57054, 46003, 1,
	"yellowgreen", 39578, 52685, 12850, 39578, 52685, 12850, 1,
	"sienna", 41120, 21074, 11565, 41120, 21074, 11565, 1,
	"darkcyan", 0, 35723, 35723, 0, 35723, 35723, 1,
	"#0000ff", 0, 0, 65535, 0, 0, 65280, 1,
	"#ff00ff", 65535, 0, 65535, 65280, 0, 65280, 1
]).
script_frac("0.6").
fg_bg_colors('darkred','white').
dont_reencode("FFDingbests:ZapfDingbats").
objshadow_info('#c0c0c0',2,2).
page(1,"",1,'').
poly('darkred','',2,[
	190,69,191,398],0,4,1,295,0,6,0,0,0,0,0,'4',1,0,
    "0","",[
    0,14,6,0,'14','6','0'],[0,14,6,0,'14','6','0'],[
]).
box('darkred','',176,72,189,397,26,4,0,298,0,0,0,0,0,'4',1,[
]).
poly('skyblue','',6,[
	192,122,230,173,283,222,358,249,386,257,620,256],0,1,1,299,1,0,0,0,0,0,0,'1',1,0,
    "78","",[
    0,8,3,0,'8','3','0'],[0,8,3,0,'8','3','0'],[
]).
polygon('skyblue','',4,[
	508,236,522,255,534,236,508,236],0,1,1,0,305,0,0,0,0,0,'1',1,
    "0",[
]).
poly('skyblue','',2,[
	516,261,527,261],0,1,1,309,0,0,0,0,0,0,0,'1',1,0,
    "0","",[
    0,8,3,0,'8','3','0'],[0,8,3,0,'8','3','0'],[
]).
poly('skyblue','',2,[
	519,264,524,264],0,1,1,310,0,0,0,0,0,0,0,'1',1,0,
    "0","",[
    0,8,3,0,'8','3','0'],[0,8,3,0,'8','3','0'],[
]).
poly('black','',2,[
	254,195,254,256],3,1,1,316,0,0,0,0,0,0,0,'1',1,0,
    "0","",[
    0,8,3,0,'8','3','0'],[0,8,3,0,'8','3','0'],[
]).
text('black',261,220,1,0,1,10,22,319,18,4,0,2,0,0,2,10,22,0,0,"",0,0,0,1,238,'',[
minilines(10,22,0,0,0,2,0,[
mini_line(10,18,4,0,0,0,[
str_block(0,10,18,4,0,-1,0,0,0,[
str_seg('black','Helvetica',0,103680,10,18,4,0,-1,0,0,0,0,0,
	"h")])
])
])]).
icon([
polygon('#0000ff','',5,[
	456,226,460,226,460,222,456,222,456,226],0,1,0,0,1173,0,0,0,0,0,'1',0,
    "00",[
]),
xbm('black','',456,222,474,239,0,1213,0,18,17,0,0,1,297000,682000,315000,699000,0,0,1,0,0,0,0,
    "Tue May 20 17:12:06 2008","/tmp/TgifGaJ5ix.eps",290,[
    "%!PS-Adobe-2.0 EPSF-1.2",
    "%!PS (but not EPSF; comments have been disabled)",
    "%DVIPSWebPage: (www.radicaleye.com)",
    "%DVIPSCommandLine: dvips -N -n 1 -o /tmp/TgifGaJ5ix.ps /tmp/TgifGaJ5ix",
    "%DVIPSParameters: dpi=600, compressed",
    "%DVIPSSource:  TeX output 2008.05.20:1712",
    "%!",
    "/TeXDict 300 dict def TeXDict begin/N{def}def/B{bind def}N/S{exch}N/X{S",
    "N}B/A{dup}B/TR{translate}N/isls false N/vsize 11 72 mul N/hsize 8.5 72",
    "mul N/landplus90{false}def/@rigin{isls{[0 landplus90{1 -1}{-1 1}ifelse 0",
    "0 0]concat}if 72 Resolution div 72 VResolution div neg scale isls{",
    "landplus90{VResolution 72 div vsize mul 0 exch}{Resolution -72 div hsize",
    "mul 0}ifelse TR}if Resolution VResolution vsize -72 div 1 add mul TR[",
    "matrix currentmatrix{A A round sub abs 0.00001 lt{round}if}forall round",
    "exch round exch]setmatrix}N/@landscape{/isls true N}B/@manualfeed{",
    "statusdict/manualfeed true put}B/@copies{/#copies X}B/FMat[1 0 0 -1 0 0]",
    "N/FBB[0 0 0 0]N/nn 0 N/IEn 0 N/ctr 0 N/df-tail{/nn 8 dict N nn begin",
    "/FontType 3 N/FontMatrix fntrx N/FontBBox FBB N string/base X array",
    "/BitMaps X/BuildChar{CharBuilder}N/Encoding IEn N end A{/foo setfont}2",
    "array copy cvx N load 0 nn put/ctr 0 N[}B/sf 0 N/df{/sf 1 N/fntrx FMat N",
    "df-tail}B/dfs{div/sf X/fntrx[sf 0 0 sf neg 0 0]N df-tail}B/E{pop nn A",
    "definefont setfont}B/Cw{Cd A length 5 sub get}B/Ch{Cd A length 4 sub get",
    "}B/Cx{128 Cd A length 3 sub get sub}B/Cy{Cd A length 2 sub get 127 sub}",
    "B/Cdx{Cd A length 1 sub get}B/Ci{Cd A type/stringtype ne{ctr get/ctr ctr",
    "1 add N}if}B/id 0 N/rw 0 N/rc 0 N/gp 0 N/cp 0 N/G 0 N/CharBuilder{save 3",
    "1 roll S A/base get 2 index get S/BitMaps get S get/Cd X pop/ctr 0 N Cdx",
    "0 Cx Cy Ch sub Cx Cw add Cy setcachedevice Cw Ch true[1 0 0 -1 -.1 Cx",
    "sub Cy .1 sub]/id Ci N/rw Cw 7 add 8 idiv string N/rc 0 N/gp 0 N/cp 0 N{",
    "rc 0 ne{rc 1 sub/rc X rw}{G}ifelse}imagemask restore}B/G{{id gp get/gp",
    "gp 1 add N A 18 mod S 18 idiv pl S get exec}loop}B/adv{cp add/cp X}B",
    "/chg{rw cp id gp 4 index getinterval putinterval A gp add/gp X adv}B/nd{",
    "/cp 0 N rw exit}B/lsh{rw cp 2 copy get A 0 eq{pop 1}{A 255 eq{pop 254}{",
    "A A add 255 and S 1 and or}ifelse}ifelse put 1 adv}B/rsh{rw cp 2 copy",
    "get A 0 eq{pop 128}{A 255 eq{pop 127}{A 2 idiv S 128 and or}ifelse}",
    "ifelse put 1 adv}B/clr{rw cp 2 index string putinterval adv}B/set{rw cp",
    "fillstr 0 4 index getinterval putinterval adv}B/fillstr 18 string 0 1 17",
    "{2 copy 255 put pop}for N/pl[{adv 1 chg}{adv 1 chg nd}{1 add chg}{1 add",
    "chg nd}{adv lsh}{adv lsh nd}{adv rsh}{adv rsh nd}{1 add adv}{/rc X nd}{",
    "1 add set}{1 add clr}{adv 2 chg}{adv 2 chg nd}{pop nd}]A{bind pop}",
    "forall N/D{/cc X A type/stringtype ne{]}if nn/base get cc ctr put nn",
    "/BitMaps get S ctr S sf 1 ne{A A length 1 sub A 2 index S get sf div put",
    "}if put/ctr ctr 1 add N}B/I{cc 1 add D}B/bop{userdict/bop-hook known{",
    "bop-hook}if/SI save N @rigin 0 0 moveto/V matrix currentmatrix A 1 get A",
    "mul exch 0 get A mul add .99 lt{/QV}{/RV}ifelse load def pop pop}N/eop{",
    "SI restore userdict/eop-hook known{eop-hook}if showpage}N/@start{",
    "userdict/start-hook known{start-hook}if pop/VResolution X/Resolution X",
    "1000 div/DVImag X/IEn 256 array N 2 string 0 1 255{IEn S A 360 add 36 4",
    "index cvrs cvn put}for pop 65781.76 div/vsize X 65781.76 div/hsize X}N",
    "/p{show}N/RMat[1 0 0 -1 0 0]N/BDot 260 string N/Rx 0 N/Ry 0 N/V{}B/RV/v{",
    "/Ry X/Rx X V}B statusdict begin/product where{pop false[(Display)(NeXT)",
    "(LaserWriter 16/600)]{A length product length le{A length product exch 0",
    "exch getinterval eq{pop true exit}if}{pop}ifelse}forall}{false}ifelse",
    "end{{gsave TR -.1 .1 TR 1 1 scale Rx Ry false RMat{BDot}imagemask",
    "grestore}}{{gsave TR -.1 .1 TR Rx Ry scale 1 1 false RMat{BDot}",
    "imagemask grestore}}ifelse B/QV{gsave newpath transform round exch round",
    "exch itransform moveto Rx 0 rlineto 0 Ry neg rlineto Rx neg 0 rlineto",
    "fill grestore}B/a{moveto}B/delta 0 N/tail{A/delta X 0 rmoveto}B/M{S p",
    "delta add tail}B/b{S p tail}B/c{-4 M}B/d{-3 M}B/e{-2 M}B/f{-1 M}B/g{0 M}",
    "B/h{1 M}B/i{2 M}B/j{3 M}B/k{4 M}B/w{0 rmoveto}B/l{p -4 w}B/m{p -3 w}B/n{",
    "p -2 w}B/o{p -1 w}B/q{p 1 w}B/r{p 2 w}B/s{p 3 w}B/t{p 4 w}B/x{0 S",
    "rmoveto}B/y{3 2 roll p a}B/bos{/SS save N}B/eos{SS restore}B end",
    "% Thomas Esser, Dec 2002. public domain",
    "%",
    "% Encoding for:",
    "%     cmmi10 cmmi12 cmmi5 cmmi6 cmmi7 cmmi8 cmmi9 cmmib10",
    "%",
    "/TeXaae443f0Encoding [",
    "/Gamma /Delta /Theta /Lambda /Xi /Pi /Sigma /Upsilon /Phi /Psi /Omega",
    "/alpha /beta /gamma /delta /epsilon1 /zeta /eta /theta /iota /kappa",
    "/lambda /mu /nu /xi /pi /rho /sigma /tau /upsilon /phi /chi /psi",
    "/omega /epsilon /theta1 /pi1 /rho1 /sigma1 /phi1 /arrowlefttophalf",
    "/arrowleftbothalf /arrowrighttophalf /arrowrightbothalf /arrowhookleft",
    "/arrowhookright /triangleright /triangleleft /zerooldstyle /oneoldstyle",
    "/twooldstyle /threeoldstyle /fouroldstyle /fiveoldstyle /sixoldstyle",
    "/sevenoldstyle /eightoldstyle /nineoldstyle /period /comma /less /slash",
    "/greater /star /partialdiff /A /B /C /D /E /F /G /H /I /J /K /L /M /N",
    "/O /P /Q /R /S /T /U /V /W /X /Y /Z /flat /natural /sharp /slurbelow",
    "/slurabove /lscript /a /b /c /d /e /f /g /h /i /j /k /l /m /n /o /p",
    "/q /r /s /t /u /v /w /x /y /z /dotlessi /dotlessj /weierstrass /vector",
    "/tie /psi /.notdef /.notdef /.notdef /.notdef /.notdef /.notdef /.notdef",
    "/.notdef /.notdef /.notdef /.notdef /.notdef /.notdef /.notdef /.notdef",
    "/.notdef /.notdef /.notdef /.notdef /.notdef /.notdef /.notdef /.notdef",
    "/.notdef /.notdef /.notdef /.notdef /.notdef /.notdef /.notdef /.notdef",
    "/space /Gamma /Delta /Theta /Lambda /Xi /Pi /Sigma /Upsilon /Phi /Psi",
    "/.notdef /.notdef /Omega /alpha /beta /gamma /delta /epsilon1 /zeta /eta",
    "/theta /iota /kappa /lambda /mu /nu /xi /pi /rho /sigma /tau /upsilon",
    "/phi /chi /psi /tie /.notdef /.notdef /.notdef /.notdef /.notdef /.notdef",
    "/.notdef /.notdef /.notdef /.notdef /.notdef /.notdef /.notdef /.notdef",
    "/.notdef /.notdef /.notdef /.notdef /.notdef /.notdef /.notdef /.notdef",
    "/.notdef /.notdef /.notdef /.notdef /.notdef /.notdef /.notdef /.notdef",
    "/.notdef /.notdef /.notdef /.notdef /.notdef /.notdef /.notdef /.notdef",
    "/.notdef /.notdef /.notdef /.notdef /.notdef /.notdef /.notdef /.notdef",
    "/.notdef /.notdef /.notdef /.notdef /.notdef /.notdef /.notdef /.notdef",
    "/.notdef /.notdef /.notdef /.notdef /.notdef",
    "] def",
    "% Thomas Esser, Dec 2002. public domain",
    "%",
    "% Encoding for:",
    "%     cmb10 cmbx10 cmbx12 cmbx5 cmbx6 cmbx7 cmbx8 cmbx9 cmbxsl10",
    "%     cmdunh10 cmr10 cmr12 cmr17cmr6 cmr7 cmr8 cmr9 cmsl10 cmsl12 cmsl8",
    "%     cmsl9 cmss10cmss12 cmss17 cmss8 cmss9 cmssbx10 cmssdc10 cmssi10",
    "%     cmssi12 cmssi17 cmssi8cmssi9 cmssq8 cmssqi8 cmvtt10",
    "%",
    "/TeXf7b6d320Encoding [",
    "/Gamma /Delta /Theta /Lambda /Xi /Pi /Sigma /Upsilon /Phi /Psi /Omega",
    "/ff /fi /fl /ffi /ffl /dotlessi /dotlessj /grave /acute /caron /breve",
    "/macron /ring /cedilla /germandbls /ae /oe /oslash /AE /OE /Oslash",
    "/suppress /exclam /quotedblright /numbersign /dollar /percent /ampersand",
    "/quoteright /parenleft /parenright /asterisk /plus /comma /hyphen",
    "/period /slash /zero /one /two /three /four /five /six /seven /eight",
    "/nine /colon /semicolon /exclamdown /equal /questiondown /question /at",
    "/A /B /C /D /E /F /G /H /I /J /K /L /M /N /O /P /Q /R /S /T /U /V /W /X",
    "/Y /Z /bracketleft /quotedblleft /bracketright /circumflex /dotaccent",
    "/quoteleft /a /b /c /d /e /f /g /h /i /j /k /l /m /n /o /p /q /r /s /t /u",
    "/v /w /x /y /z /endash /emdash /hungarumlaut /tilde /dieresis /suppress",
    "/.notdef /.notdef /.notdef /.notdef /.notdef /.notdef /.notdef /.notdef",
    "/.notdef /.notdef /.notdef /.notdef /.notdef /.notdef /.notdef /.notdef",
    "/.notdef /.notdef /.notdef /.notdef /.notdef /.notdef /.notdef /.notdef",
    "/.notdef /.notdef /.notdef /.notdef /.notdef /.notdef /.notdef /space",
    "/Gamma /Delta /Theta /Lambda /Xi /Pi /Sigma /Upsilon /Phi /Psi /.notdef",
    "/.notdef /Omega /ff /fi /fl /ffi /ffl /dotlessi /dotlessj /grave /acute",
    "/caron /breve /macron /ring /cedilla /germandbls /ae /oe /oslash /AE",
    "/OE /Oslash /suppress /dieresis /.notdef /.notdef /.notdef /.notdef",
    "/.notdef /.notdef /.notdef /.notdef /.notdef /.notdef /.notdef /.notdef",
    "/.notdef /.notdef /.notdef /.notdef /.notdef /.notdef /.notdef /.notdef",
    "/.notdef /.notdef /.notdef /.notdef /.notdef /.notdef /.notdef /.notdef",
    "/.notdef /.notdef /.notdef /.notdef /.notdef /.notdef /.notdef /.notdef",
    "/.notdef /.notdef /.notdef /.notdef /.notdef /.notdef /.notdef /.notdef",
    "/.notdef /.notdef /.notdef /.notdef /.notdef /.notdef /.notdef /.notdef",
    "/.notdef /.notdef /.notdef /.notdef /.notdef /.notdef /.notdef",
    "] def",
    "%!",
    "TeXDict begin/rf{findfont dup length 1 add dict begin{1 index/FID ne 2",
    "index/UniqueID ne and{def}{pop pop}ifelse}forall[1 index 0 6 -1 roll",
    "exec 0 exch 5 -1 roll VResolution Resolution div mul neg 0 0]FontType 0",
    "ne{/Metrics exch def dict begin Encoding{exch dup type/integertype ne{",
    "pop pop 1 sub dup 0 le{pop}{[}ifelse}{FontMatrix 0 get div Metrics 0 get",
    "div def}ifelse}forall Metrics/Metrics currentdict end def}{{1 index type",
    "/nametype eq{exit}if exch pop}loop}ifelse[2 index currentdict end",
    "definefont 3 -1 roll makefont/setfont cvx]cvx def}def/ObliqueSlant{dup",
    "sin S cos div neg}B/SlantFont{4 index mul add}def/ExtendFont{3 -1 roll",
    "mul exch}def/ReEncodeFont{CharStrings rcheck{/Encoding false def dup[",
    "exch{dup CharStrings exch known not{pop/.notdef/Encoding true def}if}",
    "forall Encoding{]exch pop}{cleartomark}ifelse}if/Encoding exch def}def",
    "end",
    "%!PS-AdobeFont-1.1: CMR12 1.0",
    "% Copyright (C) 1997 American Mathematical Society. All Rights Reserved.",
    "11 dict begin",
    "/FontInfo 7 dict dup begin",
    "/version (1.0) readonly def",
    "/Notice (Copyright (C) 1997 American Mathematical Society. All Rights Reserved) readonly def",
    "/FullName (CMR12) readonly def",
    "/FamilyName (Computer Modern) readonly def",
    "/Weight (Medium) readonly def",
    "/ItalicAngle 0 def",
    "/isFixedPitch false def",
    "end readonly def",
    "/FontName /CMR12 def",
    "/PaintType 0 def",
    "/FontType 1 def",
    "/FontMatrix [0.001 0 0 0.001 0 0] readonly def",
    "/Encoding 256 array",
    "0 1 255 {1 index exch /.notdef put} for",
    "dup 0 /.notdef put",
    "readonly def",
    "/FontBBox{-34 -251 988 750}readonly def",
    "/UniqueID 5000794 def",
    "currentdict end",
    "currentfile eexec",
    "D9D66F633B846A97B686A97E45A3D0AA052A014267B7904EB3C0D3BD0B83D891",
    "016CA6CA4B712ADEB258FAAB9A130EE605E61F77FC1B738ABC7C51CD46EF8171",
    "9098D5FEE67660E69A7AB91B58F29A4D79E57022F783EB0FBBB6D4F4EC35014F",
    "D2DECBA99459A4C59DF0C6EBA150284454E707DC2100C15B76B4C19B84363758",
    "469A6C558785B226332152109871A9883487DD7710949204DDCF837E6A8708B8",
    "2BDBF16FBC7512FAA308A093FE5CF4E9D2405B169CD5365D6ECED5D768D66D6C",
    "68618B8C482B341F8CA38E9BB9BAFCFAAD9C2F3FD033B62690986ED43D9C9361",
    "3645B82392D5CAE11A7CB49D7E2E82DCD485CBA04C77322EB2E6A79D73DC194E",
    "59C120A2DABB9BF72E2CF256DD6EB54EECBA588101ABD933B57CE8A3A0D16B28",
    "51D7494F73096DF53BDC66BBF896B587DF9643317D5F610CD9088F9849126F23",
    "DDE030F7B277DD99055C8B119CAE9C99158AC4E150CDFC2C66ED92EBB4CC092A",
    "AA078CE16247A1335AD332DAA950D20395A7384C33FF72EAA31A5B89766E635F",
    "45C4C068AD7EE867398F0381B07CB94D29FF097D59FF9961D195A948E3D87C31",
    "821E9295A56D21875B41988F7A16A1587050C3C71B4E4355BB37F255D6B237CE",
    "96F25467F70FA19E0F85785FF49068949CCC79F2F8AE57D5F79BB9C5CF5EED5D",
    "9857B9967D9B96CDCF73D5D65FF75AFABB66734018BAE264597220C89FD17379",
    "26764A9302D078B4EB0E29178C878FD61007EEA2DDB119AE88C57ECFEF4B71E4",
    "140A34951DDC3568A84CC92371A789021A103A1A347050FDA6ECF7903F67D213",
    "1D0C7C474A9053866E9C88E65E6932BA87A73686EAB0019389F84D159809C498",
    "1E7A30ED942EB211B00DBFF5BCC720F4E276C3339B31B6EABBB078430E6A09BB",
    "377D3061A20B1EB98796B8607EECBC699445EAA866C38E02DF59F5EDD378303A",
    "0733B90E7835C0AAF32BA04F1566D8161EA89CD4D14DDB953F8B910BFC8A7F03",
    "5020F55EF8FC2640ADADA156F6CF8F2EB6610F7EE8874A26CBE7CD154469B9F4",
    "ED76886B3FB679FFDEB59BB6C55AF7087BA48B75EE2FB374B19BCC421A963E15",
    "FE05ECAAF9EECDF4B2715010A320102E6F8CCAA342FA11532671CD9B29E43E50",
    "0DDD39AA60A89537A4286846C601023F3A458AA3554EA68CB90FEFC2A539A8ED",
    "3189F9DC889F27CF64CDAE52D759A0B95C91C702EF94C23E44D25C55B553BDC3",
    "47BDA7D3CAE1518A9814087FB51C30771BC8E1AD683B0670CE74EEAFC64911A5",
    "93B7EEAB74E70DD59FDB009E2C9513B2B4AFEFD8AA846C1FE623827FEA96C0F8",
    "EEF58E11CF09BC7D26EA04E122A3B62C4BCE51ABA19A81B0CEE2A0B51EF79128",
    "A36E36CA6988BF59FD496B3133A3652337E7FB093D3AD5264DB2BCE87795CCB7",
    "AF236439589927173B3134EC5E015F91ED1BFEA8AD6619C55A8BD1291175B697",
    "886FBD042C5315428164398C2BEAEE17D9C6C08C6ABEA2740B57841BD727624D",
    "A41773C2B8FB94A46A16D0CCEF1D9F2A8658564E836D3D811B1DD9E07CF46E67",
    "B571526AE391116C92810AC59B455D9F00DC94252E36BED4E5DD0EFD",
    "0000000000000000000000000000000000000000000000000000000000000000",
    "0000000000000000000000000000000000000000000000000000000000000000",
    "0000000000000000000000000000000000000000000000000000000000000000",
    "0000000000000000000000000000000000000000000000000000000000000000",
    "0000000000000000000000000000000000000000000000000000000000000000",
    "0000000000000000000000000000000000000000000000000000000000000000",
    "0000000000000000000000000000000000000000000000000000000000000000",
    "0000000000000000000000000000000000000000000000000000000000000000",
    "cleartomark",
    "%!PS-AdobeFont-1.1: CMMI12 1.100",
    "% Copyright (C) 1997 American Mathematical Society. All Rights Reserved.",
    "11 dict begin",
    "/FontInfo 7 dict dup begin",
    "/version (1.100) readonly def",
    "/Notice (Copyright (C) 1997 American Mathematical Society. All Rights Reserved) readonly def",
    "/FullName (CMMI12) readonly def",
    "/FamilyName (Computer Modern) readonly def",
    "/Weight (Medium) readonly def",
    "/ItalicAngle -14.04 def",
    "/isFixedPitch false def",
    "end readonly def",
    "/FontName /CMMI12 def",
    "/PaintType 0 def",
    "/FontType 1 def",
    "/FontMatrix [0.001 0 0 0.001 0 0] readonly def",
    "/Encoding 256 array",
    "0 1 255 {1 index exch /.notdef put} for",
    "dup 0 /.notdef put",
    "readonly def",
    "/FontBBox{-30 -250 1026 750}readonly def",
    "/UniqueID 5087386 def",
    "currentdict end",
    "currentfile eexec",
    "D9D66F633B846A97B686A97E45A3D0AA0529731C99A784CCBE85B4993B2EEBDE",
    "3B12D472B7CF54651EF21185116A69AB1096ED4BAD2F646635E019B6417CC77B",
    "532F85D811C70D1429A19A5307EF63EB5C5E02C89FC6C20F6D9D89E7D91FE470",
    "B72BEFDA23F5DF76BE05AF4CE93137A219ED8A04A9D7D6FDF37E6B7FCDE0D90B",
    "986423E5960A5D9FBB4C956556E8DF90CBFAEC476FA36FD9A5C8175C9AF513FE",
    "D919C2DDD26BDC0D99398B9F4D03D6A8F05B47AF95EF28A9C561DBDC98C47CF5",
    "5250011D19E9366EB6FD153D3A100CAA6212E3D5D93990737F8D326D347B7EDC",
    "4391C9DF440285B8FC159D0E98D4258FC57892DCC57F7903449E07914FBE9E67",
    "3C15C2153C061EB541F66C11E7EE77D5D77C0B11E1AC55101DA976CCACAB6993",
    "EED1406FBB7FF30EAC9E90B90B2AF4EC7C273CA32F11A5C1426FF641B4A2FB2F",
    "4E68635C93DB835737567FAF8471CBC05078DCD4E40E25A2F4E5AF46C234CF59",
    "2A1CE8F39E1BA1B2A594355637E474167EAD4D97D51AF0A899B44387E1FD933A",
    "323AFDA6BA740534A510B4705C0A15647AFBF3E53A82BF320DD96753639BE49C",
    "2F79A1988863EF977B800C9DB5B42039C23EB86953713F730E03EA22FF7BB2C1",
    "D97D33FD77B1BDCC2A60B12CF7805CFC90C5B914C0F30A673DF9587F93E47CEA",
    "5932DD1930560C4F0D97547BCD805D6D854455B13A4D7382A22F562D7C55041F",
    "0FD294BDAA1834820F894265A667E5C97D95FF152531EF97258F56374502865D",
    "A1E7C0C5FB7C6FB7D3C43FEB3431095A59FBF6F61CEC6D6DEE09F4EB0FD70D77",
    "2A8B0A4984C6120293F6B947944BE23259F6EB64303D627353163B6505FC8A60",
    "00681F7A3968B6CBB49E0420A691258F5E7B07B417157803FCBE9B9FB1F80FD8",
    "CA0DA1186446DD565542BCCC7D339A1EB34C7F49246E8D72E987EB477C6DB757",
    "99AF86CEBCD7605C487A00CD2CD093098182DC57B20D78ECE0BECF3A0BF88EBA",
    "C866DB19F34BBBED6634AFC0F08D2AFB2A92578A6F8B4ADCD6594737FF6EED7D",
    "5B536DA9E3E2CADB40DB7C600EA4D100D33C3B92B1CF857E012C4EB370BA8295",
    "55B50047CC8911C98FE1A7BA6CDEA82D34476286E710571F16D10F018C74B387",
    "B5E1A596D45EDED31BD26E7ACDEFE171498987688B8CBBE07DFF07E1DB43384C",
    "A3F325DE9829B118F1629D51EC9BBF82CD78D3AE38D7011F6CDFF9FB98BD188B",
    "E307821BE31250D83AD87A8ED8E13ED38A42728F408C0025FA55DBEA1D840EE1",
    "44687DF840C67F5B5A9C74FF638A891C8D7AC6B6C8566C9DC9025EA522258FA6",
    "F520C3E95696018F864966FD57C262C59BF43991E87C37AB895548CAD529A17B",
    "2F0941F25CF3E9C0F6CBCE6DE992861C021D91C131FC4888A9EC4E5329B9298B",
    "7883A6FE70C1FD29DC993B6E4CF79B1BBEDB38D6794C545E8D4F32E78764B36A",
    "E45E2DB298ADE78DD1661D73BBC892EEB03D3417A339F4DB9D20F260885EE5D6",
    "900CCD091152DD0DDAB60EC66CEAB06E4CF987F90C1D4E74BF853A04C2B74601",
    "E743F52F0F29D2D05FFA0B6BACC64468CF62C0A2",
    "0000000000000000000000000000000000000000000000000000000000000000",
    "0000000000000000000000000000000000000000000000000000000000000000",
    "0000000000000000000000000000000000000000000000000000000000000000",
    "0000000000000000000000000000000000000000000000000000000000000000",
    "0000000000000000000000000000000000000000000000000000000000000000",
    "0000000000000000000000000000000000000000000000000000000000000000",
    "0000000000000000000000000000000000000000000000000000000000000000",
    "0000000000000000000000000000000000000000000000000000000000000000",
    "cleartomark",
    "TeXDict begin 39158280 55380996 1000 600 600 (/tmp/TgifGaJ5ix.dvi)",
    "@start /Fa 207[59 48[{ TeXf7b6d320Encoding ReEncodeFont }1",
    "119.552 /CMR12 rf /Fb 175[109 80[{ TeXaae443f0Encoding ReEncodeFont }1",
    "172.188 /CMMI12 rf end",
    "TeXDict begin",
    " end",
    "TeXDict begin 1 0 bop 1864 714 a Fb(P)1973 740 y Fa(0)p",
    "eop end",
    "userdict /end-hook known{end-hook}if"],
    "1ff80060c0040400c0400c0c00c0800c3001fe381804c1804418044300443004
     4fc044000440004400038",[
])
],
"eq4",1172,0,0,0,0,[
attr("footer=", "", 0, 1, 1,
text('#ff00ff',456,73,3,0,1,126,48,1181,13,3,0,0,0,0,2,126,48,0,0,"",0,0,0,0,86,'',[
minilines(126,48,0,0,0,0,0,[
mini_line(63,13,3,0,0,0,[
str_block(0,63,13,3,0,-1,0,0,0,[
str_seg('#0000ff','Courier',0,80640,63,13,3,0,-1,0,0,0,0,0,
	"footer=")])
]),
mini_line(9,13,3,0,0,0,[
str_block(0,9,13,3,0,-1,0,0,0,[
str_seg('#0000ff','Courier',0,80640,9,13,3,0,-1,0,0,0,0,0,
	"%")])
]),
mini_line(126,13,3,0,0,0,[
str_block(0,126,13,3,0,-4,0,0,0,[
str_seg('#0000ff','Courier',0,80640,126,13,3,0,-4,0,0,0,0,0,
	"\\end{document}")])
])
])])),
attr("header=", "", 0, 1, 1,
text('#ff00ff',632,73,11,0,1,270,176,1180,13,3,0,0,0,0,2,270,176,0,0,"",0,0,0,0,86,'',[
minilines(270,176,0,0,0,0,0,[
mini_line(63,13,3,0,0,0,[
str_block(0,63,13,3,0,-1,0,0,0,[
str_seg('#0000ff','Courier',0,80640,63,13,3,0,-1,0,0,0,0,0,
	"header=")])
]),
mini_line(261,13,3,0,0,0,[
str_block(0,261,13,3,0,-4,0,0,0,[
str_seg('#0000ff','Courier',0,80640,261,13,3,0,-4,0,0,0,0,0,
	"\\documentstyle[12pt]{article}")])
]),
mini_line(162,13,3,0,0,0,[
str_block(0,162,13,3,0,-1,0,0,0,[
str_seg('#0000ff','Courier',0,80640,162,13,3,0,-1,0,0,0,0,0,
	"\\oddsidemargin=0in")])
]),
mini_line(144,13,3,0,0,0,[
str_block(0,144,13,3,0,-1,0,0,0,[
str_seg('#0000ff','Courier',0,80640,144,13,3,0,-1,0,0,0,0,0,
	"\\textwidth=6.5in")])
]),
mini_line(126,13,3,0,0,0,[
str_block(0,126,13,3,0,-1,0,0,0,[
str_seg('#0000ff','Courier',0,80640,126,13,3,0,-1,0,0,0,0,0,
	"\\topmargin=0in")])
]),
mini_line(153,13,3,0,0,0,[
str_block(0,153,13,3,0,-2,0,0,0,[
str_seg('#0000ff','Courier',0,80640,153,13,3,0,-2,0,0,0,0,0,
	"\\textheight=609pt")])
]),
mini_line(117,13,3,0,0,0,[
str_block(0,117,13,3,0,-2,0,0,0,[
str_seg('#0000ff','Courier',0,80640,117,13,3,0,-2,0,0,0,0,0,
	"\\parskip=14pt")])
]),
mini_line(270,13,3,0,0,0,[
str_block(0,270,13,3,0,-4,0,0,0,[
str_seg('#0000ff','Courier',0,80640,270,13,3,0,-4,0,0,0,0,0,
	"\\setlength{\\unitlength}{0.5cm}")])
]),
mini_line(153,13,3,0,0,0,[
str_block(0,153,13,3,0,-4,0,0,0,[
str_seg('#0000ff','Courier',0,80640,153,13,3,0,-4,0,0,0,0,0,
	"\\pagestyle{empty}")])
]),
mini_line(144,13,3,0,0,0,[
str_block(0,144,13,3,0,-4,0,0,0,[
str_seg('#0000ff','Courier',0,80640,144,13,3,0,-4,0,0,0,0,0,
	"\\begin{document}")])
]),
mini_line(9,13,3,0,0,0,[
str_block(0,9,13,3,0,-1,0,0,0,[
str_seg('#0000ff','Courier',0,80640,9,13,3,0,-1,0,0,0,0,0,
	"%")])
])
])])),
attr("exec=", "", 0, 1, 1,
text('blue',456,-178,9,0,1,477,144,1179,13,3,0,0,0,0,2,477,144,0,0,"",0,0,0,0,-165,'',[
minilines(477,144,0,0,0,0,0,[
mini_line(45,13,3,0,0,0,[
str_block(0,45,13,3,0,-1,0,0,0,[
str_seg('blue','Courier',0,80640,45,13,3,0,-1,0,0,0,0,0,
	"exec=")])
]),
mini_line(378,13,3,0,0,0,[
str_block(0,378,13,3,0,-4,0,0,0,[
str_seg('blue','Courier',0,80640,378,13,3,0,-4,0,0,0,0,0,
	"    mktemp(\"/tmp/TgifXXXXXX\",\"file_name\");")])
]),
mini_line(468,13,3,0,0,0,[
str_block(0,468,13,3,0,-4,0,0,0,[
str_seg('blue','Courier',0,80640,468,13,3,0,-4,0,0,0,0,0,
	"    write_attr_into_file(header,\"$(file_name).tex\");")])
]),
mini_line(441,13,3,0,0,0,[
str_block(0,441,13,3,0,-4,0,0,0,[
str_seg('blue','Courier',0,80640,441,13,3,0,-4,0,0,0,0,0,
	"    append_attr_into_file(eq,\"$(file_name).tex\");")])
]),
mini_line(477,13,3,0,0,0,[
str_block(0,477,13,3,0,-4,0,0,0,[
str_seg('blue','Courier',0,80640,477,13,3,0,-4,0,0,0,0,0,
	"    append_attr_into_file(footer,\"$(file_name).tex\");")])
]),
mini_line(162,13,3,0,0,0,[
str_block(0,162,13,3,0,-4,0,0,0,[
str_seg('blue','Courier',0,80640,162,13,3,0,-4,0,0,0,0,0,
	"    launch(\"cmd\");")])
]),
mini_line(477,13,3,0,0,0,[
str_block(0,477,13,3,0,-4,0,0,0,[
str_seg('blue','Courier',0,80640,477,13,3,0,-4,0,0,0,0,0,
	"    pstoepsi(\"$(file_name).eps\",\"$(file_name).ps\",1);")])
]),
mini_line(369,13,3,0,0,0,[
str_block(0,369,13,3,0,-4,0,0,0,[
str_seg('blue','Courier',0,80640,369,13,3,0,-4,0,0,0,0,0,
	"    update_eps_child(\"$(file_name).eps\");")])
]),
mini_line(189,13,3,0,0,0,[
str_block(0,189,13,3,0,-4,0,0,0,[
str_seg('blue','Courier',0,80640,189,13,3,0,-4,0,0,0,0,0,
	"    launch(\"cleanup\")")])
])
])])),
attr("cmd=", "", 0, 1, 1,
text('blue',456,-58,4,0,1,702,64,1178,13,3,0,0,0,0,2,702,64,0,0,"",0,0,0,0,-45,'',[
minilines(702,64,0,0,0,0,0,[
mini_line(36,13,3,0,0,0,[
str_block(0,36,13,3,0,-1,0,0,0,[
str_seg('blue','Courier',0,80640,36,13,3,0,-1,0,0,0,0,0,
	"cmd=")])
]),
mini_line(108,13,3,0,0,0,[
str_block(0,108,13,3,0,-4,0,0,0,[
str_seg('blue','Courier',0,80640,108,13,3,0,-4,0,0,0,0,0,
	"    cd /tmp;")])
]),
mini_line(459,13,3,0,0,0,[
str_block(0,459,13,3,0,-4,0,0,0,[
str_seg('blue','Courier',0,80640,459,13,3,0,-4,0,0,0,0,0,
	"    xterm -geom 40x8+200+400 -e latex $(file_name);")])
]),
mini_line(702,13,3,0,0,0,[
str_block(0,702,13,3,0,-4,0,0,0,[
str_seg('blue','Courier',0,80640,702,13,3,0,-4,0,0,0,0,0,
	"    xterm -geom 40x8+200+400 -e dvips -N -n 1 -o $(file_name).ps $(file_name);")])
])
])])),
attr("cleanup=", "", 0, 1, 1,
text('blue',456,22,3,0,1,540,48,1177,13,3,0,0,0,0,2,540,48,0,0,"",0,0,0,0,35,'',[
minilines(540,48,0,0,0,0,0,[
mini_line(72,13,3,0,0,0,[
str_block(0,72,13,3,0,-1,0,0,0,[
str_seg('blue','Courier',0,80640,72,13,3,0,-1,0,0,0,0,0,
	"cleanup=")])
]),
mini_line(540,13,3,0,0,0,[
str_block(0,540,13,3,0,-2,0,0,0,[
str_seg('blue','Courier',0,80640,540,13,3,0,-2,0,0,0,0,0,
	"    rm -f $(file_name).tex $(file_name).aux $(file_name).dvi")])
]),
mini_line(513,13,3,0,0,0,[
str_block(0,513,13,3,0,-2,0,0,0,[
str_seg('blue','Courier',0,80640,513,13,3,0,-2,0,0,0,0,0,
	"        $(file_name).log $(file_name).ps $(file_name).eps")])
])
])])),
attr("file_name=", "/tmp/TgifGaJ5ix", 0, 1, 1,
text('blue',456,126,1,0,1,225,16,1176,13,3,0,0,0,0,2,225,16,0,0,"",0,0,0,0,139,'',[
minilines(225,16,0,0,0,0,0,[
mini_line(225,13,3,0,0,0,[
str_block(0,225,13,3,0,-1,0,0,0,[
str_seg('blue','Courier',0,80640,225,13,3,0,-1,0,0,0,0,0,
	"file_name=/tmp/TgifGaJ5ix")])
])
])])),
attr("eq=", "", 0, 1, 1,
text('blue',456,142,5,0,1,54,80,1192,13,3,0,0,0,0,2,54,80,0,0,"",0,0,0,0,155,'',[
minilines(54,80,0,0,0,0,0,[
mini_line(27,13,3,0,0,0,[
str_block(0,27,13,3,0,-1,0,0,0,[
str_seg('blue','Courier',0,80640,27,13,3,0,-1,0,0,0,0,0,
	"eq=")])
]),
mini_line(54,13,3,0,0,0,[
str_block(0,54,13,3,0,-1,0,0,0,[
str_seg('blue','Courier',0,80640,54,13,3,0,-1,0,0,0,0,0,
	"\\LARGE")])
]),
mini_line(18,13,3,0,0,0,[
str_block(0,18,13,3,0,-3,0,0,0,[
str_seg('blue','Courier',0,80640,18,13,3,0,-3,0,0,0,0,0,
	"\\[")])
]),
mini_line(54,13,3,0,0,0,[
str_block(0,54,13,3,0,-2,0,0,0,[
str_seg('blue','Courier',0,80640,54,13,3,0,-2,0,0,0,0,0,
	"   P_0")])
]),
mini_line(18,13,3,0,0,0,[
str_block(0,18,13,3,0,-4,0,0,0,[
str_seg('blue','Courier',0,80640,18,13,3,0,-4,0,0,0,0,0,
	"\\]")])
])
])])),
attr("", "not_rigid", 0, 1, 1,
text('blue',456,246,1,0,1,81,16,1174,13,3,0,0,0,0,2,81,16,0,0,"",0,0,0,0,259,'',[
minilines(81,16,0,0,0,0,0,[
mini_line(81,13,3,0,0,0,[
str_block(0,81,13,3,0,-1,0,0,0,[
str_seg('blue','Courier',0,80640,81,13,3,0,-1,0,0,0,0,0,
	"not_rigid")])
])
])]))
]).
icon([
polygon('#0000ff','',5,[
	443,293,447,293,447,289,443,289,443,293],0,1,0,0,1226,0,0,0,0,0,'1',0,
    "00",[
]),
xbm('black','',443,289,461,306,0,1227,0,18,17,0,0,1,297000,682000,315000,699000,0,0,1,0,0,0,0,
    "Tue May 20 17:12:06 2008","/tmp/TgifGaJ5ix.eps",290,[
    "%!PS-Adobe-2.0 EPSF-1.2",
    "%!PS (but not EPSF; comments have been disabled)",
    "%DVIPSWebPage: (www.radicaleye.com)",
    "%DVIPSCommandLine: dvips -N -n 1 -o /tmp/TgifGaJ5ix.ps /tmp/TgifGaJ5ix",
    "%DVIPSParameters: dpi=600, compressed",
    "%DVIPSSource:  TeX output 2008.05.20:1712",
    "%!",
    "/TeXDict 300 dict def TeXDict begin/N{def}def/B{bind def}N/S{exch}N/X{S",
    "N}B/A{dup}B/TR{translate}N/isls false N/vsize 11 72 mul N/hsize 8.5 72",
    "mul N/landplus90{false}def/@rigin{isls{[0 landplus90{1 -1}{-1 1}ifelse 0",
    "0 0]concat}if 72 Resolution div 72 VResolution div neg scale isls{",
    "landplus90{VResolution 72 div vsize mul 0 exch}{Resolution -72 div hsize",
    "mul 0}ifelse TR}if Resolution VResolution vsize -72 div 1 add mul TR[",
    "matrix currentmatrix{A A round sub abs 0.00001 lt{round}if}forall round",
    "exch round exch]setmatrix}N/@landscape{/isls true N}B/@manualfeed{",
    "statusdict/manualfeed true put}B/@copies{/#copies X}B/FMat[1 0 0 -1 0 0]",
    "N/FBB[0 0 0 0]N/nn 0 N/IEn 0 N/ctr 0 N/df-tail{/nn 8 dict N nn begin",
    "/FontType 3 N/FontMatrix fntrx N/FontBBox FBB N string/base X array",
    "/BitMaps X/BuildChar{CharBuilder}N/Encoding IEn N end A{/foo setfont}2",
    "array copy cvx N load 0 nn put/ctr 0 N[}B/sf 0 N/df{/sf 1 N/fntrx FMat N",
    "df-tail}B/dfs{div/sf X/fntrx[sf 0 0 sf neg 0 0]N df-tail}B/E{pop nn A",
    "definefont setfont}B/Cw{Cd A length 5 sub get}B/Ch{Cd A length 4 sub get",
    "}B/Cx{128 Cd A length 3 sub get sub}B/Cy{Cd A length 2 sub get 127 sub}",
    "B/Cdx{Cd A length 1 sub get}B/Ci{Cd A type/stringtype ne{ctr get/ctr ctr",
    "1 add N}if}B/id 0 N/rw 0 N/rc 0 N/gp 0 N/cp 0 N/G 0 N/CharBuilder{save 3",
    "1 roll S A/base get 2 index get S/BitMaps get S get/Cd X pop/ctr 0 N Cdx",
    "0 Cx Cy Ch sub Cx Cw add Cy setcachedevice Cw Ch true[1 0 0 -1 -.1 Cx",
    "sub Cy .1 sub]/id Ci N/rw Cw 7 add 8 idiv string N/rc 0 N/gp 0 N/cp 0 N{",
    "rc 0 ne{rc 1 sub/rc X rw}{G}ifelse}imagemask restore}B/G{{id gp get/gp",
    "gp 1 add N A 18 mod S 18 idiv pl S get exec}loop}B/adv{cp add/cp X}B",
    "/chg{rw cp id gp 4 index getinterval putinterval A gp add/gp X adv}B/nd{",
    "/cp 0 N rw exit}B/lsh{rw cp 2 copy get A 0 eq{pop 1}{A 255 eq{pop 254}{",
    "A A add 255 and S 1 and or}ifelse}ifelse put 1 adv}B/rsh{rw cp 2 copy",
    "get A 0 eq{pop 128}{A 255 eq{pop 127}{A 2 idiv S 128 and or}ifelse}",
    "ifelse put 1 adv}B/clr{rw cp 2 index string putinterval adv}B/set{rw cp",
    "fillstr 0 4 index getinterval putinterval adv}B/fillstr 18 string 0 1 17",
    "{2 copy 255 put pop}for N/pl[{adv 1 chg}{adv 1 chg nd}{1 add chg}{1 add",
    "chg nd}{adv lsh}{adv lsh nd}{adv rsh}{adv rsh nd}{1 add adv}{/rc X nd}{",
    "1 add set}{1 add clr}{adv 2 chg}{adv 2 chg nd}{pop nd}]A{bind pop}",
    "forall N/D{/cc X A type/stringtype ne{]}if nn/base get cc ctr put nn",
    "/BitMaps get S ctr S sf 1 ne{A A length 1 sub A 2 index S get sf div put",
    "}if put/ctr ctr 1 add N}B/I{cc 1 add D}B/bop{userdict/bop-hook known{",
    "bop-hook}if/SI save N @rigin 0 0 moveto/V matrix currentmatrix A 1 get A",
    "mul exch 0 get A mul add .99 lt{/QV}{/RV}ifelse load def pop pop}N/eop{",
    "SI restore userdict/eop-hook known{eop-hook}if showpage}N/@start{",
    "userdict/start-hook known{start-hook}if pop/VResolution X/Resolution X",
    "1000 div/DVImag X/IEn 256 array N 2 string 0 1 255{IEn S A 360 add 36 4",
    "index cvrs cvn put}for pop 65781.76 div/vsize X 65781.76 div/hsize X}N",
    "/p{show}N/RMat[1 0 0 -1 0 0]N/BDot 260 string N/Rx 0 N/Ry 0 N/V{}B/RV/v{",
    "/Ry X/Rx X V}B statusdict begin/product where{pop false[(Display)(NeXT)",
    "(LaserWriter 16/600)]{A length product length le{A length product exch 0",
    "exch getinterval eq{pop true exit}if}{pop}ifelse}forall}{false}ifelse",
    "end{{gsave TR -.1 .1 TR 1 1 scale Rx Ry false RMat{BDot}imagemask",
    "grestore}}{{gsave TR -.1 .1 TR Rx Ry scale 1 1 false RMat{BDot}",
    "imagemask grestore}}ifelse B/QV{gsave newpath transform round exch round",
    "exch itransform moveto Rx 0 rlineto 0 Ry neg rlineto Rx neg 0 rlineto",
    "fill grestore}B/a{moveto}B/delta 0 N/tail{A/delta X 0 rmoveto}B/M{S p",
    "delta add tail}B/b{S p tail}B/c{-4 M}B/d{-3 M}B/e{-2 M}B/f{-1 M}B/g{0 M}",
    "B/h{1 M}B/i{2 M}B/j{3 M}B/k{4 M}B/w{0 rmoveto}B/l{p -4 w}B/m{p -3 w}B/n{",
    "p -2 w}B/o{p -1 w}B/q{p 1 w}B/r{p 2 w}B/s{p 3 w}B/t{p 4 w}B/x{0 S",
    "rmoveto}B/y{3 2 roll p a}B/bos{/SS save N}B/eos{SS restore}B end",
    "% Thomas Esser, Dec 2002. public domain",
    "%",
    "% Encoding for:",
    "%     cmmi10 cmmi12 cmmi5 cmmi6 cmmi7 cmmi8 cmmi9 cmmib10",
    "%",
    "/TeXaae443f0Encoding [",
    "/Gamma /Delta /Theta /Lambda /Xi /Pi /Sigma /Upsilon /Phi /Psi /Omega",
    "/alpha /beta /gamma /delta /epsilon1 /zeta /eta /theta /iota /kappa",
    "/lambda /mu /nu /xi /pi /rho /sigma /tau /upsilon /phi /chi /psi",
    "/omega /epsilon /theta1 /pi1 /rho1 /sigma1 /phi1 /arrowlefttophalf",
    "/arrowleftbothalf /arrowrighttophalf /arrowrightbothalf /arrowhookleft",
    "/arrowhookright /triangleright /triangleleft /zerooldstyle /oneoldstyle",
    "/twooldstyle /threeoldstyle /fouroldstyle /fiveoldstyle /sixoldstyle",
    "/sevenoldstyle /eightoldstyle /nineoldstyle /period /comma /less /slash",
    "/greater /star /partialdiff /A /B /C /D /E /F /G /H /I /J /K /L /M /N",
    "/O /P /Q /R /S /T /U /V /W /X /Y /Z /flat /natural /sharp /slurbelow",
    "/slurabove /lscript /a /b /c /d /e /f /g /h /i /j /k /l /m /n /o /p",
    "/q /r /s /t /u /v /w /x /y /z /dotlessi /dotlessj /weierstrass /vector",
    "/tie /psi /.notdef /.notdef /.notdef /.notdef /.notdef /.notdef /.notdef",
    "/.notdef /.notdef /.notdef /.notdef /.notdef /.notdef /.notdef /.notdef",
    "/.notdef /.notdef /.notdef /.notdef /.notdef /.notdef /.notdef /.notdef",
    "/.notdef /.notdef /.notdef /.notdef /.notdef /.notdef /.notdef /.notdef",
    "/space /Gamma /Delta /Theta /Lambda /Xi /Pi /Sigma /Upsilon /Phi /Psi",
    "/.notdef /.notdef /Omega /alpha /beta /gamma /delta /epsilon1 /zeta /eta",
    "/theta /iota /kappa /lambda /mu /nu /xi /pi /rho /sigma /tau /upsilon",
    "/phi /chi /psi /tie /.notdef /.notdef /.notdef /.notdef /.notdef /.notdef",
    "/.notdef /.notdef /.notdef /.notdef /.notdef /.notdef /.notdef /.notdef",
    "/.notdef /.notdef /.notdef /.notdef /.notdef /.notdef /.notdef /.notdef",
    "/.notdef /.notdef /.notdef /.notdef /.notdef /.notdef /.notdef /.notdef",
    "/.notdef /.notdef /.notdef /.notdef /.notdef /.notdef /.notdef /.notdef",
    "/.notdef /.notdef /.notdef /.notdef /.notdef /.notdef /.notdef /.notdef",
    "/.notdef /.notdef /.notdef /.notdef /.notdef /.notdef /.notdef /.notdef",
    "/.notdef /.notdef /.notdef /.notdef /.notdef",
    "] def",
    "% Thomas Esser, Dec 2002. public domain",
    "%",
    "% Encoding for:",
    "%     cmb10 cmbx10 cmbx12 cmbx5 cmbx6 cmbx7 cmbx8 cmbx9 cmbxsl10",
    "%     cmdunh10 cmr10 cmr12 cmr17cmr6 cmr7 cmr8 cmr9 cmsl10 cmsl12 cmsl8",
    "%     cmsl9 cmss10cmss12 cmss17 cmss8 cmss9 cmssbx10 cmssdc10 cmssi10",
    "%     cmssi12 cmssi17 cmssi8cmssi9 cmssq8 cmssqi8 cmvtt10",
    "%",
    "/TeXf7b6d320Encoding [",
    "/Gamma /Delta /Theta /Lambda /Xi /Pi /Sigma /Upsilon /Phi /Psi /Omega",
    "/ff /fi /fl /ffi /ffl /dotlessi /dotlessj /grave /acute /caron /breve",
    "/macron /ring /cedilla /germandbls /ae /oe /oslash /AE /OE /Oslash",
    "/suppress /exclam /quotedblright /numbersign /dollar /percent /ampersand",
    "/quoteright /parenleft /parenright /asterisk /plus /comma /hyphen",
    "/period /slash /zero /one /two /three /four /five /six /seven /eight",
    "/nine /colon /semicolon /exclamdown /equal /questiondown /question /at",
    "/A /B /C /D /E /F /G /H /I /J /K /L /M /N /O /P /Q /R /S /T /U /V /W /X",
    "/Y /Z /bracketleft /quotedblleft /bracketright /circumflex /dotaccent",
    "/quoteleft /a /b /c /d /e /f /g /h /i /j /k /l /m /n /o /p /q /r /s /t /u",
    "/v /w /x /y /z /endash /emdash /hungarumlaut /tilde /dieresis /suppress",
    "/.notdef /.notdef /.notdef /.notdef /.notdef /.notdef /.notdef /.notdef",
    "/.notdef /.notdef /.notdef /.notdef /.notdef /.notdef /.notdef /.notdef",
    "/.notdef /.notdef /.notdef /.notdef /.notdef /.notdef /.notdef /.notdef",
    "/.notdef /.notdef /.notdef /.notdef /.notdef /.notdef /.notdef /space",
    "/Gamma /Delta /Theta /Lambda /Xi /Pi /Sigma /Upsilon /Phi /Psi /.notdef",
    "/.notdef /Omega /ff /fi /fl /ffi /ffl /dotlessi /dotlessj /grave /acute",
    "/caron /breve /macron /ring /cedilla /germandbls /ae /oe /oslash /AE",
    "/OE /Oslash /suppress /dieresis /.notdef /.notdef /.notdef /.notdef",
    "/.notdef /.notdef /.notdef /.notdef /.notdef /.notdef /.notdef /.notdef",
    "/.notdef /.notdef /.notdef /.notdef /.notdef /.notdef /.notdef /.notdef",
    "/.notdef /.notdef /.notdef /.notdef /.notdef /.notdef /.notdef /.notdef",
    "/.notdef /.notdef /.notdef /.notdef /.notdef /.notdef /.notdef /.notdef",
    "/.notdef /.notdef /.notdef /.notdef /.notdef /.notdef /.notdef /.notdef",
    "/.notdef /.notdef /.notdef /.notdef /.notdef /.notdef /.notdef /.notdef",
    "/.notdef /.notdef /.notdef /.notdef /.notdef /.notdef /.notdef",
    "] def",
    "%!",
    "TeXDict begin/rf{findfont dup length 1 add dict begin{1 index/FID ne 2",
    "index/UniqueID ne and{def}{pop pop}ifelse}forall[1 index 0 6 -1 roll",
    "exec 0 exch 5 -1 roll VResolution Resolution div mul neg 0 0]FontType 0",
    "ne{/Metrics exch def dict begin Encoding{exch dup type/integertype ne{",
    "pop pop 1 sub dup 0 le{pop}{[}ifelse}{FontMatrix 0 get div Metrics 0 get",
    "div def}ifelse}forall Metrics/Metrics currentdict end def}{{1 index type",
    "/nametype eq{exit}if exch pop}loop}ifelse[2 index currentdict end",
    "definefont 3 -1 roll makefont/setfont cvx]cvx def}def/ObliqueSlant{dup",
    "sin S cos div neg}B/SlantFont{4 index mul add}def/ExtendFont{3 -1 roll",
    "mul exch}def/ReEncodeFont{CharStrings rcheck{/Encoding false def dup[",
    "exch{dup CharStrings exch known not{pop/.notdef/Encoding true def}if}",
    "forall Encoding{]exch pop}{cleartomark}ifelse}if/Encoding exch def}def",
    "end",
    "%!PS-AdobeFont-1.1: CMR12 1.0",
    "% Copyright (C) 1997 American Mathematical Society. All Rights Reserved.",
    "11 dict begin",
    "/FontInfo 7 dict dup begin",
    "/version (1.0) readonly def",
    "/Notice (Copyright (C) 1997 American Mathematical Society. All Rights Reserved) readonly def",
    "/FullName (CMR12) readonly def",
    "/FamilyName (Computer Modern) readonly def",
    "/Weight (Medium) readonly def",
    "/ItalicAngle 0 def",
    "/isFixedPitch false def",
    "end readonly def",
    "/FontName /CMR12 def",
    "/PaintType 0 def",
    "/FontType 1 def",
    "/FontMatrix [0.001 0 0 0.001 0 0] readonly def",
    "/Encoding 256 array",
    "0 1 255 {1 index exch /.notdef put} for",
    "dup 0 /.notdef put",
    "readonly def",
    "/FontBBox{-34 -251 988 750}readonly def",
    "/UniqueID 5000794 def",
    "currentdict end",
    "currentfile eexec",
    "D9D66F633B846A97B686A97E45A3D0AA052A014267B7904EB3C0D3BD0B83D891",
    "016CA6CA4B712ADEB258FAAB9A130EE605E61F77FC1B738ABC7C51CD46EF8171",
    "9098D5FEE67660E69A7AB91B58F29A4D79E57022F783EB0FBBB6D4F4EC35014F",
    "D2DECBA99459A4C59DF0C6EBA150284454E707DC2100C15B76B4C19B84363758",
    "469A6C558785B226332152109871A9883487DD7710949204DDCF837E6A8708B8",
    "2BDBF16FBC7512FAA308A093FE5CF4E9D2405B169CD5365D6ECED5D768D66D6C",
    "68618B8C482B341F8CA38E9BB9BAFCFAAD9C2F3FD033B62690986ED43D9C9361",
    "3645B82392D5CAE11A7CB49D7E2E82DCD485CBA04C77322EB2E6A79D73DC194E",
    "59C120A2DABB9BF72E2CF256DD6EB54EECBA588101ABD933B57CE8A3A0D16B28",
    "51D7494F73096DF53BDC66BBF896B587DF9643317D5F610CD9088F9849126F23",
    "DDE030F7B277DD99055C8B119CAE9C99158AC4E150CDFC2C66ED92EBB4CC092A",
    "AA078CE16247A1335AD332DAA950D20395A7384C33FF72EAA31A5B89766E635F",
    "45C4C068AD7EE867398F0381B07CB94D29FF097D59FF9961D195A948E3D87C31",
    "821E9295A56D21875B41988F7A16A1587050C3C71B4E4355BB37F255D6B237CE",
    "96F25467F70FA19E0F85785FF49068949CCC79F2F8AE57D5F79BB9C5CF5EED5D",
    "9857B9967D9B96CDCF73D5D65FF75AFABB66734018BAE264597220C89FD17379",
    "26764A9302D078B4EB0E29178C878FD61007EEA2DDB119AE88C57ECFEF4B71E4",
    "140A34951DDC3568A84CC92371A789021A103A1A347050FDA6ECF7903F67D213",
    "1D0C7C474A9053866E9C88E65E6932BA87A73686EAB0019389F84D159809C498",
    "1E7A30ED942EB211B00DBFF5BCC720F4E276C3339B31B6EABBB078430E6A09BB",
    "377D3061A20B1EB98796B8607EECBC699445EAA866C38E02DF59F5EDD378303A",
    "0733B90E7835C0AAF32BA04F1566D8161EA89CD4D14DDB953F8B910BFC8A7F03",
    "5020F55EF8FC2640ADADA156F6CF8F2EB6610F7EE8874A26CBE7CD154469B9F4",
    "ED76886B3FB679FFDEB59BB6C55AF7087BA48B75EE2FB374B19BCC421A963E15",
    "FE05ECAAF9EECDF4B2715010A320102E6F8CCAA342FA11532671CD9B29E43E50",
    "0DDD39AA60A89537A4286846C601023F3A458AA3554EA68CB90FEFC2A539A8ED",
    "3189F9DC889F27CF64CDAE52D759A0B95C91C702EF94C23E44D25C55B553BDC3",
    "47BDA7D3CAE1518A9814087FB51C30771BC8E1AD683B0670CE74EEAFC64911A5",
    "93B7EEAB74E70DD59FDB009E2C9513B2B4AFEFD8AA846C1FE623827FEA96C0F8",
    "EEF58E11CF09BC7D26EA04E122A3B62C4BCE51ABA19A81B0CEE2A0B51EF79128",
    "A36E36CA6988BF59FD496B3133A3652337E7FB093D3AD5264DB2BCE87795CCB7",
    "AF236439589927173B3134EC5E015F91ED1BFEA8AD6619C55A8BD1291175B697",
    "886FBD042C5315428164398C2BEAEE17D9C6C08C6ABEA2740B57841BD727624D",
    "A41773C2B8FB94A46A16D0CCEF1D9F2A8658564E836D3D811B1DD9E07CF46E67",
    "B571526AE391116C92810AC59B455D9F00DC94252E36BED4E5DD0EFD",
    "0000000000000000000000000000000000000000000000000000000000000000",
    "0000000000000000000000000000000000000000000000000000000000000000",
    "0000000000000000000000000000000000000000000000000000000000000000",
    "0000000000000000000000000000000000000000000000000000000000000000",
    "0000000000000000000000000000000000000000000000000000000000000000",
    "0000000000000000000000000000000000000000000000000000000000000000",
    "0000000000000000000000000000000000000000000000000000000000000000",
    "0000000000000000000000000000000000000000000000000000000000000000",
    "cleartomark",
    "%!PS-AdobeFont-1.1: CMMI12 1.100",
    "% Copyright (C) 1997 American Mathematical Society. All Rights Reserved.",
    "11 dict begin",
    "/FontInfo 7 dict dup begin",
    "/version (1.100) readonly def",
    "/Notice (Copyright (C) 1997 American Mathematical Society. All Rights Reserved) readonly def",
    "/FullName (CMMI12) readonly def",
    "/FamilyName (Computer Modern) readonly def",
    "/Weight (Medium) readonly def",
    "/ItalicAngle -14.04 def",
    "/isFixedPitch false def",
    "end readonly def",
    "/FontName /CMMI12 def",
    "/PaintType 0 def",
    "/FontType 1 def",
    "/FontMatrix [0.001 0 0 0.001 0 0] readonly def",
    "/Encoding 256 array",
    "0 1 255 {1 index exch /.notdef put} for",
    "dup 0 /.notdef put",
    "readonly def",
    "/FontBBox{-30 -250 1026 750}readonly def",
    "/UniqueID 5087386 def",
    "currentdict end",
    "currentfile eexec",
    "D9D66F633B846A97B686A97E45A3D0AA0529731C99A784CCBE85B4993B2EEBDE",
    "3B12D472B7CF54651EF21185116A69AB1096ED4BAD2F646635E019B6417CC77B",
    "532F85D811C70D1429A19A5307EF63EB5C5E02C89FC6C20F6D9D89E7D91FE470",
    "B72BEFDA23F5DF76BE05AF4CE93137A219ED8A04A9D7D6FDF37E6B7FCDE0D90B",
    "986423E5960A5D9FBB4C956556E8DF90CBFAEC476FA36FD9A5C8175C9AF513FE",
    "D919C2DDD26BDC0D99398B9F4D03D6A8F05B47AF95EF28A9C561DBDC98C47CF5",
    "5250011D19E9366EB6FD153D3A100CAA6212E3D5D93990737F8D326D347B7EDC",
    "4391C9DF440285B8FC159D0E98D4258FC57892DCC57F7903449E07914FBE9E67",
    "3C15C2153C061EB541F66C11E7EE77D5D77C0B11E1AC55101DA976CCACAB6993",
    "EED1406FBB7FF30EAC9E90B90B2AF4EC7C273CA32F11A5C1426FF641B4A2FB2F",
    "4E68635C93DB835737567FAF8471CBC05078DCD4E40E25A2F4E5AF46C234CF59",
    "2A1CE8F39E1BA1B2A594355637E474167EAD4D97D51AF0A899B44387E1FD933A",
    "323AFDA6BA740534A510B4705C0A15647AFBF3E53A82BF320DD96753639BE49C",
    "2F79A1988863EF977B800C9DB5B42039C23EB86953713F730E03EA22FF7BB2C1",
    "D97D33FD77B1BDCC2A60B12CF7805CFC90C5B914C0F30A673DF9587F93E47CEA",
    "5932DD1930560C4F0D97547BCD805D6D854455B13A4D7382A22F562D7C55041F",
    "0FD294BDAA1834820F894265A667E5C97D95FF152531EF97258F56374502865D",
    "A1E7C0C5FB7C6FB7D3C43FEB3431095A59FBF6F61CEC6D6DEE09F4EB0FD70D77",
    "2A8B0A4984C6120293F6B947944BE23259F6EB64303D627353163B6505FC8A60",
    "00681F7A3968B6CBB49E0420A691258F5E7B07B417157803FCBE9B9FB1F80FD8",
    "CA0DA1186446DD565542BCCC7D339A1EB34C7F49246E8D72E987EB477C6DB757",
    "99AF86CEBCD7605C487A00CD2CD093098182DC57B20D78ECE0BECF3A0BF88EBA",
    "C866DB19F34BBBED6634AFC0F08D2AFB2A92578A6F8B4ADCD6594737FF6EED7D",
    "5B536DA9E3E2CADB40DB7C600EA4D100D33C3B92B1CF857E012C4EB370BA8295",
    "55B50047CC8911C98FE1A7BA6CDEA82D34476286E710571F16D10F018C74B387",
    "B5E1A596D45EDED31BD26E7ACDEFE171498987688B8CBBE07DFF07E1DB43384C",
    "A3F325DE9829B118F1629D51EC9BBF82CD78D3AE38D7011F6CDFF9FB98BD188B",
    "E307821BE31250D83AD87A8ED8E13ED38A42728F408C0025FA55DBEA1D840EE1",
    "44687DF840C67F5B5A9C74FF638A891C8D7AC6B6C8566C9DC9025EA522258FA6",
    "F520C3E95696018F864966FD57C262C59BF43991E87C37AB895548CAD529A17B",
    "2F0941F25CF3E9C0F6CBCE6DE992861C021D91C131FC4888A9EC4E5329B9298B",
    "7883A6FE70C1FD29DC993B6E4CF79B1BBEDB38D6794C545E8D4F32E78764B36A",
    "E45E2DB298ADE78DD1661D73BBC892EEB03D3417A339F4DB9D20F260885EE5D6",
    "900CCD091152DD0DDAB60EC66CEAB06E4CF987F90C1D4E74BF853A04C2B74601",
    "E743F52F0F29D2D05FFA0B6BACC64468CF62C0A2",
    "0000000000000000000000000000000000000000000000000000000000000000",
    "0000000000000000000000000000000000000000000000000000000000000000",
    "0000000000000000000000000000000000000000000000000000000000000000",
    "0000000000000000000000000000000000000000000000000000000000000000",
    "0000000000000000000000000000000000000000000000000000000000000000",
    "0000000000000000000000000000000000000000000000000000000000000000",
    "0000000000000000000000000000000000000000000000000000000000000000",
    "0000000000000000000000000000000000000000000000000000000000000000",
    "cleartomark",
    "TeXDict begin 39158280 55380996 1000 600 600 (/tmp/TgifGaJ5ix.dvi)",
    "@start /Fa 207[59 48[{ TeXf7b6d320Encoding ReEncodeFont }1",
    "119.552 /CMR12 rf /Fb 175[109 80[{ TeXaae443f0Encoding ReEncodeFont }1",
    "172.188 /CMMI12 rf end",
    "TeXDict begin",
    " end",
    "TeXDict begin 1 0 bop 1864 714 a Fb(P)1973 740 y Fa(0)p",
    "eop end",
    "userdict /end-hook known{end-hook}if"],
    "1ff80060c0040400c0400c0c00c0800c3001fe381804c1804418044300443004
     4fc044000440004400038",[
])
],
"eq4",1225,0,0,0,0,[
attr("footer=", "", 0, 1, 1,
text('#ff00ff',443,140,3,0,1,126,48,1228,13,3,0,0,0,0,2,126,48,0,0,"",0,0,0,0,153,'',[
minilines(126,48,0,0,0,0,0,[
mini_line(63,13,3,0,0,0,[
str_block(0,63,13,3,0,-1,0,0,0,[
str_seg('#0000ff','Courier',0,80640,63,13,3,0,-1,0,0,0,0,0,
	"footer=")])
]),
mini_line(9,13,3,0,0,0,[
str_block(0,9,13,3,0,-1,0,0,0,[
str_seg('#0000ff','Courier',0,80640,9,13,3,0,-1,0,0,0,0,0,
	"%")])
]),
mini_line(126,13,3,0,0,0,[
str_block(0,126,13,3,0,-4,0,0,0,[
str_seg('#0000ff','Courier',0,80640,126,13,3,0,-4,0,0,0,0,0,
	"\\end{document}")])
])
])])),
attr("header=", "", 0, 1, 1,
text('#ff00ff',619,140,11,0,1,270,176,1229,13,3,0,0,0,0,2,270,176,0,0,"",0,0,0,0,153,'',[
minilines(270,176,0,0,0,0,0,[
mini_line(63,13,3,0,0,0,[
str_block(0,63,13,3,0,-1,0,0,0,[
str_seg('#0000ff','Courier',0,80640,63,13,3,0,-1,0,0,0,0,0,
	"header=")])
]),
mini_line(261,13,3,0,0,0,[
str_block(0,261,13,3,0,-4,0,0,0,[
str_seg('#0000ff','Courier',0,80640,261,13,3,0,-4,0,0,0,0,0,
	"\\documentstyle[12pt]{article}")])
]),
mini_line(162,13,3,0,0,0,[
str_block(0,162,13,3,0,-1,0,0,0,[
str_seg('#0000ff','Courier',0,80640,162,13,3,0,-1,0,0,0,0,0,
	"\\oddsidemargin=0in")])
]),
mini_line(144,13,3,0,0,0,[
str_block(0,144,13,3,0,-1,0,0,0,[
str_seg('#0000ff','Courier',0,80640,144,13,3,0,-1,0,0,0,0,0,
	"\\textwidth=6.5in")])
]),
mini_line(126,13,3,0,0,0,[
str_block(0,126,13,3,0,-1,0,0,0,[
str_seg('#0000ff','Courier',0,80640,126,13,3,0,-1,0,0,0,0,0,
	"\\topmargin=0in")])
]),
mini_line(153,13,3,0,0,0,[
str_block(0,153,13,3,0,-2,0,0,0,[
str_seg('#0000ff','Courier',0,80640,153,13,3,0,-2,0,0,0,0,0,
	"\\textheight=609pt")])
]),
mini_line(117,13,3,0,0,0,[
str_block(0,117,13,3,0,-2,0,0,0,[
str_seg('#0000ff','Courier',0,80640,117,13,3,0,-2,0,0,0,0,0,
	"\\parskip=14pt")])
]),
mini_line(270,13,3,0,0,0,[
str_block(0,270,13,3,0,-4,0,0,0,[
str_seg('#0000ff','Courier',0,80640,270,13,3,0,-4,0,0,0,0,0,
	"\\setlength{\\unitlength}{0.5cm}")])
]),
mini_line(153,13,3,0,0,0,[
str_block(0,153,13,3,0,-4,0,0,0,[
str_seg('#0000ff','Courier',0,80640,153,13,3,0,-4,0,0,0,0,0,
	"\\pagestyle{empty}")])
]),
mini_line(144,13,3,0,0,0,[
str_block(0,144,13,3,0,-4,0,0,0,[
str_seg('#0000ff','Courier',0,80640,144,13,3,0,-4,0,0,0,0,0,
	"\\begin{document}")])
]),
mini_line(9,13,3,0,0,0,[
str_block(0,9,13,3,0,-1,0,0,0,[
str_seg('#0000ff','Courier',0,80640,9,13,3,0,-1,0,0,0,0,0,
	"%")])
])
])])),
attr("exec=", "", 0, 1, 1,
text('blue',443,-111,9,0,1,477,144,1230,13,3,0,0,0,0,2,477,144,0,0,"",0,0,0,0,-98,'',[
minilines(477,144,0,0,0,0,0,[
mini_line(45,13,3,0,0,0,[
str_block(0,45,13,3,0,-1,0,0,0,[
str_seg('blue','Courier',0,80640,45,13,3,0,-1,0,0,0,0,0,
	"exec=")])
]),
mini_line(378,13,3,0,0,0,[
str_block(0,378,13,3,0,-4,0,0,0,[
str_seg('blue','Courier',0,80640,378,13,3,0,-4,0,0,0,0,0,
	"    mktemp(\"/tmp/TgifXXXXXX\",\"file_name\");")])
]),
mini_line(468,13,3,0,0,0,[
str_block(0,468,13,3,0,-4,0,0,0,[
str_seg('blue','Courier',0,80640,468,13,3,0,-4,0,0,0,0,0,
	"    write_attr_into_file(header,\"$(file_name).tex\");")])
]),
mini_line(441,13,3,0,0,0,[
str_block(0,441,13,3,0,-4,0,0,0,[
str_seg('blue','Courier',0,80640,441,13,3,0,-4,0,0,0,0,0,
	"    append_attr_into_file(eq,\"$(file_name).tex\");")])
]),
mini_line(477,13,3,0,0,0,[
str_block(0,477,13,3,0,-4,0,0,0,[
str_seg('blue','Courier',0,80640,477,13,3,0,-4,0,0,0,0,0,
	"    append_attr_into_file(footer,\"$(file_name).tex\");")])
]),
mini_line(162,13,3,0,0,0,[
str_block(0,162,13,3,0,-4,0,0,0,[
str_seg('blue','Courier',0,80640,162,13,3,0,-4,0,0,0,0,0,
	"    launch(\"cmd\");")])
]),
mini_line(477,13,3,0,0,0,[
str_block(0,477,13,3,0,-4,0,0,0,[
str_seg('blue','Courier',0,80640,477,13,3,0,-4,0,0,0,0,0,
	"    pstoepsi(\"$(file_name).eps\",\"$(file_name).ps\",1);")])
]),
mini_line(369,13,3,0,0,0,[
str_block(0,369,13,3,0,-4,0,0,0,[
str_seg('blue','Courier',0,80640,369,13,3,0,-4,0,0,0,0,0,
	"    update_eps_child(\"$(file_name).eps\");")])
]),
mini_line(189,13,3,0,0,0,[
str_block(0,189,13,3,0,-4,0,0,0,[
str_seg('blue','Courier',0,80640,189,13,3,0,-4,0,0,0,0,0,
	"    launch(\"cleanup\")")])
])
])])),
attr("cmd=", "", 0, 1, 1,
text('blue',443,9,4,0,1,702,64,1231,13,3,0,0,0,0,2,702,64,0,0,"",0,0,0,0,22,'',[
minilines(702,64,0,0,0,0,0,[
mini_line(36,13,3,0,0,0,[
str_block(0,36,13,3,0,-1,0,0,0,[
str_seg('blue','Courier',0,80640,36,13,3,0,-1,0,0,0,0,0,
	"cmd=")])
]),
mini_line(108,13,3,0,0,0,[
str_block(0,108,13,3,0,-4,0,0,0,[
str_seg('blue','Courier',0,80640,108,13,3,0,-4,0,0,0,0,0,
	"    cd /tmp;")])
]),
mini_line(459,13,3,0,0,0,[
str_block(0,459,13,3,0,-4,0,0,0,[
str_seg('blue','Courier',0,80640,459,13,3,0,-4,0,0,0,0,0,
	"    xterm -geom 40x8+200+400 -e latex $(file_name);")])
]),
mini_line(702,13,3,0,0,0,[
str_block(0,702,13,3,0,-4,0,0,0,[
str_seg('blue','Courier',0,80640,702,13,3,0,-4,0,0,0,0,0,
	"    xterm -geom 40x8+200+400 -e dvips -N -n 1 -o $(file_name).ps $(file_name);")])
])
])])),
attr("cleanup=", "", 0, 1, 1,
text('blue',443,89,3,0,1,540,48,1232,13,3,0,0,0,0,2,540,48,0,0,"",0,0,0,0,102,'',[
minilines(540,48,0,0,0,0,0,[
mini_line(72,13,3,0,0,0,[
str_block(0,72,13,3,0,-1,0,0,0,[
str_seg('blue','Courier',0,80640,72,13,3,0,-1,0,0,0,0,0,
	"cleanup=")])
]),
mini_line(540,13,3,0,0,0,[
str_block(0,540,13,3,0,-2,0,0,0,[
str_seg('blue','Courier',0,80640,540,13,3,0,-2,0,0,0,0,0,
	"    rm -f $(file_name).tex $(file_name).aux $(file_name).dvi")])
]),
mini_line(513,13,3,0,0,0,[
str_block(0,513,13,3,0,-2,0,0,0,[
str_seg('blue','Courier',0,80640,513,13,3,0,-2,0,0,0,0,0,
	"        $(file_name).log $(file_name).ps $(file_name).eps")])
])
])])),
attr("file_name=", "/tmp/TgifGaJ5ix", 0, 1, 1,
text('blue',443,193,1,0,1,225,16,1233,13,3,0,0,0,0,2,225,16,0,0,"",0,0,0,0,206,'',[
minilines(225,16,0,0,0,0,0,[
mini_line(225,13,3,0,0,0,[
str_block(0,225,13,3,0,-1,0,0,0,[
str_seg('blue','Courier',0,80640,225,13,3,0,-1,0,0,0,0,0,
	"file_name=/tmp/TgifGaJ5ix")])
])
])])),
attr("eq=", "", 0, 1, 1,
text('blue',443,209,5,0,1,54,80,1234,13,3,0,0,0,0,2,54,80,0,0,"",0,0,0,0,222,'',[
minilines(54,80,0,0,0,0,0,[
mini_line(27,13,3,0,0,0,[
str_block(0,27,13,3,0,-1,0,0,0,[
str_seg('blue','Courier',0,80640,27,13,3,0,-1,0,0,0,0,0,
	"eq=")])
]),
mini_line(54,13,3,0,0,0,[
str_block(0,54,13,3,0,-1,0,0,0,[
str_seg('blue','Courier',0,80640,54,13,3,0,-1,0,0,0,0,0,
	"\\LARGE")])
]),
mini_line(18,13,3,0,0,0,[
str_block(0,18,13,3,0,-3,0,0,0,[
str_seg('blue','Courier',0,80640,18,13,3,0,-3,0,0,0,0,0,
	"\\[")])
]),
mini_line(54,13,3,0,0,0,[
str_block(0,54,13,3,0,-2,0,0,0,[
str_seg('blue','Courier',0,80640,54,13,3,0,-2,0,0,0,0,0,
	"   P_0")])
]),
mini_line(18,13,3,0,0,0,[
str_block(0,18,13,3,0,-4,0,0,0,[
str_seg('blue','Courier',0,80640,18,13,3,0,-4,0,0,0,0,0,
	"\\]")])
])
])])),
attr("", "not_rigid", 0, 1, 1,
text('blue',443,313,1,0,1,81,16,1235,13,3,0,0,0,0,2,81,16,0,0,"",0,0,0,0,326,'',[
minilines(81,16,0,0,0,0,0,[
mini_line(81,13,3,0,0,0,[
str_block(0,81,13,3,0,-1,0,0,0,[
str_seg('blue','Courier',0,80640,81,13,3,0,-1,0,0,0,0,0,
	"not_rigid")])
])
])]))
]).
icon([
polygon('#0000ff','',5,[
	245,270,249,270,249,266,245,266,245,270],0,1,0,0,1237,0,0,0,0,0,'1',0,
    "00",[
]),
xbm('black','',245,266,263,283,0,1238,0,18,17,0,0,1,297000,682000,315000,699000,0,0,1,0,0,0,0,
    "Tue May 20 17:12:06 2008","/tmp/TgifGaJ5ix.eps",290,[
    "%!PS-Adobe-2.0 EPSF-1.2",
    "%!PS (but not EPSF; comments have been disabled)",
    "%DVIPSWebPage: (www.radicaleye.com)",
    "%DVIPSCommandLine: dvips -N -n 1 -o /tmp/TgifGaJ5ix.ps /tmp/TgifGaJ5ix",
    "%DVIPSParameters: dpi=600, compressed",
    "%DVIPSSource:  TeX output 2008.05.20:1712",
    "%!",
    "/TeXDict 300 dict def TeXDict begin/N{def}def/B{bind def}N/S{exch}N/X{S",
    "N}B/A{dup}B/TR{translate}N/isls false N/vsize 11 72 mul N/hsize 8.5 72",
    "mul N/landplus90{false}def/@rigin{isls{[0 landplus90{1 -1}{-1 1}ifelse 0",
    "0 0]concat}if 72 Resolution div 72 VResolution div neg scale isls{",
    "landplus90{VResolution 72 div vsize mul 0 exch}{Resolution -72 div hsize",
    "mul 0}ifelse TR}if Resolution VResolution vsize -72 div 1 add mul TR[",
    "matrix currentmatrix{A A round sub abs 0.00001 lt{round}if}forall round",
    "exch round exch]setmatrix}N/@landscape{/isls true N}B/@manualfeed{",
    "statusdict/manualfeed true put}B/@copies{/#copies X}B/FMat[1 0 0 -1 0 0]",
    "N/FBB[0 0 0 0]N/nn 0 N/IEn 0 N/ctr 0 N/df-tail{/nn 8 dict N nn begin",
    "/FontType 3 N/FontMatrix fntrx N/FontBBox FBB N string/base X array",
    "/BitMaps X/BuildChar{CharBuilder}N/Encoding IEn N end A{/foo setfont}2",
    "array copy cvx N load 0 nn put/ctr 0 N[}B/sf 0 N/df{/sf 1 N/fntrx FMat N",
    "df-tail}B/dfs{div/sf X/fntrx[sf 0 0 sf neg 0 0]N df-tail}B/E{pop nn A",
    "definefont setfont}B/Cw{Cd A length 5 sub get}B/Ch{Cd A length 4 sub get",
    "}B/Cx{128 Cd A length 3 sub get sub}B/Cy{Cd A length 2 sub get 127 sub}",
    "B/Cdx{Cd A length 1 sub get}B/Ci{Cd A type/stringtype ne{ctr get/ctr ctr",
    "1 add N}if}B/id 0 N/rw 0 N/rc 0 N/gp 0 N/cp 0 N/G 0 N/CharBuilder{save 3",
    "1 roll S A/base get 2 index get S/BitMaps get S get/Cd X pop/ctr 0 N Cdx",
    "0 Cx Cy Ch sub Cx Cw add Cy setcachedevice Cw Ch true[1 0 0 -1 -.1 Cx",
    "sub Cy .1 sub]/id Ci N/rw Cw 7 add 8 idiv string N/rc 0 N/gp 0 N/cp 0 N{",
    "rc 0 ne{rc 1 sub/rc X rw}{G}ifelse}imagemask restore}B/G{{id gp get/gp",
    "gp 1 add N A 18 mod S 18 idiv pl S get exec}loop}B/adv{cp add/cp X}B",
    "/chg{rw cp id gp 4 index getinterval putinterval A gp add/gp X adv}B/nd{",
    "/cp 0 N rw exit}B/lsh{rw cp 2 copy get A 0 eq{pop 1}{A 255 eq{pop 254}{",
    "A A add 255 and S 1 and or}ifelse}ifelse put 1 adv}B/rsh{rw cp 2 copy",
    "get A 0 eq{pop 128}{A 255 eq{pop 127}{A 2 idiv S 128 and or}ifelse}",
    "ifelse put 1 adv}B/clr{rw cp 2 index string putinterval adv}B/set{rw cp",
    "fillstr 0 4 index getinterval putinterval adv}B/fillstr 18 string 0 1 17",
    "{2 copy 255 put pop}for N/pl[{adv 1 chg}{adv 1 chg nd}{1 add chg}{1 add",
    "chg nd}{adv lsh}{adv lsh nd}{adv rsh}{adv rsh nd}{1 add adv}{/rc X nd}{",
    "1 add set}{1 add clr}{adv 2 chg}{adv 2 chg nd}{pop nd}]A{bind pop}",
    "forall N/D{/cc X A type/stringtype ne{]}if nn/base get cc ctr put nn",
    "/BitMaps get S ctr S sf 1 ne{A A length 1 sub A 2 index S get sf div put",
    "}if put/ctr ctr 1 add N}B/I{cc 1 add D}B/bop{userdict/bop-hook known{",
    "bop-hook}if/SI save N @rigin 0 0 moveto/V matrix currentmatrix A 1 get A",
    "mul exch 0 get A mul add .99 lt{/QV}{/RV}ifelse load def pop pop}N/eop{",
    "SI restore userdict/eop-hook known{eop-hook}if showpage}N/@start{",
    "userdict/start-hook known{start-hook}if pop/VResolution X/Resolution X",
    "1000 div/DVImag X/IEn 256 array N 2 string 0 1 255{IEn S A 360 add 36 4",
    "index cvrs cvn put}for pop 65781.76 div/vsize X 65781.76 div/hsize X}N",
    "/p{show}N/RMat[1 0 0 -1 0 0]N/BDot 260 string N/Rx 0 N/Ry 0 N/V{}B/RV/v{",
    "/Ry X/Rx X V}B statusdict begin/product where{pop false[(Display)(NeXT)",
    "(LaserWriter 16/600)]{A length product length le{A length product exch 0",
    "exch getinterval eq{pop true exit}if}{pop}ifelse}forall}{false}ifelse",
    "end{{gsave TR -.1 .1 TR 1 1 scale Rx Ry false RMat{BDot}imagemask",
    "grestore}}{{gsave TR -.1 .1 TR Rx Ry scale 1 1 false RMat{BDot}",
    "imagemask grestore}}ifelse B/QV{gsave newpath transform round exch round",
    "exch itransform moveto Rx 0 rlineto 0 Ry neg rlineto Rx neg 0 rlineto",
    "fill grestore}B/a{moveto}B/delta 0 N/tail{A/delta X 0 rmoveto}B/M{S p",
    "delta add tail}B/b{S p tail}B/c{-4 M}B/d{-3 M}B/e{-2 M}B/f{-1 M}B/g{0 M}",
    "B/h{1 M}B/i{2 M}B/j{3 M}B/k{4 M}B/w{0 rmoveto}B/l{p -4 w}B/m{p -3 w}B/n{",
    "p -2 w}B/o{p -1 w}B/q{p 1 w}B/r{p 2 w}B/s{p 3 w}B/t{p 4 w}B/x{0 S",
    "rmoveto}B/y{3 2 roll p a}B/bos{/SS save N}B/eos{SS restore}B end",
    "% Thomas Esser, Dec 2002. public domain",
    "%",
    "% Encoding for:",
    "%     cmmi10 cmmi12 cmmi5 cmmi6 cmmi7 cmmi8 cmmi9 cmmib10",
    "%",
    "/TeXaae443f0Encoding [",
    "/Gamma /Delta /Theta /Lambda /Xi /Pi /Sigma /Upsilon /Phi /Psi /Omega",
    "/alpha /beta /gamma /delta /epsilon1 /zeta /eta /theta /iota /kappa",
    "/lambda /mu /nu /xi /pi /rho /sigma /tau /upsilon /phi /chi /psi",
    "/omega /epsilon /theta1 /pi1 /rho1 /sigma1 /phi1 /arrowlefttophalf",
    "/arrowleftbothalf /arrowrighttophalf /arrowrightbothalf /arrowhookleft",
    "/arrowhookright /triangleright /triangleleft /zerooldstyle /oneoldstyle",
    "/twooldstyle /threeoldstyle /fouroldstyle /fiveoldstyle /sixoldstyle",
    "/sevenoldstyle /eightoldstyle /nineoldstyle /period /comma /less /slash",
    "/greater /star /partialdiff /A /B /C /D /E /F /G /H /I /J /K /L /M /N",
    "/O /P /Q /R /S /T /U /V /W /X /Y /Z /flat /natural /sharp /slurbelow",
    "/slurabove /lscript /a /b /c /d /e /f /g /h /i /j /k /l /m /n /o /p",
    "/q /r /s /t /u /v /w /x /y /z /dotlessi /dotlessj /weierstrass /vector",
    "/tie /psi /.notdef /.notdef /.notdef /.notdef /.notdef /.notdef /.notdef",
    "/.notdef /.notdef /.notdef /.notdef /.notdef /.notdef /.notdef /.notdef",
    "/.notdef /.notdef /.notdef /.notdef /.notdef /.notdef /.notdef /.notdef",
    "/.notdef /.notdef /.notdef /.notdef /.notdef /.notdef /.notdef /.notdef",
    "/space /Gamma /Delta /Theta /Lambda /Xi /Pi /Sigma /Upsilon /Phi /Psi",
    "/.notdef /.notdef /Omega /alpha /beta /gamma /delta /epsilon1 /zeta /eta",
    "/theta /iota /kappa /lambda /mu /nu /xi /pi /rho /sigma /tau /upsilon",
    "/phi /chi /psi /tie /.notdef /.notdef /.notdef /.notdef /.notdef /.notdef",
    "/.notdef /.notdef /.notdef /.notdef /.notdef /.notdef /.notdef /.notdef",
    "/.notdef /.notdef /.notdef /.notdef /.notdef /.notdef /.notdef /.notdef",
    "/.notdef /.notdef /.notdef /.notdef /.notdef /.notdef /.notdef /.notdef",
    "/.notdef /.notdef /.notdef /.notdef /.notdef /.notdef /.notdef /.notdef",
    "/.notdef /.notdef /.notdef /.notdef /.notdef /.notdef /.notdef /.notdef",
    "/.notdef /.notdef /.notdef /.notdef /.notdef /.notdef /.notdef /.notdef",
    "/.notdef /.notdef /.notdef /.notdef /.notdef",
    "] def",
    "% Thomas Esser, Dec 2002. public domain",
    "%",
    "% Encoding for:",
    "%     cmb10 cmbx10 cmbx12 cmbx5 cmbx6 cmbx7 cmbx8 cmbx9 cmbxsl10",
    "%     cmdunh10 cmr10 cmr12 cmr17cmr6 cmr7 cmr8 cmr9 cmsl10 cmsl12 cmsl8",
    "%     cmsl9 cmss10cmss12 cmss17 cmss8 cmss9 cmssbx10 cmssdc10 cmssi10",
    "%     cmssi12 cmssi17 cmssi8cmssi9 cmssq8 cmssqi8 cmvtt10",
    "%",
    "/TeXf7b6d320Encoding [",
    "/Gamma /Delta /Theta /Lambda /Xi /Pi /Sigma /Upsilon /Phi /Psi /Omega",
    "/ff /fi /fl /ffi /ffl /dotlessi /dotlessj /grave /acute /caron /breve",
    "/macron /ring /cedilla /germandbls /ae /oe /oslash /AE /OE /Oslash",
    "/suppress /exclam /quotedblright /numbersign /dollar /percent /ampersand",
    "/quoteright /parenleft /parenright /asterisk /plus /comma /hyphen",
    "/period /slash /zero /one /two /three /four /five /six /seven /eight",
    "/nine /colon /semicolon /exclamdown /equal /questiondown /question /at",
    "/A /B /C /D /E /F /G /H /I /J /K /L /M /N /O /P /Q /R /S /T /U /V /W /X",
    "/Y /Z /bracketleft /quotedblleft /bracketright /circumflex /dotaccent",
    "/quoteleft /a /b /c /d /e /f /g /h /i /j /k /l /m /n /o /p /q /r /s /t /u",
    "/v /w /x /y /z /endash /emdash /hungarumlaut /tilde /dieresis /suppress",
    "/.notdef /.notdef /.notdef /.notdef /.notdef /.notdef /.notdef /.notdef",
    "/.notdef /.notdef /.notdef /.notdef /.notdef /.notdef /.notdef /.notdef",
    "/.notdef /.notdef /.notdef /.notdef /.notdef /.notdef /.notdef /.notdef",
    "/.notdef /.notdef /.notdef /.notdef /.notdef /.notdef /.notdef /space",
    "/Gamma /Delta /Theta /Lambda /Xi /Pi /Sigma /Upsilon /Phi /Psi /.notdef",
    "/.notdef /Omega /ff /fi /fl /ffi /ffl /dotlessi /dotlessj /grave /acute",
    "/caron /breve /macron /ring /cedilla /germandbls /ae /oe /oslash /AE",
    "/OE /Oslash /suppress /dieresis /.notdef /.notdef /.notdef /.notdef",
    "/.notdef /.notdef /.notdef /.notdef /.notdef /.notdef /.notdef /.notdef",
    "/.notdef /.notdef /.notdef /.notdef /.notdef /.notdef /.notdef /.notdef",
    "/.notdef /.notdef /.notdef /.notdef /.notdef /.notdef /.notdef /.notdef",
    "/.notdef /.notdef /.notdef /.notdef /.notdef /.notdef /.notdef /.notdef",
    "/.notdef /.notdef /.notdef /.notdef /.notdef /.notdef /.notdef /.notdef",
    "/.notdef /.notdef /.notdef /.notdef /.notdef /.notdef /.notdef /.notdef",
    "/.notdef /.notdef /.notdef /.notdef /.notdef /.notdef /.notdef",
    "] def",
    "%!",
    "TeXDict begin/rf{findfont dup length 1 add dict begin{1 index/FID ne 2",
    "index/UniqueID ne and{def}{pop pop}ifelse}forall[1 index 0 6 -1 roll",
    "exec 0 exch 5 -1 roll VResolution Resolution div mul neg 0 0]FontType 0",
    "ne{/Metrics exch def dict begin Encoding{exch dup type/integertype ne{",
    "pop pop 1 sub dup 0 le{pop}{[}ifelse}{FontMatrix 0 get div Metrics 0 get",
    "div def}ifelse}forall Metrics/Metrics currentdict end def}{{1 index type",
    "/nametype eq{exit}if exch pop}loop}ifelse[2 index currentdict end",
    "definefont 3 -1 roll makefont/setfont cvx]cvx def}def/ObliqueSlant{dup",
    "sin S cos div neg}B/SlantFont{4 index mul add}def/ExtendFont{3 -1 roll",
    "mul exch}def/ReEncodeFont{CharStrings rcheck{/Encoding false def dup[",
    "exch{dup CharStrings exch known not{pop/.notdef/Encoding true def}if}",
    "forall Encoding{]exch pop}{cleartomark}ifelse}if/Encoding exch def}def",
    "end",
    "%!PS-AdobeFont-1.1: CMR12 1.0",
    "% Copyright (C) 1997 American Mathematical Society. All Rights Reserved.",
    "11 dict begin",
    "/FontInfo 7 dict dup begin",
    "/version (1.0) readonly def",
    "/Notice (Copyright (C) 1997 American Mathematical Society. All Rights Reserved) readonly def",
    "/FullName (CMR12) readonly def",
    "/FamilyName (Computer Modern) readonly def",
    "/Weight (Medium) readonly def",
    "/ItalicAngle 0 def",
    "/isFixedPitch false def",
    "end readonly def",
    "/FontName /CMR12 def",
    "/PaintType 0 def",
    "/FontType 1 def",
    "/FontMatrix [0.001 0 0 0.001 0 0] readonly def",
    "/Encoding 256 array",
    "0 1 255 {1 index exch /.notdef put} for",
    "dup 0 /.notdef put",
    "readonly def",
    "/FontBBox{-34 -251 988 750}readonly def",
    "/UniqueID 5000794 def",
    "currentdict end",
    "currentfile eexec",
    "D9D66F633B846A97B686A97E45A3D0AA052A014267B7904EB3C0D3BD0B83D891",
    "016CA6CA4B712ADEB258FAAB9A130EE605E61F77FC1B738ABC7C51CD46EF8171",
    "9098D5FEE67660E69A7AB91B58F29A4D79E57022F783EB0FBBB6D4F4EC35014F",
    "D2DECBA99459A4C59DF0C6EBA150284454E707DC2100C15B76B4C19B84363758",
    "469A6C558785B226332152109871A9883487DD7710949204DDCF837E6A8708B8",
    "2BDBF16FBC7512FAA308A093FE5CF4E9D2405B169CD5365D6ECED5D768D66D6C",
    "68618B8C482B341F8CA38E9BB9BAFCFAAD9C2F3FD033B62690986ED43D9C9361",
    "3645B82392D5CAE11A7CB49D7E2E82DCD485CBA04C77322EB2E6A79D73DC194E",
    "59C120A2DABB9BF72E2CF256DD6EB54EECBA588101ABD933B57CE8A3A0D16B28",
    "51D7494F73096DF53BDC66BBF896B587DF9643317D5F610CD9088F9849126F23",
    "DDE030F7B277DD99055C8B119CAE9C99158AC4E150CDFC2C66ED92EBB4CC092A",
    "AA078CE16247A1335AD332DAA950D20395A7384C33FF72EAA31A5B89766E635F",
    "45C4C068AD7EE867398F0381B07CB94D29FF097D59FF9961D195A948E3D87C31",
    "821E9295A56D21875B41988F7A16A1587050C3C71B4E4355BB37F255D6B237CE",
    "96F25467F70FA19E0F85785FF49068949CCC79F2F8AE57D5F79BB9C5CF5EED5D",
    "9857B9967D9B96CDCF73D5D65FF75AFABB66734018BAE264597220C89FD17379",
    "26764A9302D078B4EB0E29178C878FD61007EEA2DDB119AE88C57ECFEF4B71E4",
    "140A34951DDC3568A84CC92371A789021A103A1A347050FDA6ECF7903F67D213",
    "1D0C7C474A9053866E9C88E65E6932BA87A73686EAB0019389F84D159809C498",
    "1E7A30ED942EB211B00DBFF5BCC720F4E276C3339B31B6EABBB078430E6A09BB",
    "377D3061A20B1EB98796B8607EECBC699445EAA866C38E02DF59F5EDD378303A",
    "0733B90E7835C0AAF32BA04F1566D8161EA89CD4D14DDB953F8B910BFC8A7F03",
    "5020F55EF8FC2640ADADA156F6CF8F2EB6610F7EE8874A26CBE7CD154469B9F4",
    "ED76886B3FB679FFDEB59BB6C55AF7087BA48B75EE2FB374B19BCC421A963E15",
    "FE05ECAAF9EECDF4B2715010A320102E6F8CCAA342FA11532671CD9B29E43E50",
    "0DDD39AA60A89537A4286846C601023F3A458AA3554EA68CB90FEFC2A539A8ED",
    "3189F9DC889F27CF64CDAE52D759A0B95C91C702EF94C23E44D25C55B553BDC3",
    "47BDA7D3CAE1518A9814087FB51C30771BC8E1AD683B0670CE74EEAFC64911A5",
    "93B7EEAB74E70DD59FDB009E2C9513B2B4AFEFD8AA846C1FE623827FEA96C0F8",
    "EEF58E11CF09BC7D26EA04E122A3B62C4BCE51ABA19A81B0CEE2A0B51EF79128",
    "A36E36CA6988BF59FD496B3133A3652337E7FB093D3AD5264DB2BCE87795CCB7",
    "AF236439589927173B3134EC5E015F91ED1BFEA8AD6619C55A8BD1291175B697",
    "886FBD042C5315428164398C2BEAEE17D9C6C08C6ABEA2740B57841BD727624D",
    "A41773C2B8FB94A46A16D0CCEF1D9F2A8658564E836D3D811B1DD9E07CF46E67",
    "B571526AE391116C92810AC59B455D9F00DC94252E36BED4E5DD0EFD",
    "0000000000000000000000000000000000000000000000000000000000000000",
    "0000000000000000000000000000000000000000000000000000000000000000",
    "0000000000000000000000000000000000000000000000000000000000000000",
    "0000000000000000000000000000000000000000000000000000000000000000",
    "0000000000000000000000000000000000000000000000000000000000000000",
    "0000000000000000000000000000000000000000000000000000000000000000",
    "0000000000000000000000000000000000000000000000000000000000000000",
    "0000000000000000000000000000000000000000000000000000000000000000",
    "cleartomark",
    "%!PS-AdobeFont-1.1: CMMI12 1.100",
    "% Copyright (C) 1997 American Mathematical Society. All Rights Reserved.",
    "11 dict begin",
    "/FontInfo 7 dict dup begin",
    "/version (1.100) readonly def",
    "/Notice (Copyright (C) 1997 American Mathematical Society. All Rights Reserved) readonly def",
    "/FullName (CMMI12) readonly def",
    "/FamilyName (Computer Modern) readonly def",
    "/Weight (Medium) readonly def",
    "/ItalicAngle -14.04 def",
    "/isFixedPitch false def",
    "end readonly def",
    "/FontName /CMMI12 def",
    "/PaintType 0 def",
    "/FontType 1 def",
    "/FontMatrix [0.001 0 0 0.001 0 0] readonly def",
    "/Encoding 256 array",
    "0 1 255 {1 index exch /.notdef put} for",
    "dup 0 /.notdef put",
    "readonly def",
    "/FontBBox{-30 -250 1026 750}readonly def",
    "/UniqueID 5087386 def",
    "currentdict end",
    "currentfile eexec",
    "D9D66F633B846A97B686A97E45A3D0AA0529731C99A784CCBE85B4993B2EEBDE",
    "3B12D472B7CF54651EF21185116A69AB1096ED4BAD2F646635E019B6417CC77B",
    "532F85D811C70D1429A19A5307EF63EB5C5E02C89FC6C20F6D9D89E7D91FE470",
    "B72BEFDA23F5DF76BE05AF4CE93137A219ED8A04A9D7D6FDF37E6B7FCDE0D90B",
    "986423E5960A5D9FBB4C956556E8DF90CBFAEC476FA36FD9A5C8175C9AF513FE",
    "D919C2DDD26BDC0D99398B9F4D03D6A8F05B47AF95EF28A9C561DBDC98C47CF5",
    "5250011D19E9366EB6FD153D3A100CAA6212E3D5D93990737F8D326D347B7EDC",
    "4391C9DF440285B8FC159D0E98D4258FC57892DCC57F7903449E07914FBE9E67",
    "3C15C2153C061EB541F66C11E7EE77D5D77C0B11E1AC55101DA976CCACAB6993",
    "EED1406FBB7FF30EAC9E90B90B2AF4EC7C273CA32F11A5C1426FF641B4A2FB2F",
    "4E68635C93DB835737567FAF8471CBC05078DCD4E40E25A2F4E5AF46C234CF59",
    "2A1CE8F39E1BA1B2A594355637E474167EAD4D97D51AF0A899B44387E1FD933A",
    "323AFDA6BA740534A510B4705C0A15647AFBF3E53A82BF320DD96753639BE49C",
    "2F79A1988863EF977B800C9DB5B42039C23EB86953713F730E03EA22FF7BB2C1",
    "D97D33FD77B1BDCC2A60B12CF7805CFC90C5B914C0F30A673DF9587F93E47CEA",
    "5932DD1930560C4F0D97547BCD805D6D854455B13A4D7382A22F562D7C55041F",
    "0FD294BDAA1834820F894265A667E5C97D95FF152531EF97258F56374502865D",
    "A1E7C0C5FB7C6FB7D3C43FEB3431095A59FBF6F61CEC6D6DEE09F4EB0FD70D77",
    "2A8B0A4984C6120293F6B947944BE23259F6EB64303D627353163B6505FC8A60",
    "00681F7A3968B6CBB49E0420A691258F5E7B07B417157803FCBE9B9FB1F80FD8",
    "CA0DA1186446DD565542BCCC7D339A1EB34C7F49246E8D72E987EB477C6DB757",
    "99AF86CEBCD7605C487A00CD2CD093098182DC57B20D78ECE0BECF3A0BF88EBA",
    "C866DB19F34BBBED6634AFC0F08D2AFB2A92578A6F8B4ADCD6594737FF6EED7D",
    "5B536DA9E3E2CADB40DB7C600EA4D100D33C3B92B1CF857E012C4EB370BA8295",
    "55B50047CC8911C98FE1A7BA6CDEA82D34476286E710571F16D10F018C74B387",
    "B5E1A596D45EDED31BD26E7ACDEFE171498987688B8CBBE07DFF07E1DB43384C",
    "A3F325DE9829B118F1629D51EC9BBF82CD78D3AE38D7011F6CDFF9FB98BD188B",
    "E307821BE31250D83AD87A8ED8E13ED38A42728F408C0025FA55DBEA1D840EE1",
    "44687DF840C67F5B5A9C74FF638A891C8D7AC6B6C8566C9DC9025EA522258FA6",
    "F520C3E95696018F864966FD57C262C59BF43991E87C37AB895548CAD529A17B",
    "2F0941F25CF3E9C0F6CBCE6DE992861C021D91C131FC4888A9EC4E5329B9298B",
    "7883A6FE70C1FD29DC993B6E4CF79B1BBEDB38D6794C545E8D4F32E78764B36A",
    "E45E2DB298ADE78DD1661D73BBC892EEB03D3417A339F4DB9D20F260885EE5D6",
    "900CCD091152DD0DDAB60EC66CEAB06E4CF987F90C1D4E74BF853A04C2B74601",
    "E743F52F0F29D2D05FFA0B6BACC64468CF62C0A2",
    "0000000000000000000000000000000000000000000000000000000000000000",
    "0000000000000000000000000000000000000000000000000000000000000000",
    "0000000000000000000000000000000000000000000000000000000000000000",
    "0000000000000000000000000000000000000000000000000000000000000000",
    "0000000000000000000000000000000000000000000000000000000000000000",
    "0000000000000000000000000000000000000000000000000000000000000000",
    "0000000000000000000000000000000000000000000000000000000000000000",
    "0000000000000000000000000000000000000000000000000000000000000000",
    "cleartomark",
    "TeXDict begin 39158280 55380996 1000 600 600 (/tmp/TgifGaJ5ix.dvi)",
    "@start /Fa 207[59 48[{ TeXf7b6d320Encoding ReEncodeFont }1",
    "119.552 /CMR12 rf /Fb 175[109 80[{ TeXaae443f0Encoding ReEncodeFont }1",
    "172.188 /CMMI12 rf end",
    "TeXDict begin",
    " end",
    "TeXDict begin 1 0 bop 1864 714 a Fb(P)1973 740 y Fa(0)p",
    "eop end",
    "userdict /end-hook known{end-hook}if"],
    "1ff80060c0040400c0400c0c00c0800c3001fe381804c1804418044300443004
     4fc044000440004400038",[
])
],
"eq4",1236,0,0,0,0,[
attr("footer=", "", 0, 1, 1,
text('#ff00ff',245,117,3,0,1,126,48,1239,13,3,0,0,0,0,2,126,48,0,0,"",0,0,0,0,130,'',[
minilines(126,48,0,0,0,0,0,[
mini_line(63,13,3,0,0,0,[
str_block(0,63,13,3,0,-1,0,0,0,[
str_seg('#0000ff','Courier',0,80640,63,13,3,0,-1,0,0,0,0,0,
	"footer=")])
]),
mini_line(9,13,3,0,0,0,[
str_block(0,9,13,3,0,-1,0,0,0,[
str_seg('#0000ff','Courier',0,80640,9,13,3,0,-1,0,0,0,0,0,
	"%")])
]),
mini_line(126,13,3,0,0,0,[
str_block(0,126,13,3,0,-4,0,0,0,[
str_seg('#0000ff','Courier',0,80640,126,13,3,0,-4,0,0,0,0,0,
	"\\end{document}")])
])
])])),
attr("header=", "", 0, 1, 1,
text('#ff00ff',421,117,11,0,1,270,176,1240,13,3,0,0,0,0,2,270,176,0,0,"",0,0,0,0,130,'',[
minilines(270,176,0,0,0,0,0,[
mini_line(63,13,3,0,0,0,[
str_block(0,63,13,3,0,-1,0,0,0,[
str_seg('#0000ff','Courier',0,80640,63,13,3,0,-1,0,0,0,0,0,
	"header=")])
]),
mini_line(261,13,3,0,0,0,[
str_block(0,261,13,3,0,-4,0,0,0,[
str_seg('#0000ff','Courier',0,80640,261,13,3,0,-4,0,0,0,0,0,
	"\\documentstyle[12pt]{article}")])
]),
mini_line(162,13,3,0,0,0,[
str_block(0,162,13,3,0,-1,0,0,0,[
str_seg('#0000ff','Courier',0,80640,162,13,3,0,-1,0,0,0,0,0,
	"\\oddsidemargin=0in")])
]),
mini_line(144,13,3,0,0,0,[
str_block(0,144,13,3,0,-1,0,0,0,[
str_seg('#0000ff','Courier',0,80640,144,13,3,0,-1,0,0,0,0,0,
	"\\textwidth=6.5in")])
]),
mini_line(126,13,3,0,0,0,[
str_block(0,126,13,3,0,-1,0,0,0,[
str_seg('#0000ff','Courier',0,80640,126,13,3,0,-1,0,0,0,0,0,
	"\\topmargin=0in")])
]),
mini_line(153,13,3,0,0,0,[
str_block(0,153,13,3,0,-2,0,0,0,[
str_seg('#0000ff','Courier',0,80640,153,13,3,0,-2,0,0,0,0,0,
	"\\textheight=609pt")])
]),
mini_line(117,13,3,0,0,0,[
str_block(0,117,13,3,0,-2,0,0,0,[
str_seg('#0000ff','Courier',0,80640,117,13,3,0,-2,0,0,0,0,0,
	"\\parskip=14pt")])
]),
mini_line(270,13,3,0,0,0,[
str_block(0,270,13,3,0,-4,0,0,0,[
str_seg('#0000ff','Courier',0,80640,270,13,3,0,-4,0,0,0,0,0,
	"\\setlength{\\unitlength}{0.5cm}")])
]),
mini_line(153,13,3,0,0,0,[
str_block(0,153,13,3,0,-4,0,0,0,[
str_seg('#0000ff','Courier',0,80640,153,13,3,0,-4,0,0,0,0,0,
	"\\pagestyle{empty}")])
]),
mini_line(144,13,3,0,0,0,[
str_block(0,144,13,3,0,-4,0,0,0,[
str_seg('#0000ff','Courier',0,80640,144,13,3,0,-4,0,0,0,0,0,
	"\\begin{document}")])
]),
mini_line(9,13,3,0,0,0,[
str_block(0,9,13,3,0,-1,0,0,0,[
str_seg('#0000ff','Courier',0,80640,9,13,3,0,-1,0,0,0,0,0,
	"%")])
])
])])),
attr("exec=", "", 0, 1, 1,
text('blue',245,-134,9,0,1,477,144,1241,13,3,0,0,0,0,2,477,144,0,0,"",0,0,0,0,-121,'',[
minilines(477,144,0,0,0,0,0,[
mini_line(45,13,3,0,0,0,[
str_block(0,45,13,3,0,-1,0,0,0,[
str_seg('blue','Courier',0,80640,45,13,3,0,-1,0,0,0,0,0,
	"exec=")])
]),
mini_line(378,13,3,0,0,0,[
str_block(0,378,13,3,0,-4,0,0,0,[
str_seg('blue','Courier',0,80640,378,13,3,0,-4,0,0,0,0,0,
	"    mktemp(\"/tmp/TgifXXXXXX\",\"file_name\");")])
]),
mini_line(468,13,3,0,0,0,[
str_block(0,468,13,3,0,-4,0,0,0,[
str_seg('blue','Courier',0,80640,468,13,3,0,-4,0,0,0,0,0,
	"    write_attr_into_file(header,\"$(file_name).tex\");")])
]),
mini_line(441,13,3,0,0,0,[
str_block(0,441,13,3,0,-4,0,0,0,[
str_seg('blue','Courier',0,80640,441,13,3,0,-4,0,0,0,0,0,
	"    append_attr_into_file(eq,\"$(file_name).tex\");")])
]),
mini_line(477,13,3,0,0,0,[
str_block(0,477,13,3,0,-4,0,0,0,[
str_seg('blue','Courier',0,80640,477,13,3,0,-4,0,0,0,0,0,
	"    append_attr_into_file(footer,\"$(file_name).tex\");")])
]),
mini_line(162,13,3,0,0,0,[
str_block(0,162,13,3,0,-4,0,0,0,[
str_seg('blue','Courier',0,80640,162,13,3,0,-4,0,0,0,0,0,
	"    launch(\"cmd\");")])
]),
mini_line(477,13,3,0,0,0,[
str_block(0,477,13,3,0,-4,0,0,0,[
str_seg('blue','Courier',0,80640,477,13,3,0,-4,0,0,0,0,0,
	"    pstoepsi(\"$(file_name).eps\",\"$(file_name).ps\",1);")])
]),
mini_line(369,13,3,0,0,0,[
str_block(0,369,13,3,0,-4,0,0,0,[
str_seg('blue','Courier',0,80640,369,13,3,0,-4,0,0,0,0,0,
	"    update_eps_child(\"$(file_name).eps\");")])
]),
mini_line(189,13,3,0,0,0,[
str_block(0,189,13,3,0,-4,0,0,0,[
str_seg('blue','Courier',0,80640,189,13,3,0,-4,0,0,0,0,0,
	"    launch(\"cleanup\")")])
])
])])),
attr("cmd=", "", 0, 1, 1,
text('blue',245,-14,4,0,1,702,64,1242,13,3,0,0,0,0,2,702,64,0,0,"",0,0,0,0,-1,'',[
minilines(702,64,0,0,0,0,0,[
mini_line(36,13,3,0,0,0,[
str_block(0,36,13,3,0,-1,0,0,0,[
str_seg('blue','Courier',0,80640,36,13,3,0,-1,0,0,0,0,0,
	"cmd=")])
]),
mini_line(108,13,3,0,0,0,[
str_block(0,108,13,3,0,-4,0,0,0,[
str_seg('blue','Courier',0,80640,108,13,3,0,-4,0,0,0,0,0,
	"    cd /tmp;")])
]),
mini_line(459,13,3,0,0,0,[
str_block(0,459,13,3,0,-4,0,0,0,[
str_seg('blue','Courier',0,80640,459,13,3,0,-4,0,0,0,0,0,
	"    xterm -geom 40x8+200+400 -e latex $(file_name);")])
]),
mini_line(702,13,3,0,0,0,[
str_block(0,702,13,3,0,-4,0,0,0,[
str_seg('blue','Courier',0,80640,702,13,3,0,-4,0,0,0,0,0,
	"    xterm -geom 40x8+200+400 -e dvips -N -n 1 -o $(file_name).ps $(file_name);")])
])
])])),
attr("cleanup=", "", 0, 1, 1,
text('blue',245,66,3,0,1,540,48,1243,13,3,0,0,0,0,2,540,48,0,0,"",0,0,0,0,79,'',[
minilines(540,48,0,0,0,0,0,[
mini_line(72,13,3,0,0,0,[
str_block(0,72,13,3,0,-1,0,0,0,[
str_seg('blue','Courier',0,80640,72,13,3,0,-1,0,0,0,0,0,
	"cleanup=")])
]),
mini_line(540,13,3,0,0,0,[
str_block(0,540,13,3,0,-2,0,0,0,[
str_seg('blue','Courier',0,80640,540,13,3,0,-2,0,0,0,0,0,
	"    rm -f $(file_name).tex $(file_name).aux $(file_name).dvi")])
]),
mini_line(513,13,3,0,0,0,[
str_block(0,513,13,3,0,-2,0,0,0,[
str_seg('blue','Courier',0,80640,513,13,3,0,-2,0,0,0,0,0,
	"        $(file_name).log $(file_name).ps $(file_name).eps")])
])
])])),
attr("file_name=", "/tmp/TgifGaJ5ix", 0, 1, 1,
text('blue',245,170,1,0,1,225,16,1244,13,3,0,0,0,0,2,225,16,0,0,"",0,0,0,0,183,'',[
minilines(225,16,0,0,0,0,0,[
mini_line(225,13,3,0,0,0,[
str_block(0,225,13,3,0,-1,0,0,0,[
str_seg('blue','Courier',0,80640,225,13,3,0,-1,0,0,0,0,0,
	"file_name=/tmp/TgifGaJ5ix")])
])
])])),
attr("eq=", "", 0, 1, 1,
text('blue',245,186,5,0,1,54,80,1245,13,3,0,0,0,0,2,54,80,0,0,"",0,0,0,0,199,'',[
minilines(54,80,0,0,0,0,0,[
mini_line(27,13,3,0,0,0,[
str_block(0,27,13,3,0,-1,0,0,0,[
str_seg('blue','Courier',0,80640,27,13,3,0,-1,0,0,0,0,0,
	"eq=")])
]),
mini_line(54,13,3,0,0,0,[
str_block(0,54,13,3,0,-1,0,0,0,[
str_seg('blue','Courier',0,80640,54,13,3,0,-1,0,0,0,0,0,
	"\\LARGE")])
]),
mini_line(18,13,3,0,0,0,[
str_block(0,18,13,3,0,-3,0,0,0,[
str_seg('blue','Courier',0,80640,18,13,3,0,-3,0,0,0,0,0,
	"\\[")])
]),
mini_line(54,13,3,0,0,0,[
str_block(0,54,13,3,0,-2,0,0,0,[
str_seg('blue','Courier',0,80640,54,13,3,0,-2,0,0,0,0,0,
	"   P_0")])
]),
mini_line(18,13,3,0,0,0,[
str_block(0,18,13,3,0,-4,0,0,0,[
str_seg('blue','Courier',0,80640,18,13,3,0,-4,0,0,0,0,0,
	"\\]")])
])
])])),
attr("", "not_rigid", 0, 1, 1,
text('blue',245,290,1,0,1,81,16,1246,13,3,0,0,0,0,2,81,16,0,0,"",0,0,0,0,303,'',[
minilines(81,16,0,0,0,0,0,[
mini_line(81,13,3,0,0,0,[
str_block(0,81,13,3,0,-1,0,0,0,[
str_seg('blue','Courier',0,80640,81,13,3,0,-1,0,0,0,0,0,
	"not_rigid")])
])
])]))
]).
poly('skyblue','',2,[
	202,256,331,256],0,1,1,1247,0,0,5,0,0,0,0,'1',1,0,
    "0","",[
    0,8,3,0,'8','3','0'],[0,8,3,0,'8','3','0'],[
]).
poly('darkred','',364,[
	192,74,193,74,195,74,192,77,188,73,190,76,192,79,190,77,
	195,76,194,76,193,76,193,77,193,78,193,79,190,78,195,79,
	192,80,192,82,193,85,191,87,193,85,191,89,194,88,192,90,
	192,91,192,90,193,90,191,91,190,94,192,94,194,94,192,95,
	191,96,190,97,190,98,190,99,190,100,191,100,192,100,191,101,
	193,102,190,105,193,105,190,106,193,108,192,109,191,109,191,110,
	190,110,189,111,189,112,189,113,191,114,191,116,192,117,192,118,
	193,118,193,119,193,120,192,120,191,121,190,121,189,122,188,123,
	188,124,193,125,188,126,189,126,190,127,191,127,191,128,191,129,
	192,129,192,130,192,131,192,132,192,133,191,134,190,136,190,137,
	189,139,189,140,189,141,189,142,190,142,191,142,191,143,192,144,
	192,145,192,146,192,148,192,149,192,150,192,152,191,153,191,154,
	192,154,191,155,190,156,189,157,189,158,189,159,189,160,190,161,
	191,161,191,162,191,163,192,164,192,165,192,166,192,167,192,168,
	192,169,192,170,192,172,192,173,192,174,193,176,194,177,195,177,
	195,178,195,179,194,180,193,181,192,182,192,184,191,185,191,186,
	191,187,191,188,192,189,192,190,192,191,192,192,192,193,192,194,
	192,195,192,196,192,197,192,198,193,199,193,200,193,201,192,201,
	192,202,191,203,191,204,191,205,191,206,191,207,191,208,191,209,
	191,210,191,212,191,213,191,214,191,215,191,216,191,217,192,217,
	192,218,192,219,192,220,192,221,192,222,192,223,192,224,190,224,
	189,225,188,225,186,225,187,226,187,227,188,228,188,229,189,230,
	189,232,189,233,189,234,189,235,189,236,189,237,190,237,191,237,
	191,238,191,240,191,241,191,242,191,243,191,244,191,245,191,246,
	191,248,191,249,192,249,192,250,192,252,192,253,192,254,192,255,
	192,256,192,257,192,258,192,259,192,260,191,260,191,261,190,261,
	190,262,190,263,190,264,190,265,190,266,191,268,191,269,191,270,
	191,272,191,273,191,274,190,275,190,276,189,277,189,278,189,279,
	189,280,189,281,190,281,190,282,191,283,191,284,191,285,192,285,
	192,286,192,287,192,288,192,289,192,290,192,292,192,293,192,294,
	192,295,192,296,192,297,192,298,192,299,192,300,191,300,190,300,
	190,301,189,301,189,302,189,303,189,304,189,305,189,306,190,307,
	191,307,191,308,192,309,191,310,190,311,190,312,190,313,191,314,
	192,315,192,316,192,317,192,318,192,320,192,321,191,321,192,322,
	193,324,193,325,194,325,195,326,194,326,193,327,192,328,190,328,
	189,329,190,330,191,331,192,332,192,333,193,333,193,334,193,335,
	193,336,193,337,192,338,192,340,191,341,191,342,191,343,191,344,
	192,344,192,345,191,345,190,346,190,347,191,348,192,349,194,350,
	198,354,200,355,201,355,200,355,199,356,198,356,198,357,197,357,
	196,358,196,359,195,359,195,360,195,361,194,361,194,360,194,359,
	194,357,194,356,194,357,194,358,193,359,193,360,193,358,193,356,
	194,356,194,355,194,354,194,355,194,356,194,357,194,358,194,359,
	194,361,194,362,194,363,193,363,192,364,192,366,192,367,192,368,
	192,369,193,369,192,370,191,371,191,372,191,373,191,374,191,375,
	191,376,191,378,191,379,191,380,191,382,191,383,191,384,191,386,
	191,387,192,387,193,387,194,386],0,5,1,1252,0,0,0,0,0,0,0,'5',1,0,
    "0000000000000000000000000000000000000000000000000000000000000000
     000000000000000000000000000","",[
    0,18,7,0,'18','7','0'],[0,18,7,0,'18','7','0'],[
]).
