%!PS-Adobe-3.0 EPSF-3.0
%%BoundingBox: 56 562 277 757
%%Title: hFunR
%%CreationDate: Tue Jun  3 10:21:31 2008
%%Creator: Tgif-4.1.45-QPL written by William Chia-Wei Cheng (bill.cheng@acm.org)
%%ProducedBy: (unknown)
%%Pages: 1
%%DocumentFonts: (atend)
%%EndComments
%%BeginPreview: 221 195 1 195
% 00000000000000000000000000000000000000000000000000000000
% 00008000000000000000000000000000000000000000000000000000
% 00008000000000000000000000000000000000000000000000000000
% 00008000000000000000000000000000000000000000000000000000
% 0001c000000000000000000000000000000000000000000000000000
% 0003c000000000000000000000000000000000000000000000000000
% 0003e000000000000000000000000000000000000000000000000000
% 0003e000000000000000000000000000000000000000000000000000
% 00008000000000000000000000000000000000000000000000000000
% 00008000000000000000000000000000000000000000000000000000
% 00008000000000000000000000000000000000000000000000000000
% 00008000000000000000000000000000000000000000000000000000
% 00008000000000000000000000000000000000000000000000000000
% 00008000000000000000000000000000000000000000000000000000
% 00008000000000000000000000000000000000000000000000000000
% 00008000000000000000000000000000000000000000000000000000
% 00408000100000000000000000000000000000000000000000000000
% 00408000000000000000000000000000000000000000000000000000
% 00488000080000000000000000000000000000000000000000000000
% 00648000040000000000000000000000000000000000000000000000
% 00448000040000000000000000000000000000000000000000000000
% 00448000000000000000000000000000000000000000000000000000
% 00448000020000000000000000000000000000000000000000000000
% 00448000000000000000000000000000000000000000000000000000
% 00008000000000000000000000000000000000000000000000000000
% 000087c0010000000000000000000000000000000000000000000000
% 0000800c000000000000000000000000000000000000000000000000
% 00008003008000000000000000000000000000000000000000000000
% 0000800180c000000000000000000000000000000000000000000000
% 00008000204000000000000000000000000000000000000000000000
% 00008000100000000000000000000000000000000000000000000000
% 00008000040000000000000000000000000000000000000000000000
% 00008000000000000000000000000000000000000000000000000000
% 00008000002000000000000000000000000000000000000000000000
% 00008000010000000000000000000000000000000000000000000000
% 00008000009000000000000000000000000000000000000000000000
% 00008000004000000000000000000000000000000000000000000000
% 00008000000800000000000000000000000000000000000000000000
% 00008000002c00000000000000000000000000000000000000000000
% 00008000000400000000000000000000000000000000000000000000
% 00008000001200000000000000000000000000000000000000000000
% 00008000000200000000000000000000000000000000000000000000
% 00008000000800000000000000000000000000000000000000000000
% 00008000000500000000000000000000000000000000000000000000
% 00008000000200000000000000000000000000000000000000000000
% 00008000000280000000000000000000000000000000000000000000
% 000080000000c0000000000000000000000000000000000000000000
% 00008000000140000000000000000000000000000000000000000000
% 00008000000020000000000000000000000000000000000000000000
% 00008000000020000000000000000000000000000000000000000000
% 00008000000080000000000000000000000000000000000000000000
% 00008000000050000000000000000000000000000000000000000000
% 00008000000000000000000000000000000000000000000000000000
% 00008000000028000000000000000000000000000000000000000000
% 00008000000028000000000000000000000000000000000000000000
% 00008000000010000000000000000000000000000000000000000000
% 00008000000014000000000000000000000000000000000000000000
% 00008000000002000000000000000000000000000000000000000000
% 0000800000000a000000000000000000000000000000000000000000
% 00008000000000000000000000000000000000000000000000000000
% 00008000000005000000000000000000000000000000000000000000
% 00008000000002000000000000000000000000000000000000000000
% 00008000000002800000000000000000000000000000000000000000
% 00008000000001000000000000000000000000000000000000000000
% 00008000000001400000000000000000000000000000000000000000
% 0000800000000020000000000000001f600000000000000000000000
% 0000800000000080000000000000001f600000000000000000000000
% 00008000000000100000000000000004600000000000000000000000
% 000080000000004000000000000000047ce797200000000000000000
% 00008000000000280000000000000004653451400000000000000000
% 0000800000000000000000000000000465f451400000000000000000
% 00008000000000140000000000000004650450400000000000000000
% 0000800000000002000000000000000464f790800000000000000000
% 00008000000000090000000000000000000000800000000000000000
% 00008000000000000000000000000000000001800000000000000000
% 00008000000000008000000000000000000001800000000000000000
% 00008000000000040000000000000000000000000000000000000000
% 00008000000000024000000000000000001000000000000000000000
% 00008000000000012000000000000000001000000000000000000000
% 00008000000000010000000000000000000000000000000000000000
% 00008000000000001000000000000000000000000000000000000000
% 00008000000000008000000000000000002000000000000000000000
% 00008000000000004000000000000000002000000000000000000000
% 00008000000000004000000000000000002000000000000000000000
% 00008000000000002000000000000000000000000000000000000000
% 00008000000000000200000000000000000000000000000000000000
% 00008000000000001100000000000000000000000000000000000000
% 00008000000000000000000000000000000000000000000000000000
% 00008000000000000880000000000000000000000000000000000000
% 00008000000000000040000000000000000000000000000000000000
% 00008000000000000400000000000000008000000000000000000000
% 00008000000000000210000000000000000000000000000000000000
% 00008000000000000210000000000000000000000000000000000000
% 00008000000000000108000000000000010000000000000000000000
% 00008000000000000004000000000000000000000000000000000000
% 00008000000000000082000000000000000000000000000000000000
% 00008000000000000002000000000000000000000000000000000000
% 00008000000000000040000000000000040000000000000000000000
% 00008000000000000020800000000000000000000000000000000000
% 00008000000000000000400000000000000000000000000000000000
% 00008000000000000008200000000000000000000000000000000000
% 00008000000000000000100000000000100000000000000000000000
% 00008000000000000000080000000000000000000000000000000000
% 00008000000000000003040000000000000000000000000000000000
% 00008000000000000001000000000000000000000000000000000000
% 00008000000000000000800000000000800000000000000000000000
% 00008000000000000000408000000000000000000000000000000000
% 00008000000000000000004000000002000000000000000000000000
% 00008000000000000000302000000000000000000000000000000000
% 00008000000000000000100000000000000000000000000000000000
% 00008000000000000000080800000010000000000000000000000000
% 00008000000000000000040400000020000000000000000000000000
% 00008000000000000000020100000000000000000000000000000000
% 00008000000000000000000180000000000000000000000000000000
% 00008000000000000000018040000200000000000000000000000000
% 00008000000000000000000010000700000000000000000000000000
% 00008000000000000000000004000c00000000000000000000000000
% 00008000000000000000002002000000000000000000000000000000
% 00008000000000000000001000c00000000000000000000000000000
% 00008000000000000000000000100000000000000000000000000000
% 0000800000000000000003c000020000000000000000000000000000
% 0000800000000000000003c200010000000000000000000000000000
% 00008000000000000000018100006000000000000000000000000000
% 00008000000000000000100040000c00000000000000000000000000
% 00008000000000000000000020000180000000000000000000000000
% 00008000000000000000800018000030000000000000000000000000
% 0000800000000000000080000800000c000000000000000000000000
% 00008000000000000000000000000001800000000000000000000000
% 00008000000000000004000001000000080000000000000000000000
% 00008000000000000008000000800000018000000000000000000000
% 00008000000000000008000000400000004000000000000000000000
% 00008000000000000000000000200000000700000000000000000000
% 00008000000000000000000000000000000030000000000000000000
% 00008000000000000040000000000000000003800000000000000000
% 00008000000000000000000000020000000000600000000000000000
% 00008000000000000000000000008000000000060000000000000000
% 00008000000000000000000000002000000000003c00000000000000
% 00008000000000000100000000000800000000000040000000000000
% 00008000000000000000000000000400000000000038000000000000
% 00008000000000000000000000000100000000000000f00000000000
% 0000800000000000000000000000006000000000000001e000000000
% 000080000000000000000000000000180000000000000001e0000000
% 00008000000000000000080000000002000000000000000003c00000
% 00008000000000000200080000000001000000000000000000300000
% 00008000000000000200080000000000300000000000000000000000
% 0000800000000016f74b480000000000060000000000000000000000
% 0000800000000006824848000000000000c000000000000000000000
% 000080000000001e8249c80000000000003800000000000000000000
% 0000800000000016824b480000000000000300000000000000000000
% 0000800000000016f37b480000000000000030000000000000000000
% 00008000000000000000000000000000000003800000000000000000
% 00008000000000000000000000000000000000400000000000000000
% 00008000000000000000000000000000000000070000000000000000
% 38008000000000000000000000000000000000001e00000000000000
% 2800800000000000000000000000000000000000003c000000000000
% 44008000000000000000000000000000000000000003c00000000000
% 4400800000000000000000000000000000000000000003c000000000
% 440080000000000000000000000000000000000000000007c0000000
% 44008000000000000000000000000000000000000000000000300000
% 28008000000000000000000000000000000000000000000000000000
% 3800e3399cce673198cc663399cce673198cc663399cce673198cc60
% 00008000000000000000000000000000000000000000000000000000
% 00008000000000000000000000000000000000000000000000000000
% 00008000000000000000000000000000000000000000000000000000
% 00008000000000000000000000000000000000000000000000000000
% 00008000000000000000000000000000000000000000000000000000
% 0000800000000016c848000000000000000000000000000000000000
% 00008000000001089000000000000000000000000000000000000000
% 00008000000001089000000000000000000000000000000000000000
% 00008000000000288804000000000000000000000000000000000000
% 00008000000000000000000000000000003e00000000000000000000
% 0000800000000000000c000000000000003300000000000000000000
% 00008000000000000000000000000000003100000000000000000000
% 00008000000000000000000000000000003300000000000000000000
% 00008000000000000000000000000000003e00000000000000000000
% 00008000000000000000000000000000003300000000000000000000
% 0000800000000036e640000000000000003100000000000000000000
% 00008000000000208aa0000000000000003100000000000000000000
% 00008000000000288a80000000000000000000000000000000000000
% 00008000000000278640000000000000000000000000000000000000
% 00008000000000000a00000000000000000000000000000000000600
% 00008000000000000400000000000000000000000000000000000700
% 0000ffffffffffffffffffffffffffffffffffffffffffffffffffe0
% 0000ffffffffffffffffffffffffffffffffffffffffffffffffffe0
% 00000000000000000000000000000000000000000000000000000700
% 00000000000000000000000000000000000000000000000000000600
% 0000000003c0000000000001e0000000000000000000000000000000
% 0000000003c0000000000001e0000000000000000000000000000000
% 0000000003ffffff80ffffffe0000000000000000000000000000000
% 0000000003ffffff80ffffffe0000000000000000000000000000000
% 0000000000000007fff0000000000000000000000000000000000000
% 00000000000000007f00000000000000000000000000000000000000
% 00000000000000001c00000000000000000000000000000000000000
% 00000000000000000000000000000000000000000000000000000000
% 00000000000000000000000000000000000000000000000000000000
%%EndImage
%%EndPreview
%%BeginProlog

/tgifdict 53 dict def
tgifdict begin

/tgifarrowtipdict 8 dict def
tgifarrowtipdict /mtrx matrix put

/TGAT % tgifarrowtip
 { tgifarrowtipdict begin
      /dy exch def
      /dx exch def
      /h exch def
      /w exch def
      /y exch def
      /x exch def
      /savematrix mtrx currentmatrix def
      x y translate
      dy dx atan rotate
      0 0 moveto
      w neg h lineto
      w neg h neg lineto
      savematrix setmatrix
   end
 } def

/TGMAX
 { exch dup 3 1 roll exch dup 3 1 roll gt { pop } { exch pop } ifelse
 } def
/TGMIN
 { exch dup 3 1 roll exch dup 3 1 roll lt { pop } { exch pop } ifelse
 } def
/TGSW { stringwidth pop } def

/bd { bind def } bind def

/GS { gsave } bd
/GR { grestore } bd
/NP { newpath } bd
/CP { closepath } bd
/CHP { charpath } bd
/CT { curveto } bd
/L { lineto } bd
/RL { rlineto } bd
/M { moveto } bd
/RM { rmoveto } bd
/S { stroke } bd
/F { fill } bd
/TR { translate } bd
/RO { rotate } bd
/SC { scale } bd
/MU { mul } bd
/DI { div } bd
/DU { dup } bd
/NE { neg } bd
/AD { add } bd
/SU { sub } bd
/PO { pop } bd
/EX { exch } bd
/CO { concat } bd
/CL { clip } bd
/EC { eoclip } bd
/EF { eofill } bd
/IM { image } bd
/IMM { imagemask } bd
/ARY { array } bd
/SG { setgray } bd
/RG { setrgbcolor } bd
/SD { setdash } bd
/W { setlinewidth } bd
/SM { setmiterlimit } bd
/SLC { setlinecap } bd
/SLJ { setlinejoin } bd
/SH { show } bd
/FF { findfont } bd
/MS { makefont setfont } bd
/AR { arcto 4 {pop} repeat } bd
/CURP { currentpoint } bd
/FLAT { flattenpath strokepath clip newpath } bd
/TGSM { tgiforigctm setmatrix } def
/TGRM { savematrix setmatrix } def

end

%%EndProlog
%%Page: 1 1

%%PageBoundingBox: 56 562 277 757
tgifdict begin
/tgifsavedpage save def

1 SM
1 W

0 SG

72 0 MU 72 11 MU TR
72 128 DI 100.000 MU 100 DI DU NE SC

GS

/tgiforigctm matrix currentmatrix def

% POLY/OPEN-SPLINE
0 SG
GS
   NP
      130 64 M
      320 0 atan DU cos 12.000 MU exch sin 12.000 MU RM
      130 384 L
   TGSM
   3 W
   S
   1 W
GR
GS
   TGSM
   NP
      130 64 12.000 5.000 0 -320 TGAT
   CP F
GR

% POLY/OPEN-SPLINE
0 SG
GS
   NP
      130 385 M
      0 360 atan DU cos 12.000 MU 490 exch SU
      exch sin 12.000 MU 385 exch SU L
   TGSM
   3 W
   S
   1 W
GR
GS
   TGSM
   NP
      490 385 12.000 5.000 360 0 TGAT
   CP F
GR

% POLY/OPEN-SPLINE
0.000 0.000 1.000 RG
GS
   NP
      164 90 M
      204.67 192.67 246.00 253.33 288.00 272.00 CT
      330.00 290.67 387.67 305.00
      461 315 CT
   TGSM
   1 W
   S
GR

% TEXT
NP
0.000 0.000 1.000 RG
   GS
      1 W
      345 377 M
      GS
            0 SG
            /Helvetica FF [18 0 0 -18 0 0] MS
            (R) SH
      GR
   GR

% TEXT
NP
0 SG
   GS
      1 W
      117 105 M
      GS
            0 SG
            /Helvetica FF [18 0 0 -18 0 0] MS
            (h) SH
      GR
   GR

% TEXT
NP
0 SG
   GS
      1 W
      103 346 M
      GS
            0 SG
            /Helvetica FF [18 0 0 -18 0 0] MS
            (0) SH
      GR
   GR

% POLY/OPEN-SPLINE
0 SG
GS
   [4 4] 0 SD
   NP
      132 345 M
      490 345 L
   TGSM
   1 W
   S
   [] 0 SD
GR

% POLY/OPEN-SPLINE
1.000 0.271 0.000 RG
GS
   NP
      462 342 M
      380.00 335.33 323.17 319.83 291.50 295.50 CT
      259.83 271.17 236.17 244.67 220.50 216.00 CT
      204.83 187.33 191.83 161.83 181.50 139.50 CT
      171.17 117.17 155.67 106.00
      135 106 CT
   TGSM
   1 W
   S
GR

% TEXT
NP
1.000 0.271 0.000 RG
   GS
      1 W
      204 328 M
      GS
            1.000 0.271 0.000 RG
            /Helvetica FF [18 0 0 -18 0 0] MS
            (actual) SH
      GR
   GR

% POLY/OPEN-SPLINE
1.000 0.271 0.000 RG
GS
   [4 4] 0 SD
   NP
      227 305 M
      235.00 290.33 246.67 280.00
      -9 23 atan DU cos 8.000 MU 262 exch SU
      exch sin 8.000 MU 274 exch SU CT
   TGSM
   1 W
   S
   [] 0 SD
GR
GS
   TGSM
   NP
      262 274 8.000 3.000 23 -9 TGAT
   CP F
GR

% TEXT
NP
0.000 0.000 1.000 RG
   GS
      1 W
      317 192 M
      GS
            0.000 0.000 1.000 RG
            /Helvetica FF [18 0 0 -18 0 0] MS
            (Theory) SH
      GR
   GR

% POLY/OPEN-SPLINE
0.000 0.000 1.000 RG
GS
   [4 4] 0 SD
   NP
      347 198 M
      345.00 226.00 331.00 249.67
      29 -39 atan DU cos 8.000 MU 305 exch SU
      exch sin 8.000 MU 269 exch SU CT
   TGSM
   1 W
   S
   [] 0 SD
GR
GS
   TGSM
   NP
      305 269 8.000 3.000 -39 29 TGAT
   CP F
GR

% TEXT
NP
0.600 0.196 0.800 RG
GS
   166 393 TR
   [-0.000 -1.636 3.342 -0.000 -17 12] CO
   166 NE 393 NE TR
GR
   GS
      1 W
      166 393 TR
      [-0.000 -1.636 3.342 -0.000 -17 12] CO
      0 31 M
      GS
            0.600 0.196 0.800 RG
            /Helvetica FF [34 0 0 -34 0 0] MS
            ({) SH
      GR
   GR

% TEXT
NP
0.600 0.196 0.800 RG
   GS
      1 W
      219 363 M
      GS
        GS
        0
            /Helvetica FF [12 0 0 -12 0 0] MS
            (working) TGSW 
        AD
        GR
      2 DI NE 0 RM
            0.600 0.196 0.800 RG
            /Helvetica FF [12 0 0 -12 0 0] MS
            (working) SH
      GR
      0 17 RM
      GS
        GS
        0
            /Helvetica FF [12 0 0 -12 0 0] MS
            (range) TGSW 
        AD
        GR
      2 DI NE 0 RM
            0.600 0.196 0.800 RG
            /Helvetica FF [12 0 0 -12 0 0] MS
            (range) SH
      GR
   GR

GR
tgifsavedpage restore
end
showpage

%%Trailer
%MatchingCreationDate: Tue Jun  3 10:21:31 2008
%%DocumentFonts: Helvetica
%%EOF
