%TGIF 4.1.45-QPL
state(0,37,100.000,96,164,1,16,0,36,1,1,0,1,1,0,1,0,'Helvetica',0,69120,0,5,0,10,2,1,1,1,0,16,0,0,1,1,1,1,1088,1408,1,0,2880,1).
%
% @(#)$Header$
% %W%
%
unit("1 pixel/pixel").
color_info(50,65535,0,[
	"magenta", 65535, 0, 65535, 65535, 0, 65535, 1,
	"red", 65535, 0, 0, 65535, 0, 0, 1,
	"green", 0, 65535, 0, 0, 65535, 0, 1,
	"blue", 0, 0, 65535, 0, 0, 65535, 1,
	"yellow", 65535, 65535, 0, 65535, 65535, 0, 1,
	"pink", 65535, 49344, 52171, 65535, 49344, 52171, 1,
	"cyan", 0, 65535, 65535, 0, 65535, 65535, 1,
	"CadetBlue", 24415, 40606, 41120, 24415, 40606, 41120, 1,
	"white", 65535, 65535, 65535, 65535, 65535, 65535, 1,
	"black", 0, 0, 0, 0, 0, 0, 1,
	"DarkSlateGray", 12079, 20303, 20303, 12079, 20303, 20303, 1,
	"lightgreen", 37008, 61166, 37008, 37008, 61166, 37008, 1,
	"gold", 65535, 55255, 0, 65535, 55255, 0, 1,
	"gray", 48830, 48830, 48830, 48830, 48830, 48830, 1,
	"lightgray", 54227, 54227, 54227, 54227, 54227, 54227, 1,
	"brown", 42405, 10794, 10794, 42405, 10794, 10794, 1,
	"lightblue", 44461, 55512, 59110, 44461, 55512, 59110, 1,
	"darkblue", 0, 0, 35723, 0, 0, 35723, 1,
	"darkgreen", 0, 25700, 0, 0, 25700, 0, 1,
	"lightpink", 65535, 46774, 49601, 65535, 46774, 49601, 1,
	"darkgray", 43433, 43433, 43433, 43433, 43433, 43433, 1,
	"tan", 53970, 46260, 35980, 53970, 46260, 35980, 1,
	"deeppink", 65535, 5140, 37779, 65535, 5140, 37779, 1,
	"darkred", 35723, 0, 0, 35723, 0, 0, 1,
	"greenyellow", 44461, 65535, 12079, 44461, 65535, 12079, 1,
	"hotpink", 65535, 26985, 46260, 65535, 26985, 46260, 1,
	"ivory", 65535, 65535, 61680, 65535, 65535, 61680, 1,
	"khaki", 61680, 59110, 35980, 61680, 59110, 35980, 1,
	"darkkhaki", 48573, 47031, 27499, 48573, 47031, 27499, 1,
	"lavender", 59110, 59110, 64250, 59110, 59110, 64250, 1,
	"linen", 64250, 61680, 59110, 64250, 61680, 59110, 1,
	"maroon", 45232, 12336, 24672, 45232, 12336, 24672, 1,
	"navyblue", 0, 0, 32896, 0, 0, 32896, 1,
	"orchid", 56026, 28784, 54998, 56026, 28784, 54998, 1,
	"orangered", 65535, 17733, 0, 65535, 17733, 0, 1,
	"darkorange", 65535, 35980, 0, 65535, 35980, 0, 1,
	"darkorchid", 39321, 12850, 52428, 39321, 12850, 52428, 1,
	"violet", 61166, 33410, 61166, 61166, 33410, 61166, 1,
	"purple", 41120, 8224, 61680, 41120, 8224, 61680, 1,
	"seagreen", 11822, 35723, 22359, 11822, 35723, 22359, 1,
	"steelblue", 17990, 33410, 46260, 17990, 33410, 46260, 1,
	"springgreen", 0, 65535, 32639, 0, 65535, 32639, 1,
	"skyblue", 34695, 52942, 60395, 34695, 52942, 60395, 1,
	"slategray", 28784, 32896, 37008, 28784, 32896, 37008, 1,
	"turquoise", 16448, 57568, 53456, 16448, 57568, 53456, 1,
	"darkturquoise", 0, 52942, 53713, 0, 52942, 53713, 1,
	"wheat", 62965, 57054, 46003, 62965, 57054, 46003, 1,
	"yellowgreen", 39578, 52685, 12850, 39578, 52685, 12850, 1,
	"sienna", 41120, 21074, 11565, 41120, 21074, 11565, 1,
	"darkcyan", 0, 35723, 35723, 0, 35723, 35723, 1
]).
script_frac("0.6").
fg_bg_colors('darkorchid','white').
dont_reencode("FFDingbests:ZapfDingbats").
objshadow_info('#c0c0c0',2,2).
page(1,"",1,'').
poly('black','',2,[
	130,64,130,384],2,3,1,298,0,6,0,0,0,0,0,'3',1,0,
    "0","",[
    0,12,5,0,'12','5','0'],[0,12,5,0,'12','5','0'],[
]).
poly('black','',2,[
	130,385,490,385],1,3,1,301,0,6,0,0,0,0,0,'3',1,0,
    "0","",[
    0,12,5,0,'12','5','0'],[0,12,5,0,'12','5','0'],[
]).
poly('blue','',4,[
	164,90,225,244,351,300,461,315],0,1,1,312,1,0,0,0,0,0,0,'1',1,0,
    "6","",[
    0,8,3,0,'8','3','0'],[0,8,3,0,'8','3','0'],[
]).
text('blue',345,359,1,0,1,12,22,319,18,4,0,2,0,0,2,12,22,0,0,"",0,0,0,1,377,'',[
minilines(12,22,0,0,0,2,0,[
mini_line(12,18,4,0,0,0,[
str_block(0,12,18,4,0,-1,0,0,0,[
str_seg('black','Helvetica',0,103680,12,18,4,0,-1,0,0,0,0,0,
	"R")])
])
])]).
text('black',117,87,1,0,1,10,22,322,18,4,0,2,0,0,2,10,22,0,0,"",0,0,0,1,105,'',[
minilines(10,22,0,0,0,2,0,[
mini_line(10,18,4,0,0,0,[
str_block(0,10,18,4,0,-1,0,0,0,[
str_seg('black','Helvetica',0,103680,10,18,4,0,-1,0,0,0,0,0,
	"h")])
])
])]).
text('black',103,328,1,0,1,10,22,324,18,4,0,2,0,0,2,10,22,0,0,"",0,0,0,1,346,'',[
minilines(10,22,0,0,0,2,0,[
mini_line(10,18,4,0,0,0,[
str_block(0,10,18,4,0,-1,0,0,0,[
str_seg('black','Helvetica',0,103680,10,18,4,0,-1,0,0,0,0,0,
	"0")])
])
])]).
poly('black','',2,[
	132,345,490,345],0,1,1,326,0,0,5,0,0,0,0,'1',1,0,
    "0","",[
    0,8,3,0,'8','3','0'],[0,8,3,0,'8','3','0'],[
]).
poly('orangered','',6,[
	462,342,339,332,244,259,197,173,166,106,135,106],0,1,1,328,1,0,0,0,0,0,0,'1',1,0,
    "78","",[
    0,8,3,0,'8','3','0'],[0,8,3,0,'8','3','0'],[
]).
text('orangered',204,310,1,0,1,48,22,353,18,4,0,2,0,0,2,48,22,0,0,"",0,0,0,1,328,'',[
minilines(48,22,0,0,0,2,0,[
mini_line(48,18,4,0,0,0,[
str_block(0,48,18,4,0,-1,0,0,0,[
str_seg('orangered','Helvetica',0,103680,48,18,4,0,-1,0,0,0,0,0,
	"actual")])
])
])]).
poly('orangered','',3,[
	227,305,239,283,262,274],1,1,1,358,1,0,5,0,0,0,0,'1',1,0,
    "4","",[
    0,8,3,0,'8','3','0'],[0,8,3,0,'8','3','0'],[
]).
text('blue',317,174,1,0,1,59,22,359,18,4,0,2,0,0,2,59,22,0,0,"",0,0,0,1,192,'',[
minilines(59,22,0,0,0,2,0,[
mini_line(59,18,4,0,0,0,[
str_block(0,59,18,4,0,-1,0,0,0,[
str_seg('blue','Helvetica',0,103680,59,18,4,0,-1,0,0,0,0,0,
	"Theory")])
])
])]).
poly('blue','',3,[
	347,198,344,240,305,269],1,1,1,361,1,0,5,0,0,0,0,'1',1,0,
    "4","",[
    0,8,3,0,'8','3','0'],[0,8,3,0,'8','3','0'],[
]).
text('darkorchid',166,393,1,0,1,127,18,373,31,7,0,2,0,0,2,11,38,0,0,"",0,1,0,1,424,'',[
	166,393,166,393,177,431,-6.13915e-13,-1636.36,3342.11,-3.00585e-13,-17,12,165,392,178,432],[
minilines(11,38,0,0,0,2,0,[
mini_line(11,31,7,0,0,0,[
str_block(0,11,31,7,0,-2,0,0,0,[
str_seg('darkorchid','Helvetica',0,195840,11,31,7,0,-2,0,0,0,0,0,
	"{")])
])
])]).
text('darkorchid',219,351,2,1,1,43,32,379,12,3,0,2,0,0,2,43,32,0,0,"",0,0,0,1,363,'',[
minilines(43,32,0,0,1,2,0,[
mini_line(43,12,3,0,0,0,[
str_block(0,43,12,3,0,-1,0,0,0,[
str_seg('darkorchid','Helvetica',0,69120,43,12,3,0,-1,0,0,0,0,0,
	"working")])
]),
mini_line(32,12,3,0,0,0,[
str_block(0,32,12,3,0,-1,0,0,0,[
str_seg('darkorchid','Helvetica',0,69120,32,12,3,0,-1,0,0,0,0,0,
	"range")])
])
])]).
