%!PS-Adobe-3.0 EPSF-3.0
%%BoundingBox: 13 680 192 764
%%Title: t
%%CreationDate: Thu Aug 22 07:38:34 2013
%%Creator: Tgif-4.2.2-QPL written by William Chia-Wei Cheng (bill.cheng@acm.org)
%%ProducedBy: (unknown)
%%Pages: 1
%%DocumentFonts: (atend)
%%EndComments
%%BeginPreview: 179 84 1 84
% 00000000000000000000000000000000003ff000000000
% 0000000000000000000000000000000007ffff80000000
% 000000000000000000000000000000001fffffe0000000
% 00000000000000000000000000000000fffffffc000000
% 00000000000000000000000000000003ffffffff000000
% 0000000000000000000000000000000fffffffffc00000
% 0000000000000000000000000000001fffffffffe00000
% 0000000000000000000000000000007ffffffffff80000
% 000000000000000000000000000000fffffffffffe0000
% 000000000000000000000000000003ffffffffffff0000
% 000000000000000000000000000003ffffffffffff0000
% 000000000000000000000000000007ffffffffffff8000
% 00000000000000000000000000000fffffffffffffe000
% 00000000000000000000000000001ffffffffffffff000
% 00000000000000000000000000003ffffffffffffff000
% 00000000000000000000000000007ffffffffffffff800
% 0000000000000000000000000000fffffffffffffffc00
% 0000000000000000000000000000fffffffffffffffe00
% 0000000000000000000000000000fffffffffffffffe00
% 0000000000000000000000000001ffffffffffffffff00
% 0000000000000000000000000003ffffffffffffffff00
% 0000000000000000000000000007ffffffffffffffff80
% 0000000000003ff8000000000007ffffffffffffffff80
% 00000000000ffffff00000000007ffffffffffffffff80
% 0000000000ffffffff000000000fffffffffffffffffc0
% 0000000003ffffffffc00000000fffffffffffffffffc0
% 000000001ffffffffff80000000fffffffffffffffffe0
% 000000007ffffffffffe0000000fffffffffffffffffe0
% 00000001ffffffffffff8000001fffffffffffffffffe0
% 00000003ffffffffffffc000001fffffffffffffffffe0
% 0000000ffffffffffffff000001fffffffffffffffffe0
% 8000003ffffffffffffffc00001fffffffffffffffffe0
% 800000fffffffffffffffe00001fffffffffffffffffe0
% 800000ffffffffffffffff00003fffffffffffffffffe0
% 800001ffffffffffffffff80003fffffffffffffffffe0
% 800007ffffffffffffffffe0003fffffffffffffffffe0
% 80000ffffffffffffffffff0003fffffffffffffffffe0
% 80001ffffffffffffffffff0003fffffffffffffffffe0
% 80003ffffffffffffffffffc003fffffffffffffffffe0
% 80007ffffffffffffffffffe003fffffffffffffffffe0
% 80007ffffffffffffffffffe003fffffffffffffffffe0
% 8000ffffffffffffffffffff003fffffffffffffffffe0
% 8001ffffffffffffffffffff803fffffffffffffffffe0
% 8003ffffffffffffffffffffc01fffffffffffffffffe0
% 8003ffffffffffffffffffffc01fffffffffffffffffe0
% 8007ffffffffffffffffffffe01fffffffffffffffffe0
% 800ffffffffffffffffffffff01fffffffffffffffffe0
% 001ffffffffffffffffffffff01fffffffffffffffffe0
% 001ffffffffffffffffffffff80fffffffffffffffffe0
% 003ffffffffffffffffffffff80fffffffffffffffffe0
% 003ffffffffffffffffffffffc0fffffffffffffffffc0
% 007ffffffffffffffffffffffe07ffffffffffffffff80
% 007ffffffffffffffffffffffe07ffffffffffffffff80
% 007ffffffffffffffffffffffe07ffffffffffffffff80
% 00ffffffffffffffffffffffff03ffffffffffffffff00
% 01ffffffffffffffffffffffff01ffffffffffffffff00
% 01ffffffffffffffffffffffff01ffffffffffffffff00
% 01ffffffffffffffffffffffff80fffffffffffffffe00
% 03ffffffffffffffffffffffff80fffffffffffffffc00
% 03ffffffffffffffffffffffff807ffffffffffffff800
% 03ffffffffffffffffffffffffc07ffffffffffffff800
% 03ffffffffffffffffffffffffc03ffffffffffffff000
% 07ffffffffffffffffffffffffe01fffffffffffffe000
% 07ffffffffffffffffffffffffe00fffffffffffffc000
% 07ffffffffffffffffffffffffe007ffffffffffff8000
% 3ffffffffffffffffffffffffffffffffffffffffff800
% 3ffffffffffffffffffffffffffffffffffffffffff800
% 3ffffffffffffffffffffffffffffffffffffffffff800
% 0000000000000000000000000000000000000000000000
% 0000000000000000000000000000000000000000000000
% 0000000000000000000000000000000000000000000000
% 0000000000000000000000000000000000000000000000
% 0000000000000000000000000000000000000000000000
% 0000000000000000000000000000000000000000000000
% 0000000000000000000000000000000000000000000000
% 0000000000000000000000000000000000000000000000
% 0000000000000000000000000000000000000000000000
% 0000000000000000000000000000000000000000000000
% 0000000000000000000000000000000000000000000000
% 0000000000000000000000000000000000000000000000
% 0000000000000000000000000000000000000000000000
% 0000000000000000000000000000000000000000000000
% 0000000000000000000000000000000000000000000000
% 0000000000000000000000000000000000000000000000
%%EndImage
%%EndPreview
%%BeginProlog

/tgifdict 88 dict def
tgifdict begin

/tgifarcdict 8 dict def
tgifarcdict /mtrx matrix put

/TGAN % tgifarcn
 { tgifarcdict begin
      /endangle exch def
      /startangle exch def
      /yrad exch def
      /xrad exch def
      /y exch def
      /x exch def
      /savematrix mtrx currentmatrix def
      x y translate
      xrad yrad scale
      0 0 1 startangle endangle arc
      savematrix setmatrix
   end
 } def

/TGAR % tgifarc
 { tgifarcdict begin
      /endangle exch def
      /startangle exch def
      /yrad exch def
      /xrad exch def
      /y exch def
      /x exch def
      /savematrix mtrx currentmatrix def
      x y translate
      xrad yrad scale
      0 0 1 startangle endangle arcn
      savematrix setmatrix
   end
 } def

/tgifpatdict 12 dict def

/tgifpatbyte
 { currentdict /retstr get exch
   bytesperrow mul
   pat i cellh mod bytesperrow mul bytesperrow getinterval putinterval
 } def

/tgifpatproc
 { 0 1 cells_wd 1 sub {tgifpatbyte} for retstr
   /i i 1 add def
 } def

/TGPF % tgifpatfill
 { tgifpatdict begin
      /h exch def
      /w exch def
      /lty exch def
      /ltx exch def
      /cellh exch def
      /cellw exch def
      /pat exch def

      /cells_wd w cellw div cvi def
      /bytesperrow cellw 8 div ceiling cvi def
      /retstr cells_wd bytesperrow mul string def
      /i 0 def

      tgiforigctm setmatrix
      ltx lty translate
      w h true [1 0 0 1 0 0] {tgifpatproc} imagemask
      ltx neg lty neg translate
   end
 } def

/pat3 <8000000008000000> def
/pat4 <8800000022000000> def
/pat5 <8800220088002200> def
/pat6 <8822882288228822> def
/pat7 <aa55aa55aa55aa55> def
/pat8 <77dd77dd77dd77dd> def
/pat9 <77ffddff77ffddff> def
/pat10 <77ffffffddffffff> def
/pat11 <7ffffffff7ffffff> def
/pat12 <8040200002040800> def
/pat13 <40a00000040a0000> def
/pat14 <ff888888ff888888> def
/pat15 <ff808080ff080808> def
/pat16 <f87422478f172271> def
/pat17 <038448300c020101> def
/pat18 <081c22c180010204> def
/pat19 <8080413e080814e3> def
/pat20 <8040201008040201> def
/pat21 <8844221188442211> def
/pat22 <77bbddee77bbddee> def
/pat23 <c1e070381c0e0783> def
/pat24 <7fbfdfeff7fbfdfe> def
/pat25 <3e1f8fc7e3f1f87c> def
/pat26 <0102040810204080> def
/pat27 <1122448811224488> def
/pat28 <eeddbb77eeddbb77> def
/pat29 <83070e1c3870e0c1> def
/pat30 <fefdfbf7efdfbf7f> def
/pat31 <7cf8f1e3c78f1f3e> def

/TGMAX
 { exch dup 3 1 roll exch dup 3 1 roll gt { pop } { exch pop } ifelse
 } def
/TGMIN
 { exch dup 3 1 roll exch dup 3 1 roll lt { pop } { exch pop } ifelse
 } def
/TGSW { stringwidth pop } def
/tgifstrw 0 def

/bd { bind def } bind def

/GS { gsave } bd
/GR { grestore } bd
/NP { newpath } bd
/CP { closepath } bd
/CHP { charpath } bd
/CT { curveto } bd
/L { lineto } bd
/RL { rlineto } bd
/M { moveto } bd
/RM { rmoveto } bd
/S { stroke } bd
/F { fill } bd
/TR { translate } bd
/RO { rotate } bd
/SC { scale } bd
/MU { mul } bd
/DI { div } bd
/DU { dup } bd
/NE { neg } bd
/AD { add } bd
/SU { sub } bd
/PO { pop } bd
/EX { exch } bd
/CO { concat } bd
/CL { clip } bd
/EC { eoclip } bd
/EF { eofill } bd
/IM { image } bd
/IMM { imagemask } bd
/ARY { array } bd
/SG { setgray } bd
/RG { setrgbcolor } bd
/SD { setdash } bd
/W { setlinewidth } bd
/SM { setmiterlimit } bd
/SLC { setlinecap } bd
/SLJ { setlinejoin } bd
/SH { show } bd
/FF { findfont } bd
/MS { makefont setfont } bd
/AR { arcto 4 {pop} repeat } bd
/CURP { currentpoint } bd
/FLAT { flattenpath strokepath clip newpath } bd
/TGSM { tgiforigctm setmatrix } def
/TGRM { savematrix setmatrix } def

end

%%EndProlog
%%Page: 1 1

%%PageBoundingBox: 13 680 192 764
tgifdict begin
/tgifsavedpage save def

1 SM
1 W

0 SG

72 0 MU 72 11 MU TR
72 128 DI 100.000 MU 100 DI DU NE SC

GS

/tgiforigctm matrix currentmatrix def

% ARC
0.561 0.753 0.988 RG
NP
   275 116 M
   275 116 65 65 130 406 TGAN
   275 116 L
   F
GS
   GS
      NP
         275 116 65 65 130 406 TGAN
      S
   GR
GR

% POLYGON/CLOSED-SPLINE
0.561 0.753 0.988 RG
NP
   275 113 M
   232 166 L
   322 164 L
CP
GS
   EF
GR

% ARC
0.561 0.753 0.988 RG
NP
   121 180 M
   121 180 91 91 -171 -8 TGAN
   121 180 L
   F
GS
   GS
      NP
         121 180 91 91 -171 -8 TGAN
      S
   GR
GR

% TEXT
NP
0.529 0.808 0.922 RG
GS
   NP 92 107 M 158 107 L 158 154 L 92 154 L CP EC NP
   pat5 8 8 88 104 72 56 TGPF
GR
   GS
      1 W
      125 126 M
      GS
        GS
        0
            /Helvetica FF [18 0 0 -18 0 0] MS
            (Wetting) TGSW 
        AD
        GR
      2 DI NE 0 RM
            0.000 0.392 0.000 RG
            /Helvetica FF [18 0 0 -18 0 0] MS
            (Wetting) SH
      GR
      0 24 RM
      GS
        GS
        0
            /Helvetica FF [18 0 0 -18 0 0] MS
            (fluid) TGSW 
        AD
        GR
      2 DI NE 0 RM
            0.000 0.392 0.000 RG
            /Helvetica FF [18 0 0 -18 0 0] MS
            (fluid) SH
      GR
   GR

% TEXT
NP
0.529 0.808 0.922 RG
   GS
      1 W
      275 109 M
      GS
        GS
        0
            /Helvetica FF [18 0 0 -18 0 0] MS
            (NonWetting) TGSW 
        AD
        GR
      2 DI NE 0 RM
            0.000 0.392 0.000 RG
            /Helvetica FF [18 0 0 -18 0 0] MS
            (NonWetting) SH
      GR
      0 24 RM
      GS
        GS
        0
            /Helvetica FF [18 0 0 -18 0 0] MS
            (fluid) TGSW 
        AD
        GR
      2 DI NE 0 RM
            0.000 0.392 0.000 RG
            /Helvetica FF [18 0 0 -18 0 0] MS
            (fluid) SH
      GR
   GR

% POLY/OPEN-SPLINE
0.471 0.161 0.012 RG
GS
   NP
      27 166 M
      329 166 L
   TGSM
   4 W
   S
   1 W
GR

% BOX
1 SG
NP 27 169 M 256 169 L 256 196 L 27 196 L CP F
GS
   10 SM
   GS
      NP 27 169 M 256 169 L 256 196 L 27 196 L CP
      S
   GR
GR

GR
tgifsavedpage restore
end
showpage

%%Trailer
%MatchingCreationDate: Thu Aug 22 07:38:34 2013
%%DocumentFonts: Helvetica
%%EOF
